0 j [0, 441]->1 #857 p=0.291497
0 b [0, 441]->3 #400 p=0.136054
0 h [0, 441]->2 #437 p=0.148639
0 d [0, 441]->4 #393 p=0.133673
0 a [0, 441]->5 #300 p=0.102041
0 c [0, 441]->6 #207 p=0.0704082
0 f [0, 441]->21 #112 p=0.0380952
0 e [0, 441]->27 #50 p=0.0170068
0 g [0, 441]->7 #171 p=0.0581633
0 i [0, 441]->-1 #13 p=0.00442177
1 b [0, 44]->17 #263 p=0.191971
1 b [45, 58]->31 #34 p=0.0248175
1 b [59, 441]->16 #166 p=0.121168
1 d [0, 41]->12 #363 p=0.264964
1 d [42, 441]->13 #271 p=0.19781
1 g [0, 441]->7 #273 p=0.19927
2 b [0, 441]->8 #503 p=0.333776
2 d [0, 441]->10 #322 p=0.21367
2 a [0, 441]->5 #682 p=0.452555
3 j [0, 441]->1 #132 p=0.350133
3 h [0, 441]->23 #106 p=0.281167
3 d [0, 441]->12 #139 p=0.3687
4 j [0, 441]->20 #162 p=0.246201
4 b [0, 441]->15 #139 p=0.211246
4 h [0, 441]->2 #301 p=0.457447
4 g [0, 22]->32 #28 p=0.0425532
4 g [23, 441]->30 #28 p=0.0425532
5 h [0, 441]->2 #722 p=0.585089
5 c [0, 116]->9 #474 p=0.384117
5 c [117, 441]->26 #38 p=0.0307942
6 a [0, 441]->5 #123 p=0.706897
6 f [0, 441]->21 #51 p=0.293103
7 j [0, 441]->11 #646 p=0.696872
7 d [0, 441]->4 #281 p=0.303128
8 j [0, 441]->1 #137 p=0.173198
8 h [0, 441]->19 #201 p=0.254109
8 d [0, 441]->14 #453 p=0.572693
9 a [0, 30]->25 #63 p=0.133758
9 a [31, 441]->5 #120 p=0.254777
9 f [0, 441]->21 #288 p=0.611465
10 j [0, 441]->20 #71 p=0.124343
10 b [0, 441]->8 #40 p=0.0700525
10 h [0, 93]->22 #310 p=0.542907
10 h [94, 441]->23 #40 p=0.0700525
10 g [0, 441]->30 #110 p=0.192644
11 b [0, 441]->16 #81 p=0.126365
11 d [0, 441]->13 #237 p=0.369735
11 g [0, 441]->7 #323 p=0.5039
12 j [0, 42]->20 #276 p=0.311161
12 j [43, 441]->11 #26 p=0.0293123
12 b [0, 441]->15 #422 p=0.475761
12 h [0, 26]->33 #25 p=0.0281849
12 h [27, 441]->22 #123 p=0.13867
12 g [0, 441]->-1 #15 p=0.0169109
13 j [0, 7]->29 #76 p=0.132174
13 j [8, 441]->20 #91 p=0.158261
13 b [0, 3]->17 #23 p=0.04
13 b [4, 441]->15 #295 p=0.513043
13 h [0, 441]->19 #85 p=0.147826
13 g [0, 441]->-1 #5 p=0.00869565
14 j [0, 441]->20 #133 p=0.267606
14 b [0, 441]->8 #189 p=0.380282
14 h [0, 441]->23 #163 p=0.327968
14 g [0, 441]->-1 #12 p=0.0241449
15 j [0, 441]->1 #312 p=0.240741
15 h [0, 441]->19 #346 p=0.266975
15 d [0, 441]->18 #638 p=0.492284
16 j [0, 441]->28 #230 p=0.761589
16 h [0, 441]->19 #58 p=0.192053
16 d [0, 441]->-1 #14 p=0.0463576
17 j [0, 441]->1 #143 p=0.539623
17 h [0, 28]->-1 #19 p=0.0716981
17 h [29, 441]->19 #69 p=0.260377
17 d [0, 441]->18 #34 p=0.128302
18 j [0, 441]->20 #57 p=0.0829694
18 b [0, 441]->15 #519 p=0.755459
18 h [0, 441]->23 #108 p=0.157205
18 g [0, 441]->-1 #3 p=0.00436681
19 b [0, 441]->24 #451 p=0.560248
19 d [0, 441]->31 #26 p=0.0322981
19 a [0, 441]->5 #328 p=0.407453
20 b [0, 441]->17 #48 p=0.0640854
20 d [0, 441]->12 #408 p=0.544726
20 g [0, 12]->30 #119 p=0.158879
20 g [13, 441]->7 #174 p=0.23231
21 c [0, 441]->26 #132 p=0.490706
21 e [0, 441]->27 #137 p=0.509294
22 b [0, 441]->8 #59 p=0.14532
22 d [0, 441]->10 #82 p=0.20197
22 a [0, 22]->25 #79 p=0.194581
22 a [23, 27]->5 #32 p=0.0788177
22 a [28, 441]->25 #154 p=0.37931
23 b [0, 441]->8 #131 p=0.351206
23 d [0, 441]->31 #27 p=0.0723861
23 a [0, 441]->25 #215 p=0.576408
24 j [0, 441]->29 #59 p=0.163889
24 h [0, 441]->19 #209 p=0.580556
24 d [0, 37]->14 #72 p=0.2
24 d [38, 441]->13 #20 p=0.0555556
25 h [0, 441]->2 #117 p=0.307087
25 c [0, 441]->9 #264 p=0.692913
26 a [0, 441]->31 #86 p=0.68254
26 f [0, 441]->29 #40 p=0.31746
27 f [0, 441]->21 #39 p=0.696429
27 i [0, 441]->-1 #17 p=0.303571
28 b [0, 441]->16 #130 p=0.722222
28 d [0, 441]->18 #24 p=0.133333
28 g [0, 441]->7 #26 p=0.144444
29 b [0, 441]->16 #27 p=0.214286
29 d [0, 441]->13 #71 p=0.563492
29 c [0, 441]->-1 #6 p=0.047619
29 e [0, 441]->-1 #7 p=0.0555556
29 g [0, 441]->-1 #15 p=0.119048
30 j [0, 441]->11 #31 p=0.128099
30 d [0, 441]->10 #211 p=0.871901
31 j [0, 441]->-1 #14 p=0.0992908
31 b [0, 441]->-1 #1 p=0.0070922
31 h [0, 441]->2 #105 p=0.744681
31 c [0, 441]->-1 #15 p=0.106383
31 g [0, 441]->-1 #6 p=0.0425532
32 j [0, 441]->-1 #11 p=0.392857
32 d [0, 441]->-1 #17 p=0.607143
33 b [0, 441]->-1 #1 p=0.047619
33 d [0, 441]->-1 #1 p=0.047619
33 a [0, 441]->-1 #19 p=0.904762