f,c;f,e


c,a,h;a,c,f,e;c,f,e;c,f;c,a


d,b,j,b;h,b,d,j;b,d,j,g;b,d,j,d;h,b,d,b;d,b,j,d;d,h,a,h;d,h,a;d,h,b;d,h,d;d,b;d,g;d,j;d,h;d,j,g,j;b,h,b,d;b,h;b,j;b,d;d,j,g,d;d,b,h,a;d,b,h,b;d,b,d,h;d,g,d;b,h,b,h;b,d,b,d;b,d,h,a;b,j,d;b,d,b,j;b,d,b,h;b,j,g;b,j,b;d,j,d;d,b,h;d,b,d;d,g,d,h;b,h,b;b,h,a;b,j,b,j;b,d,b;b,d,j;b,d,h;j,d,h,a;d,h,b,d;d,b,d,b;d,h,d,h;d,j,d,j;d,j,d,b;d,j,g


g,j,d;g,j,g;j,g,j,d;j,b,j,b;g,d,j;j,d;j,g;g,d,h;b,j,d,b;g,d,h,a;j,d,j,g;j,d,j;j,d,h;j,d,b;j,b,h;j,b,j;g,j;g,d;j,g,d,h;g,j,d,b;j,d,j,d;g,j,g,j;d,b,j;j,g,j;j,g,d;j,g,j,g;j,b;j,d,b,j;j,d,b,h;j,d,b,d


h,d,h;h,d,g;h,b,d,h;h,d;h,b;h,a,c;h,a,h;h,a;h,a,c,a;h,d,h,a;h,b,h,b;b,h,a,c;b,h,a,h;h,a,h,b;h,a,h,a;h,b,d;h,b,j;h,b,h;d,h,a,c


a,h,d;a,h,a;a,h,b;h,a,c,f;a,c,f;a,c,a;a,h;a,c;a,h,b,d;a,h,a,h;a,h,a,c


