0,5,4,16
0,1,13
0,3,2,6,12,10,14,10,14,4,19,1,15,19
0,3,2,4,5,4,5,7
0,3,18,21,27,22,27,22,5,4,9,20,26,22,5,7
0,3,2,4
0,1,12,10,14,10,15,19,15,19,15,19,15,23,7
0,3,18,20,26,10,14,10,14,6,12,10,34,29,17
0,3,18,21,27,20,26,28,26,22,5,4,9,20,26,10,14,10,30
0,18,20,26,10,14,10,25,18,20,26,10,30
0,2,6,18,20,26,10,14,6,12,6,12,10,30,33,30,33,30,33
0,2,6,12,4,9
0,5,7,8,7,8,7
0
0,3,18,21,26,28,26,10,14,6,12,10
0,3,2,4,16,2,4,16,2,4,5,7
0,3,2,10,14,6,12,10,15,16,30,33
0,2,6,18,20,26,10,14,10,15,16,2,4,5,4,19,23,32
0,4,5,4,5,7,8,7
0,2,4,16,2,4,19,23,7
0,2,4,5,4,9,20,26,22,5,7
0,3,2,4,16,2,10,14,10,30
0,4,5,7,8,7
0,4
0,2,4,5,7
0,3,2,4,16,2,6,12,4,5,7,8,13,23,32,23,32,23,32,23
0,3,18,20,18,20,26,10,14,10,14,4,19,23,7
0,3,2,10,25,14,10,25,14,10,34,29,17
0,3,2,6,12,10,14,10,15,5,7
0,3,2,6,12,10,14,6,12,10,14,10,14,6,12,10,30,33,30,33
0,3,2,4,5,4,19,15,16,2,4,16,2,4,19,15,19,23,7
0,3,2,4,5,4,16,2,4,5,7
0,2,6,12,10,15,9,20,26,22,5,4,5,7,8
0,13,15,23,32,23,7
0,2,4,5
0,1,13,1
0,3,2,6,12,6,12,4,9
0,3,2,10,14,10,14,10,14,4,9,22,27,22,27,22,5,4,19,15,19
0,2,4,5,7,8,4,5,7
0,5,7
0,3,2,6,12,10,14,10,14,10,15,19
0,1,13,1
0,4,9,22,27,22,16,2,10,14,4,5,29
0,7,8,13
0,2,6,12,4,16,2,4,5,29,34
0,1
0,3,2,10,14,10,15,16,33,30,33,30
0,3,2,6,12,10,14,10,14,10,15,19,1
0,2,4,5,4,16,2,6,12,4,19,23,32
0,3,2,10,15
0,1
0,1
0,1,13,1,13
0,3,2
0,1,12
0,2,10,14,10,14,4,5,7
0,4,19,1,13
0
0,3,2,4
0,18,20,35
0,4,19,15,19,16,15,19
0,2,10,14,10,14,4
0,18,20,35
0,3,2,4,9,22,5,7
0,13,15
0,2,6,12,10,14,10,15,16,15,19,1,15,19,23,32
0,1,13,1
0,3,2,6,12,4,9,22,27,22,5
0,4,19,1
0,7,8,13
0,1
0,2,4,5,7
0,5,4,5
0
0,2,4,16,2,10,15,19,15,19,15,23,32,23,7,8
0,4,9,22,5,4,5,7
0,4,5,4,9,20,26,22,5,4,5,29,15,19,23,7,8,13,15
0,2,10,14,10,14,6,12,6,12,10,15,19,1
0,18,20
0,4,16,2,6,12,10,30,33,30,33
0,2,6,12,4
0,7
0
0,3,2,4,5,4,9,20,26,10,34
0,4,9,20,26,22,16,2,4,19,16,15,19,1
0,2,4,9,22,5,7
0,2,10,14,10,14,10,14,6,12,10,15,5,7,8,7,8,13,1
0,2,6,12,10,14,10,14,6,12,4,19,15,19,15,23
0,3,2,10
0,5,4,16,2,6
0,2,10,14,4,5,7
0,2,6,12,10,14,6,12,6,12,10,25,18
0,2,4,16,2,4,5,7,8,13
0,2,4,16,2,10,14,4,16
0,4,9,22,5
0,3,18,20,26,10
0,1,13,1
0,2,4,16,2,10,30,33
0,2,10,14,10,14,6
0,4,5,4,19,15,19,15,19,15,19,15,23,7
0,4,9
0,1,13,23,7,8,13,1,12
0,2,6,12,10,14,10,34,29
0,5,7
0,4,5
0,4,5
0,7,8,13,1,15
0,2,10,14,10,14,6,12,10,30,33
0,2,6,12,10,14,10,14,10,14,10,15,5,29,15,19
0,2,4,5,4,19,15,19,15,19,23,7,8,13
0,2,10,14,10,14,4,5,29,34,29,34
0,3,2,4,5
0,2,4,19,15,19
0,13,15,19,15,19,15,23,7
0,2,10,14,6,12,10,14,10,30,33,30
0,4,16,2,10,14,10,14,10,14,10,14,10
0,2,4,16,2,4,5,7
0,1,15,19,15,19,15,23,7
0,2,10,14,10,14,4,5,7,8,13
0
0,5,7
0,2,4,9,22,27,22,5,7
0,2,6,12,10,14,6,12,10,30,33,30
0,2,4,9,22,5,7
0
0,5,29,15,16,2
0,4
0,3,2,10,14,10,14,6,12,10,14,6,12,10,25,14,10
0,1,13,1,13
0,3,2,10,14,4,16
0,1
0,13,1
0,3,2,6,12,10,30,33
0,4,16,2,4,16,2,4,16,2,10,14,10
0,5,4,16
0,5,7,8,7
0,1,13,15,19,23,7,8,13,15,19,15,19,16
0,4,16,2,10,14,10,14,10,14,10
0,7,8,13,1
0,3,2,4,9,20,26,10,14,4,19,15,23,7
0,1,13,1,13,23,32,23,32,23,32,23,32
0,5,7
0,4,5,29
0,18,20,35
0,4,5,7
0,2,10,14,10,14,10,14,10,14,10
0,7,8,4
0,4,5,29,34
0,1,25,18
0,13,1
0,5,4,16,2,4,5,7,8,13,23
0
0,5,7
0,4,5,7
0
0,7
0,7
0,4,16,2,4,5
0,7,8,7
0,4
0,2,4,5,4,5,7
0,1,15,5
0,3,18,20,26,28,26,28,26,10,30,33,30,33,30,33,30,33
0,4,5,7
0
0,5,7,8,7
0,3,2,10,14,10,14,10,14,4,9,22
0
0,3,2,6,12,10,30,33,30,33,14
0,2,10,14,10,14
0,18,20,26,31
0,4,5,7
0,4,19,15,19,1
0,1,13,15,19,15,19,15,19,15,19,16,2,10,14
0,3,2,10,14,10,14,10,14,10,30,33
0,2,4,9
0,1,12,10,15,16,2,4,5,4,19,15,23,7
0,2
0,2,6,12,10,30
0,7,8,13,15,5,29,15,19,15
0,2,6,12,10,15,19,15,23,7
0,1,13,1
0,4,9
0,2,4,5,4,19,15,19,15,19,15,19,15,19,15,23
0,2,10,14,10,14,10,15,9,22,5,4,19,15,23,32,23,7,8,7
0,2,6,12,4,5,7,8,13,1,12
0,2,4,5,7,8,13,1
0,1,25,14,10,14,10,25,14,10,30,33,30
0,3,2,4,16,33,30,33,30,33
0,2,4,16,2,4,19,1
0,3,2,6,12,10,30,15,19,1,12
0,2,6,12,4,19,1,15,19,15,19,15
0,1,12,6,12,6,12,10,14,10,14,10,30,33,30,33,30
0,2,10,15,19,23,29,15,19,16,33
0,4,5,4,9,22,5,7
0,3,2,6,12,6,12,6,12,6,12,6,12,10,15,19,1,12
0,3,2,6,12,4,19,15,19,1,15,19,15,19,1,12,6
0,1,25,14,10,14,10,14,10,30,33,30,33,30,33
0,3,2,10,25,14,10,15,19,1
0,2,10,14,4,19,15,19,1,15,19,15,19,15,19,15,19,23,32
0,4,5,4,5,7,8,7,8,7,8,13,1,15,19,15,23
0,2,4,16,2,6,12,4,19,23,32
0,3,2,6,12,10,14,6
0,7,8,24
0,2,10,14,4,9,22,27,22,5,29,15,23,7,8,7,8,13,15,19,1
0,5,7
0,1
0,3,18
0,1,13
0,3,2,6
0,3,2,10
0
0,3
0,4,9
0,3,18
0,5,7,8,13,1
0,1
0
0,4
0,2,6,12,10,15,5,7
0,2,10,14,10,14,10,30
0,5,29,15
0,2,6,12,4,5,7
0,5,4,19,15,19,15,23,7
0
0,4,5,4,19,15,19,1,15,19
0,1,13
0,5,4,16
0,1,13,23,7,8
0,13,1
0,4,5,4,5,7,8,13,15,23
0,4,9
0,1,15,19,15,19,15,19,15,19,15,19,15,19,15,19,15,19,15,19,15,19,15,19,15,23,7
0,2,6,12,6,12,4,5
0,1,13,23,7
0,2,4
0,7,8,7,8,13,23,29,15,16,2
0,3,2,10,14,10,14,6,12,10,30
0,3,2,10,34,29
0,1,12
0,2,4,19,15,19,23,32,23,32,23,29,15,19,15,16
0,3,2,10,15,19,1
0,1
0,2,6,12,10,30
0,7,8,13,1
0,3,2,10,30
0,1
0,4,16
0,2,6,12,4,19,15,19
0,7,8,7,8
0,4,9,22
0,3
0,3,18,20,35
0,2,4,9,22,5,7,8,24
0,3,2,10,14,4,19,15,19,1,15
0,4,5,7
0,13,15,23
0,3,18
0,2,10,14,6
0,3,2,6,12,10,30,33,30,33
0,5,4,5,7,8,7
0,2
0,5,4,5,4,5,29,34,29,34
0,4,5,4,5,29,15,23,7
0,1,13,23,32,23,7
0,2,10,14,10,14,10,30,33,30,33
0,2,6,18,20,18,20,26,10,15,19,15,19,23,7,8,7
0,1,12,10,14,10,14,10,14,10,14,10
0,3,2,4,9,22,5,7
0,7
0,2,6,12,6,12,10,14,10,14,10,30,33,14,10
0,4,16
0,7,8,13,1,13,1,13,1
0,2,10,14,10,14,10,30,33,30,33
0
0,13
0,5,4,9,22,5,7,8,13
0,1,13,15,19,15
0,3,2,4,5,7
0,3,2,4,16,30,33,30
0,13,15,19,15
0
0,4,9,22,5,7,8,7,8,7,8
0,2,4,19,15,19,16,15,23,29,34,29,34,29,34
0,5,4,9,20,26,10,15,5,7
0,7,8,13,15,23
0,2,10,15,16,15,19,15,23,7
0
0,4,9
0,13,1
0,2,10,14,6,12,10
0,7,8,13,15,19,15,23
0,18,20,35
0,2,10,14,10
0,5,29,17
0,2,6,12,10,14,10
0,7,8,13,1
0,3,2,4,5,7
0,1,13,15,23,7
0,13,15,19,15,19
0
0
0,1
0,1,13,1,15
0,5,7
0,13,1
0,1
0,4,5,4,5,7,8,7
0,1,15,16,30,33
0,3,2,4,5,29
0,2,10,14,10,15,19
0,7,8
0,2,4,5
0,7,8,13
0,7,8,13,23,32,23,32
0,4,9,22,5,7
0,7,8
0,5,7
0,4,5,7
0,1,13,23,7
0,13,23,7,8
0
0,13,1
0,1,25
0
0,2,10,14,4,5,7
0
0,13
0,7,8,24
0,1,25,18
0,3,2,10,30
0,2,4,5,7
0,1,13,23,7
0
0,4,5,7
0,1,15,19,15,23,7
0
0,1,13,15
0,3,2,10
0,1,13,1,13,1
0
0,2,4,5,7,8,7,8
0,4,19,16,2
0,1,13,23,32,23,7,8
0,7,8
0,4,16,2,10
0,4,19,23,32,23,29,17
0,2,4,19,1
0,7,8,13,1
0,5,7
0,7
0,2,6,12,4,19,15,23,7
0,1,13
0
0,4,5
0,7
0,7,8
0,2,4,5,7
0,4,5,4,5
0,1,25,18
0,7,8
0,5,7
0,1,13,23,7,8
0,4,5,7
0
0,3,2,10
0
0,2,4,16
0,1
0,2,10,14,10,30,15,19
0
0,3,2,10,14,10
0,2,4,16,15,19,15,19,23,29,34,29,15,19,15,19,15
0,3,2,10,14
0,3,2,10
0,5,29,34,29,34,29,34
0,1,13
0,7
0,1,13
0,3,2,6,12,10,14,10,14,10,15,19
0,1,13,1,25,18
0,3,2,10,14,10,14,10,30,33,30,33
0,4,9,22,5,7
0,2,4,5,4,19,15
0,7
0,2,4,5,7,8,7,8,13,23,32
0,3,2,10,14,10,30,33,30,15,19,15,16
0,7
0,7
0,4,5,4,5,7
0,3,2,10,34,29,34
0,3,2,10,14,10,14,10
0,13
0,2,10,15,19,15,19,15,19
0,1,13
0
0,2,4,5,4,19,15,5,29,34
0,4,5,7,8
0,13
0,13,23,7,8,7
0,2,4,5,7,8,13,23,32
0,2,10,14,10,30
0,1,13,1
0,5,4,16
0,4,5,7,8,7,8,13,23,32,23,7
0,1
0,2,4,5,7
0
0,1,13,15,19,15,19,15,19,15,23
0,2,4,5,7
0,1,13,1,15
0,3,2,10,14,10,30,33,30,33,30,33,30
0,7,8,13,15,19,15
0,2,4,19,1,13,15,19,1,13,15,19,1,13,15,19,15,19,15,16
0,4,5,4,5,29,34,29,34,29,34
0,3,2,10
0,4,5,7
0,7,8,13,1,15,19,16
0,4,5,7
0,5,7
0
0
0,3,2,10,14,10,14,10,14,10,30,33,14,6,12
0,1,25,14,10,14,10,30,33
0,2,10,15,19,15,23,7,8,13,23,32
0,2,10,14,10,15,16,15,16
0,2,10,15,19,15,5,7,8,7,8,7
0,2,10,30,33,30,33,30,33,30,33,14,6
0,4,19,15,19,15,19,1
0,3,2,10,15,19,16,30
0,2,10,34,29,15,19,15,9
0,2,10,15,19,15,19,15,19,15,19,15,19,23,7,8,13,15,19,15,19,1
0,4,5,7
0,3,2,10,30,33,14,10,15,19,1,12
0,3,2,10,30,33,30,33,14
0,7
0,4,5,7,8,7,8,7
0,13,15,19,15
0,2,10,30
0,1
0,4,19,15,19,23,7
0,2,4,5,7
0,7
0,5,4
0,2,10,14,10,15,19,15,19,23,7,8,13
0,13,15,16,2,10,14
0,4,5,4,5,4,5,7,8,13,15,19,15,19,15
0,4,19,15,19,15,23,7,8,13,15,5,4,19,15,19,15,23,29,15,23
0,3,2,10,14,4,5,7,8,4
0,1,13,15,19,15,19,15,19,23,7
0
0,5,7,8,7,8
0,1,13,1,13,1,12,10
0,4,5,7
0,4,5,7,8,7,8,13,15,5,4,16,2,6
0,1,13,1,12,10,14,6,12,6
0,1,15,16,33,30,33,30,15,19,1,12
0,1,13,1,13,1,13,1
0,1,12,10,30,33,30,33,14,10,14,6
0,1,13,1,12,10,14
0,1,13,1,13,15,19,15,5,29,15,9,20
0,3,2,10,30,33,14,10,14,6,12,4,5,4,5
0,2,6
0,1,25
0,3,18
0,1,13,1,13,1,13,15,19,1,12
0,7,8,7,8,7,8,13,23,7
0,3,2,10,25,14,10,14,6,18,21
0,4,5,4,19,15,23,32,23,29,15,23,29,15,19,15,16,2,10,14,6,12
0,13,23,29,15,19,15,19,15,16
0,4,19,15,19,15,19,15,23,29,15,19,16,33
0,1,12,6,18
0,1,13,1,15,19,15,19,16,2,10,14
0,1,15,19,1
0,4
0,1,13,1,13,1,12,10
0,2,4,19,15,19,15,19,15,23,7,8,13,1,12,6,12,4,5,7,8,4,9,20,18
0,1,15,19,15,19,15,19,15,19,16,2,4,16,30,15,19,15,19,15,9,20,18,21
0
0,7
0,4,19,15,19,15,19,15,19,23,32,23,29,15
0,1,12,6,12,10,14,6,12,6,18,20,18,21
0,4,5,7,8,13,15,23,32,23,29,15,19
0,5,4,9,20,26
0,5,7,8,7
0,1,13,1,12,4,19,15,19,15,19,15,16,2,6,12,6,18,21,27
0,1,13,1,13,15,19,15,19,15,19,15
0,1,13,1,15,19,15,19,1,25,18,20
0,4,19,16,30,33,30,33,30,33,14,6,18,21
0,1,13,1,13,1,12,6,12,6,12,4,5,7,8,24,9,20
0,1,12,10,14
0,1,25,18,20,26,28,26,31,5,7,8,13,15,16,2,6,18,20,26
0,1,15,19,15,23,7,8,13,1,12,4,5,29,15,19,15,16,2,6,12,6,18,20,18,21,27
0,5,4,19,15
0
0,4
0,1,13,15,19,15,19,23,32,23
0,5,7
0,1,13,1,25,14,6,12,4,5,7,8,24,9,20,18,21,26
0,1,13,1,13,1,13,15,16,2,10,14,4,5,29,15,16,2,6,18,20,18,20,18,21,27,22
0,1,12
0,5,7,8,24
0,4,5,29,34,29,15,19,15,16,2,6,12,4,9,22,5,4,9,20,18,21,26,22
0,4,19,1,13,1,12,4,5,29,15,16,2,6,12,6,12,6,18,21,27,22,5
0,4,5,29
0,1,13,1,13,1,12,6,12
0,5
0,1,15,19,15,23,7
0,7,8,13,15,23,32,23,29,15,19,15,19,16,2
0,4,19,23,32,23,32
0,13,15,23,7
0,7,8,13,1,12,4,5,7,8,13,15,16,2,6,12,6,18,21,27,22,5
0,4,19,15,19,15,5,29,15,19,15,5,4,5,4,5
0,1,12,6,12,4,5,4,9,20,18,20,26
0,13,1,13
0,7,8,13,15,19,15,19,15,16,2,6,18,21,26
0,4,19,15,23,7,8,7,8,7,8,7,8,13,15
0,13,1,15,19,15,19,15,19,16,2,10,14,4,5
0,1,13,15,23,7
0,1,15,16,2,4
0,13,1,13,1,13,1,12,6,18,20,26
0,7
0,5,7,8,24
0,3,2,10,15,5,4,9,20,26,28,26,28,26,22,5
0,5,4,5,4,5,4,5,29,15,19,15,5
0,1,12,4
0,4,5,7,8,24,9,20,26,28,26,31
0,1,13,1,13,1,12,4
0
0,4,19,1,13,1,15,19,15,19,15,23,7
0,1,15,23
0,5,29,34
0,1,13,15,19,23,7,8,7,8,13,15,23
0,13,1,13,1,13,1,15,16,2,6,12,4
0,1
0,1,25,18,21,18,21,26,10
0,13,1,12,6,12,4,9,22,5,7,8,24,9,20,18,21,26
0,1,15,19,15,19,15,23,7,8,24,9,22,5,7
0
0,7,8,4,5,4,5,4,5,4
0,4,5,29,17
0
0
0,1
0,1,13,15,19,15,19,16,2,6,12,6,12,4,16,2,6,18,21,26
0,5,4,19,15,5,4,9,22,5,7
0,1,12,6,12,6,18,20,26,31,5,7
0,5,7,8,7,8,7,8,7
0,13,1,15,16,2,6,12,4
0,1,15,19,1,15,19,1,15,19,15,19,23,32,23,29,15,5,4,19,15,16
0,1,15,19,15,19,15,19
0,7,8,7,8,13,23,32
0,1,12,10
0
0,1,13,1,13,1,25,18,20,35
0,1,13,1,13,15,19,15,19,15,19,16,2,6,18,20,26
0,1,13,15,19,15,19,15,19,15,19,15,19,15,16,2,6,12,6,12,4,5,4,5,4,9,20,18,20,26,22
0,1,12,6,12,4,5
0
0,1,15,19,15,19,15,19,15,19,16,33,30,33,14,4
0,1,15,19,1,12,6,18,20,18,21,18,20,26,10,14
0,1,13,1,13,1,13,1,13,15,19,1
0,1,13,1,13,1,12,10,14,6,18,20,26,22,27,20,26,22,5,4,16,2,6,18,21,26,31
0,7,8,4,9,20,26,31,5,7
0,13,15,23
0,13,1,13,15,19,15,19,15,19,1,13,15,19,15,9,22
0,7,8,7,8
0,1,13,23,32,23
0,3,18,20,26,10,25,18
0,13,15,19,1,13,1,13,1,13,1,25,14
0,4,19,15,19,1,13,1,15,19,15,19,1,12
0,7
0,1,15,19,16,33,30
0,1,25,14,10,14,6,18,20,18,20,18,21,18,21,27
0,5,29,15,23,29,15,9,20,26,31
0,1
0
0,1,13,1,15,19,15,9,20,26,31,5,7,8,24,9,20,26,28,18,21,27,22,5
0,1,12,10
0,1,13,1,12,6,18,20,18,20,18,21,27,22,16
0,1,15,19,15,23
0,1,15,23,29,15,19,16,33
0,1,12,6,18,20,26,28,26,28,26,22,27,20,18,21,26,10,14,6
0,1,15,19,15,23,7
0
0,1,13,1,13,23,32,23,32,23,7,8,13,15,19,15,16
0
0,5,7,8,7,8,24
0,7,8,4,16,2,6,12,4,5
0,1,25,18,20,18,20,26,22
0,1,15,19,15,19,15,19,15,19,15,16,2,6,18,20,26,28,26,28,26,31
0
0
0,1,25,18,20,35
0,13,1,13,1,13,15,19,15,19,16,2,4
0,13,1,15,19,15,19,15,19,15,19,23,29,15,19,15,19,16
0,5,29,15,19,1,15,5,4,19,15,16
0,1,12,6,12,6,12,4,5,4,5
0,4,5,4,9,20,26,22,5,7
0,4,19,1,12,6,18,20,26,31,5,4,9,20,26,31,5,4,9,22,5,4,9,20,18,20,26,22,5,4,9
0,4,19,15,19,15,19,15,19,15,19,15,19,15,19,15,19,15,23
0,5,29,15,19,15,5,29,34
0,1,15,19,15,19,16
0,5,4,9,20,18,21,18,21,27,22
0,13,1,13,15,19,1,12,4,5,4
0,7,8,7,8,7,8
0,1,12,10,25,14,10,15,19,15,19,15,19,1,12,6,18,20,18,20,18,20,18,20,26,31,5,7
0,1,12,6,12,6,12,10,15,19,15,19,16,2,6,12,6,18,20,26,22,27,22
0,7,8,13,15,19,15,16,33,30,33
0,1,12,10,25,14,10,14,10,15,23
0,5,29,15,23,29,17
0,5,29,15,19,15,16,2,6,12,6,12,4,5,29,15,9,20,26,28,18,20,26,31
0,1,15,19,1,12,6,12,4,5,4,9,20,18,20,26,31,5,4,9,22,5,4,9,20,26,31,5,4,9
0,13,23,32
0,1,25,18
0,1,25,18,20,26,10,25,18,20,35
0,13,15,23,32
0,5,29,34,29,15,19,15,16,30,33
0,7,8,24
0,7,8,24
0,13,15,19,23,32
0,1,25,14,10,15
0,1
0,13,1,12,6,18,20,18,21,27
0,13,1,12,10
0,7
0,1,13,15,19,16,2,6,12,10,14,10,14,6,18,21,18,21,27,22
0,3,2,6,12
0,7,8,7
0,1,15,5,4,16,2,6,12,6,12,4,5,7
0
0,5,7
0
0,1,12,6,12,6,12,4
0,3,2,10,25,14
0,13,1,12,10,15,16,2,4,19,16,15
0,3,18,21,18,21,26
0,7
0,1,12,6,12,10,14,4,16,2,10,14,6,18,21,18,20,26,28,26
0,1,12,6,18,20,18,20,26,31,5,4,9,20,26,31
0,13,23,29,34
0,1,15,19,1
0
0
0,5,4,9,20,26,22,27,20,18,21,18,20,26,31,5,4,9,22
0,4,19,15,19,15,16,2,4,5,4,19,15,9,20,18,21
0,2,4,16,2,10,14,4
0
0,13,15,16,2,4,16,2,6,18,21,27,22,5,4,9,20,26,31,5,4,5
0,2,4,5,4,9,20,18,20,26,31,5,4,9,22
0,1,12,10,25,18
0,3,2,6,18
0,3,2,6,18,21,26,10,14,6
0,1,25,18,20,35
0,2,6,18,20,35
0,1,13,1,13,1,15,19,16,33,30,15,23,32,23,32
0,1,12,10,15,16,2,10,14,4,19,15,16
0,5,7,8,13,15,19,15,9,22,5
0,7
0,1,15,16,30,15,19,15,19,16,2,10,25
0,13
0,1,12,6,18,20,18,20
0,2,4,16,2,6,12,6,12,4,9,20,26,22,5,4,9
0,13,1,12
0,3,2,4,9,22,16,2,6
0,2,6,18,20,18,20,26,31,5,4
0,1,12,4,5,4,16,2,6,18,20,18,21,18,20,26,10,14,10,14,10,14,4,16,2,4
0,5,4,5,7,8,4,5
0,1,12
0,13,15,19,15,19,15,19,15,19,16,2,6,12,4,5
0,7
0,13,15,19,15,19,16,2,6,18,21,27,22,27,20,26,28,18,21,26,10,14,4,16,2
0,13,15,19,15,16,2,6,12,10,14,6,12,6,18,21,18,21,26,22
0,13,15,19,15,16,2,4,19,15,19,15,19,15,19,15,9,20,18,20,26,10,14,10,14,10,14
0,1,12,10,14,4,5,7,8,24
0
0,1,12,10,14,6,12,6,12,6,18,21,18,20,18,21,26,10,14,6
0
0,13,15,23
0,1,25,18,21
0,4,19,16,2,6,18,20,26,28,18,21,18,21,26,10,25,18,20,26
0,7,8,24,9,22,16
0,13,15,19,15,16,2
0,3,18,21,26,28,26,28,26,10,14
0
0
0,7,8,7,8,7
0
0,1,25,14,10,14
0,13,15,19,15,16,2,6,12,4
0,5,4,19,16,2,6,18,21,18,20,26,10,14
0,3,2
0,1,12,10,14,10,14
0,5,7,8,13,15,9,20,18,20,26,22,27
0,5,4,5,4,5,4,5
0,1,15,19
0,1,12
0,2,10,30,15,19
0,4,16,2,10,15,5
0,7
0,13,15,19,15,19,16,2,6,18,20,26,10,14,10,14,10,14,6,18,21,18,21,27
0,5,4,9,22
0,1,25,14,10,14,6,18,21,26,28,26,28,26,10,14
0,1,13,23,7,8
0,1,12,10,34,29,17
0,5,4,16,2,10,14,4,16,2
0,13,15,5,4,5,4,9,20,26,31,5,7
0,5,7
0,5,4,9,20,26,28,26,31,5,7
0,1,12,6,18,20,26,10,25,14,10,14,6,12,10,14
0,1,12,6,18,20,18,21,27,22,5,4,9,20,26,31
0,1,13,1,13
0,1,12,10,14,10,14,10,14,10,25
0,2,10,30,33,30,33
0,5,4,16,2,10,14,4,5,4,9,20,26,28,26,28,26,22
0,3,2,6,12
0,1,25,18,20,35
0,3
0,3,18
0,1,12,6,12,6,12,4,5,4,16,2,4
0,7,8,24,9,20,18,20,26,28,18,21,27,22,5,4,16,2,6
0,1,12,6,12,6,12,4
0,3,2,10,14,6,18,21,26,28,18,21,27,22,16,2,10,14,6,12,6
0,1,12,10,14,10,14,4,5,4,9,20,18,20,26,22,27,20,26,28,26
0,13,15,16,2,4,16
0,5,4,5,7
0,7,8,24
0
0,5,4,5
0,7
0,1,15,23
0,7
0,1,13
0,13,1,13,1,13,1
0,4,19,15,16,2,10,14,4,19,15,19,16,2,6,18,21,26,28,26
0,7,8,4,5,4,5,7,8
0,13,1,12,6,12,4,5,4,9,20,18,20,26,31
0,5,4,16,2,6,18,21,27
0,5,4,9,20,26,22,27
0,5,4,9,22,27,22,27,22,5,4,5
0,13,1,12,10,14,10,14,10
0,5
0,7,8,13,15,19,23,29,15,23,32,23,32,23
0,5,4,9,22,5,4,19,15,16,2,6,18,21,18,20,26,22,27,20,26,28,18
0,1,12,6,12,4,5,4,9,22,27,20,18,21,27,20,18,20,26,31,5,7,8,24
0
0,13,15,19,16,33
0
0,3,2,6,12,6,18
0,1,12,6,12,10,14,10,14,6,12,6,18,21,18,21,26,28,26,10,15,16
0,4,5,4,19,15,5,4,16,2,4,16,2,10,14,6
0,7,8,7
0,4,9,20,26,22,27,20
0,1,12,10,14,6,18,20,26,10,25,14,6,18,21,26,10,25,14,6,18,21
0,13,1,12,6,12,6,12,6,12,4,9,22,16,2,6,18,20
0,13,15,16,2,6,12,6,18,20,26,22,5,4,5,4,9,20,26
0,1,25,14,10,14,6,18,21,18,20,18,20,18,20,26,10,14,6,18,21
0,1,12,10,14,4,5,4,9,20,18,20,26,28,26,28,26,22,27
0,4,5,7,8,4,16,15,9,22,5,4,9,20,18,21
0
0,7
0,4,5,7
0,5,7,8,7,8
0
0,1,12,10,14,6,12,4,5,4
0,1,25,18,21,27,20,26,22,27
0,4,16,2,6,18,21,27,20,18,21,18,20,18,20,26,10,25,14,6,18,21
0,7,8
0,1,12,4,5
0,1,12,6,18,21,26,28,26,31,5,4,9,20,26,28,26,28,26
0,4,5,7,8,7,8,7,8,7
0
0,13,1,12
0,1,12,10,14,10,14,10,14,4,16,2,6,18,20
0,1,12,6,18,21,26,22,27,20,18,21,26,10,14,6,12,6,18,21
0,2,6,18,20,18,21,26
0
0,4,16,2,4,5,7,8,24
0,1,15,23,7
0,1,15,5,4,5,7,8,24,9,22,27,20,18,21,26
0,7,8,4,5,4,5
0,2,4,5,4,9,20,18,21,27,20,26,22,27,20,26,22,5
0,2,10,14,10,14,10,14,10,14,10,14,10,14,10,14,10,14,4
0,2,4,9,22,27,20,18,21
0,4,5,4,19,16,33,14,4,5,4,9,20,18,21,26
0,4,5,4,9,20,18,21,27,22,5,4,9,20,26,31
0,7,8,7
0,7,8,24
0,2,4
0,3,2,6,18,20,26,22,5,7
0,3,2,10,14,10,14,10,14,10,14,4,5,4,16,2,6,18,21,27
0,5,4,19,16,2,4
0,1
0,7,8,7,8,13
0
0,4,9,20,18,21,26,10,14,6,12,6,12,4,16
0,3,2,4,5,4,5,7
0,2,6,18
0,4,16,2,4,16,2,10,15,16,2,6,18,21,26
0,3,18,20,18,21,18,20,18,21,26,22,16,2,6,18,20,18,20
0,4,16
0,1,15
0,2,6,12,6,12,10,15,16,2
0,7,8,24,9,20,18,21
0,7
0,3,18
0,3,2,4,5,7,8,24,9,20,18,21,26,22,5,4,9,20,18,21
0,4,5,7
0,1,15,16,2,4,16,2,4,19,15,19,16,2,4,16,2
0,4,9,20,18,21
0,3,2,6,12,10,14,6,18,21,26,22,16,2,6
0,3,2,4
0,2,6,18,21,27,22,5,4,5,4,9,22,27,20,18,21,26,28,26,31,5,7,8,24,9,22,27,22,27,20,26,28,26
0,5,7
0,4,5,4
0,3,2,4,5,7
0,2,6,12,6,12,4,5
0,2,4,5
0,2,4,5,4,16,2,10,15
0,5,4,9,20,18,21,26,28
0,3,2,10,14,10,15,16,2,6,18,20,18,20,18,21,18,20,26,10,14,10,15,9
0,3,18,20,26,22
0,2,4
0
0,3
0,3,18,20,18,21,18,21,26,22,16,2,4,9,20,18
0,18,20,26,22
0,2,6,12,6,18,21,26,22,5,4,16,2,6,18,21,18,20,26,22
0,3,2
0,5,7
0,5,4,9,22,5,7,8,24,9,20,26,22,27
0,5,4,9,20,26,28,18,21,26,22,27,20,26,22,27
0,3,18,21,26,10,14,10,14,6,12,6,18,21,26,28,18,20,18,20,26,22,16,2,6,12,6,12,4
0,2,6,12,4,5,4,5
0,1,12,6,18,21,26,22,5,4,5,4
0,2,6,18,20,26,28,26,22
0,2,4,16,2,10,14,4,5,4,9,20,18,21,27,22,27,22,27
0,2,10,14,4,5,4,9,22,5,4,5,4,9,20,18,20,18,20,26
0,3,2,10,14,10,14,6,12,10,14,10,14,10,14,6,18,20,18,20,18,21,18,20
0,3,2,6,12
0,4,9,20,18,21,18,21,26,28,26
0,3,2,10,14,6,18,20,18,20,26,22,16,2,10
0,7,8,24
0,2,6,18,21,27,22,5,7,8,24,9,20,18,21,27,22,5,4,9,20,26,22,5,7
0,2,4,16,2,6,18,20,26,31,5,4,5
0,2,10,14,6,12,4,9,20,18,21,26
0,4,9,22,27,22,27,20,18,21,26,22,5,4,5,4,9,20,26,28,26
0,5,4,5,4,5,7
0,3,2,10,14,10,14,10,14,4,9,22,27,22
0,3,18,21,18,21,26,10,30,33,14,6,18,21,26,10,14
0,1,12,6,18,21,26,28,26,28,26
0,2,4,5,4,9,20,18,20,18,21,26,31
0,4,9,20,26,22
0,2,10,14,10,14,10,14,10,14,6,12,4,19,16,2,10,14,6,18,21,27
0,2,4,5,4,5,4,5,29,15,19,15,19,15,19,15,16,2,6,12,4,5,4,9
0,2,4,19,15,19,16,2,10,14,6,12,6,12,10,15,5
0,1,25,18,21,26,28
0,2,4,16,2,4,9,20,26,28,18,20,26,28,26,31
0,5,4,9,20,26,22,27,22,5
0,2,6,12,6,12,6,18,21,26,28,18,21,18,20,26
0,2,4,16,2,10,14,4,9
0,3,2,4
0,3,18
0,7,8,24
0,18,21,26
0,2,10,14,10,15,16,2,10,14,6
0,2,6,12,10,15,16,2,4,16,2,4,9,22,5,7,8,24
0,1,12,6,12
0,2,4,5,7,8
0,2
0
0,2,4,5,4,5,4,9,20,18,20,18,21,26
0,5,7
0,13,1
0,1,12,6,12,6,12,6,18,21,27,22,5,4,9,20,26
0,1,12,10,14,6,12,6,12,4,5
0,2,10,14,10,25,18
0,2,6,18,21,26,28,26
0,3,2,4,5,7,8,24,9,20,18,21,26,10,14
0,2,4
0,4,5,7
0,2,10,15,9,22,27,22,27
0,3,18,21,18,21,26,10,14,4,19,16,2,6,18,21,26,22
0,4,16,2,6,18,21,26,28,26,28,26,31
0,2,4,5,4,9
0,3,2,10,14,6,12,4,16,2
0,2,6,12
0,7,8,24
0,1,13,1,13,23,7
0
0,4,5,4,5,7
0,2,4,16,2,6,12,6,12,4,16,2,4,5,4,9,20,18,20,26,22
0,3
0,3,18,21
0,3,2,10,14,10,14,10,14,6,12,6,12,10
0,2,10,14,10,15,9,22,27,22,27,20,26,10,14
0,1,12,10,14,10,14,6,18,20,18,20,26,31
0,2,10,14,6,12,4,5
0,4,5
0,1,25,18,21,18,20,26,28,26,10
0,5,4
0,5,4,9,20,18,20,26,22,27,20,18,21,18,20,18,20,26,10,14,4
0
0,1,12,10,14,6,12,4,5,7
0,1,12,4
0,7,8,4,5
0,2,10,25
0,1,12,10,14,6,12,6,18,20,26,28,26,22
0,3,18,20,18,21,26,10,15,16,2,6,18,21,27,22,5,4,9
0,5,4,16,2,4,5,4,16,2,6,18,21,27,22,5,4,9,22,5
0,5,4,9,22,27,22,5,4,5
0,7,8,7,8
0,2,4,9,20,26,28,26,31
0,2,4,9,22,5,7,8
0,7,8,24,9,20,18,21,18,20,18,20,26,31,5
0,1,15,16,2,6,12,10,15,19,16,2,10,14,6,18,21,18,20,26,22,27
0,18,20,18,21,27
0,3,2,4,16,2,4,19,16,2,6,18,21,27,20,26,10
0
0,4,16,2,10,14,10,14,10,14,4,5,4,16,2,6,12,10,15,19,16
0,4,16,2,4
0,5,7,8,4,9,20,26,22,5,4,9,20,18,21,18,20,26,22,5,4
0,2,4,9,22
0,3,2,6,18,21
0,3,2,4,9,20,26,28,26,28,26,22
0,5,4,9,20,26,22,5,7
0,4,9,22,5,4,5,4,5,4,9,20,18,21,26
0,18,20,26,22
0,1,15,16,2,10,14,6,12,4,5,4,9,20,26,22,5,4,5
0,2,10,14,4
0,18,20,26,10,14,10
0
0,2,10,14,10,14,10,14,6,18,21,18,21,26,22,27,20,26,10
0,3,18,21,27,22,27,20,18,21
0,2,6,12,4,5,4,5,4,9,20,18,20,26,31
0,3,18,21,27,22,5,4,16,2,6,18,21,26,28,26,31,5,4,16,2,4,16,2,6,18,21,27,22,27,22
0,2,6,18,20,26,28,18,20,18,21,26,28,26,10
0,1,12,4,9,22,16,2,4,19,15,16,2,6,18,21,26,28,26,28,26,10
0,2,6,12,10,14,10,14,4,9,20,18,21
0,2,4
0,2,4,16,2,6,12,6,18
0,18,20,26,28,26,31,5,4,9,22,5,4
0,4,16,2,6,12,4,5,4,9,20,26,22
0,18,21,27,22,16,15,16,2,6,18,21,26,22,5,4,9,22,16,2,6,18,21
0,7
0,2,10,14,10,14,10,14,6,12,6,12,6,18,20,26,22,27,22,27,22,16,2,6,18,20,26,31
0,2,6
0
0,2,4,5
0,7
0,3,2,10,14
0,2,10,14,10,14,10,14,10,14
0,1,15,16,2,6,12,6,18,20
0,18,21,27,20,26,22,16,2,10,14,4,9,22,27,22,5
0,2,4,9,20,18,21,26,22,16,2,4,9,20,18
0,18,20,26,31
0,3,18,20,26,10,25,18,21,18,21,26,28,26,28,26,10,25,18,20
0,5,4,16
0,5,4,9,20,26,28,26,22,5,4,16,2,6,18,21,18,20,26,22,16,2,4
0,2,10,14,6,12,6,18,21,26,28,18,20,18,21,26,10,14,6
0,2,10,15
0,4,9,20,26,10,14,10,14,10,14,10,15,19,16
0,18,20,26,28,26,10,14,10,14,10
0,3,2,10,14,10,14,10,14,6,18
0,3,18,20,18,21,26,10,14,10,14,6,12,6,12,6,12,10
0,5,4,9,22,5,4,9,20,18,21,26,22,5
0,2,4,5,4,9,20,18,21,26,28,26,22,5,4,9,22,5,4,9,20,18,20
0,2,4,5,4,9,22,5,29,15,19
0,2,6,12,6,12,6,12,6,12,10,14,10,15,16,2,6,18,21,27,22,16,2,10,14,10,15,16
0,3,2
0
0,5,7,8,24,9,22,27,20,18,21,26,22,16,2,6,18,21,27,22,5,4
0,5
0,5,4,19,1,12,6,18,20,35
0,3,18,21,26,28,26,31
0,5,4,9,22,5,4,9,20,18,21,26,28,26,22,5
0,1,12,10,14,6,12,6,18,21,26,10,14,6,18,21,18,21,26,10,14,10,14,10
0,4,9,22
0,13,23,7
0,4,19,15,19,15,16,2,6,12,6
0,3,18,20,18,20,18,21,26,28,26,22,27,22,5
0,2,4,16,2,6,18,21,27,22,27,22
0,1,12,10,14,6,12,6,18,21,26,22,27,20,18,21,26,22,5
0,5,7,8
0,3,2,4,5
0,7,8,24,9,20,18,21,27,22,5,4,9,22,5,7
0,4,9,22,16,2,6,18,20,18,21,26,28,26,22
0,4,5,4,9,20,18,20,18,21,27,22,5,4,5,7
0,1,12,10,14,6,12,6,18,21,18,20,26,10,14,6,18,21,26,22,16,33
0,2,4,5,4,9,20,18,21,26,22,5,4,9,20,18,21,27,22,5,7
0,2,4,5,7
0,3,18,21,26,22,27,20,26
0,3,2
0,3,2,4,5
0,4,5
0,4,9,22,5,7
0
0
0,3,2,4
0,2,6,12,10
0,7,8,24,9,20,18,21,27,22,27,22,16,2,10,14,10
0,4
0,3,18,20
0,5,4,9,22,16,2,4,9
0,5,4,9,22,27,20,18,21,26,22
0,3,2,6
0,5,4,9,20,26,28,18,21,27,22,5,4,5,4,5
0,2,6,12,10,14,10,14,10,14,6,12,10
0,1,12,6,18,21,26,28,26,10,14,10,14,6,18,20,18,21,27
0,2,4,9,20,26,31,5,4,5,7
0,5,4,5,7
0,13,15,19,16,2,6
0,7,8,7
0,2,6,12,6,12,10,14,10,14,4,5
0,4,16,2,6,18,21,18,21,27,22,5,7,8,13,15,19,15,19,15,19,15
0,2,6,12,6,18,21,26,28,26,10,15,16,2,6,18,21,27,22,16
0,4,16,2,6,12,6,18,21,26,28,26,31,5
0,3,2,10,14,6,18,21,18,21,27,22,5,7,8
0,2,6,12,10,34,29,17
0,13,1,25,18,20,26,10,25,18
0,1,25,18,20,18,20,26,28,18,21
0,3,18,21,18,21,26,10,14,10,25,14,10
0,2,6,12,6,18,21,26,28,26,31,5,4,9,20,18,21,27,22
0,5,4,9,20,18,21,26,31,5,7
0
0,4,16,2,6,12,6,18,21,26,22,27,20,18,21,18,20,18,21,27,22,5,7
0,2,4
0
0,3,2,10,14,10,14,10
0,5,7
0,5,4,9,20,26,22,5
0,1,12,10,15,5,7,8,24,9,20,18,20,26,31,5,7
0,13
0,13,1,12,10
0,5,4,9,20,18,21,26,22,27,22,5
0,4,9,22,27,20,18,21,26,22,27,20,26,31,5,4,9,20,18,21,27,22,16
0,4,16,2,6,12,6,18,21,26,28
0,4,5,4,16,2,6,18,21,18,21,27
0,4,9,20,18,21,18,21,26,28,26,22
0,2,6,12,10,14,10,14,10,14
0,5,4,19,15,19,16,2,6,18,21,26,10,14,10,14,10
0,3,18,21,27,20,18,21,26,28,26,10,14,6,18,21,18,21,27
0,5,4
0,4,5,7
0,7,8,13
0,2,6,18,20,18,21,26,28,26,10,14,6,18,20,18,20,18,20,18,21,26,10
0,1,12,6,12,6,18,21,26,22,27,22,16,2,4
0,2,4,9,22,27,22,27,22,27,22,27,20,18,21,26,10,14,10,15,19,15,19,15,19
0,4,9,22,5,7,8,24,9,20,26,31
0,2,6,12,10,14,10,14,10,25,18,21,26,28,26,10,14,10
0,4,9,22,5,4,9,20,18,20,26,31,5,7,8,7
0,1,12,6,18,21,26,28,26,10,14,6,12,10,14,10,14,10,14,10,15,16,33
0,2,6,18,20,26,28,18,20,18,21,27,22,5,4,9,20,18,21,27,22
0,2,6,12,10,14,6,12,10,25,18,21,26,10,14,10,14,10,14,10,34
0,1,12,6,18,20,18
0,3,18,21,27,22,5,4,19,16
0,3,18,21,18,21,26,10,25,18,20,35
0,2,6,18,20,26,22,5
0,1,25,18,20,18
0,3,18,20,26,28,26,28,26,10,14,10
0,3,18,21,18,20,18,21,27,22,27,22,16,2,10,25,18,21,18,21,18,21,27,22
0,2,10,14,10,14,10,34
0,4,9,20,18,21,26,22,27,20,18,21,27
0,4
0,3,18,21,27,22,5,7
0,5,7,8
0,2,6,12,4,19,1,12,6,18,20,26
0,3,2,6,12,10,14,10
0,4,9,20,18,21,26,22,16,2,4,9,22,16,2,4,16,2,4,5,29,15
0,3,18,21,26,28,26,10,14,10,14,6,18,21,27,22
0,3,18,20,26,28,18,21,26,22,16,2,6,18,21,26,31
0,7
0,3,2,6,12,6,12,10,14,10,14,6,18,21,26,22,5
0,3,18,20,18,21,26,28,26,10,25,14,4,16,2,6,18,21,27,22,16
0,2,6,18,21,26,22,16,2,10,14,6,12,4,9,22,16,2,4,19
0,5,4,5,4,5,4,9,20,18,21,27,22,5,7
0,1,15,23,7,8,7
0,3,2,6,18,21,26,28,26,31
0,2,6,18,21,26,22,27,22,5,4,9,20,18,21,27,22,5,7
0,2,6,12,4,5,7
0,2,4,16,15,19,15,19,15,19,15
0,2,6,18,21,27,22,5,7
0,4,19,15,5,7
0,2,6,18,20,18,21,26,28,26,28,26,10,14,6,12,6,18,21,18,20,26,10
0,3,18,20,18,21,26,28,26,28,26,10,14,10,14,6,12,10,14,10,14,4,19
0,2,6,12,6,12,10,14,6,18,21,26,10,14,10,34,29,15,19
0,5,7
0,2,4,9,20,26,28,26,28,18,21,26,10,14,10,30
0,2,6,18,21,26,22,27,20,18,21,26,22,5
0,3,18,20,26,28,18,21,26,28,26,22,27,20,26,28,26,22,5,4,16,2,4
0,4,9,20,18,21,27,22,27,22,27,22,27,22,5,4,9,20,18,21,26,31,5,7,8
0,3,18,20,18,21,18,20,26,28,18,21,18,21,26,10
0,3,18,20,26,28,18,21,26,28,26,22,16,2,10,14,10,14,10,14,10,14,10,14,4
0,2,6,12,6,12,10,14,6,18,21,26,31,5,29,15,19,15
0,18,20,26,10,14,10
0,3,2,6,18,20,18,20,26,22,27,22,27
0,3,2,6,18,21,26,28,26,28,26,28,26,31
0,7,8,24
0,3,2,10,14,10,14,10,14,4,19,15,19,1,15
0,2,6,18,21,26,22,5,4,9,20,18,20,18,20,26,22,5,4,5
0,2,6,12,6,18,21,26,22,27,22,27,20,18,21,27,22,5
0,3,2,6,18,21,26,28,26,28,26,22,16,2,4,19,16
0,2,4,9,22,27,20,18,21,26,22,5,7
0,5,7
0,5,7
0
0,5,7,8,7,8,13,15,19,15,16,2
0,1,25,18,20,26,10
0,3,2,6,18,21,27,22,27,22,27,22,27,20,18,20,18,20,26,31,5,7
0,18,20,26,28,18,21,27,22,5,4,9,20,26,22
0,3,2,4,5,4,5
0,18,20,18,21,26,28,18,21,26,10,34,29,15,19,15,19
0,3,2,6,12,6,12,10,14,10,14,10,14,10,14,10,14,6,18,21,26,10,25,18
0,2,4,16,2,4,9,22,27,22,27,20,18,21,27,22,5,7,8,7,8,7,8,7,8,7
0,3,2,10,14,10,14,10,14,10,25,18,21,27,22,5,4,19,15,19,15,19,1
0,18,20,18,21,18,21,26,10,25,14,10,25,18,20,35
0,3,18,21,27,22,5,4,5,4,9,20,18,20,26,31,5,4,16
0,7
0,2,6,18,20,26,31,5,4,9,20,18,21,27,22,5,7
0,2,4,9,22,27,20,18,21,27,22,5
0,2,6,18,21,27,22,5,4,9,22,5,7
0
0,2,4,5,4,5,4,9,20,18,21,27,22,5,7,8,7
0
0,4,16
0,3,2,4,5,4,9,20,26,31,5,7
0,2,6,18,21,27,22,27,22,16,2,6,18,20,18,21,27,22,5,7,8,4,5
0,3,2,10,14,4,16,2,6,18,21,26,28,26,22,16
0,3,18,21,26,22,27,22,27,22,27,20,26,22
0,1,25,14,10,15
0,3,18,21,26,28,26,22
0,3,2,4,5,7
0,3,18,21,26,10,14,4,19,15,19,1,13
0,3,2,6,12,10,25,14,10,25,18,20,18
0,7
0,3,18,21,27,22,5,7,8,4,9,20,18,21,27,22,16,2,4,5,7
0,3,2,4,5,4,5,4,5,4,9,22,5,7,8,13,15
0,2,10,14,10,14,4
0,2,4,5,4,5,4,9,20,18,21,18,20,26,31,5,4,5,7
0,3,2,6,12,6,12,6,12,6,12,4,5,29,17
0,4,5,4
0,2,6,18,21,26,22,5,7,8,7,8,7,8,7,8,7,8,7
0,3,2,6,12,10
0,3,18,20,26,31,5,4,5,4,9,20,18,21,27,22,5,7,8,7
0,2,4,16,2,4,9,20,18,21,26,22,5,4,19
0,1
0,3,18,21,27,22,5,7,8,13
0,2,6,12,6,12,6,12,6,12,6,12,4,5,29,17
0,4,9,22,27,20,18,21,27,22,5,4
0,1,12,10,15,23,7
0,1,15,19,15,19,15,19
0,2,6,12,10,14,10,25,18,21,18,21,27,20,35
0,5,4,9,22,27,22,27,20,18,21,26,31,5
0
0,4,9,20,26,28,26,28,26,22,5,7,8,7,8,13
0,18,21,27,22,5
0,2,10,14,10,14,10,14,10,15,9,20,18,21,27
0,5,7,8,24
0,5,7
0,7,8,24,9,20,18,21,27,22,5,7
0,7,8,24
0,4,5,4,5,4,9,20,18,21,26,31,5,7
0,1,12,6,12,10,14,10,14,6,12,6,18,20,18,21,26,10,14,10,14,10
0,2,4,5,4,9
0,4,9,20,18,21,26,22,16,2,10,14,4
0,1,15,16,2,10,15
0,2,4,5,7,8,4,9,20,18,21,27,22,5,4,5,7,8
0,5,4,9,22,27,22,27,22,5,7
0,2,6,12,4,9,20,18,21,26,10,15,19,23,7
0,5,7,8,7,8,24,9,20,18,20,26,22,5
0,1,15,16,33
0,2,4,9,20,18,21,26,22,16,2,10
0
0,3,2,10,14,10,14,10,14,6,18,21,27,22,5,7,8,13,1,13
0,2,10,14,10,14,6,12,6,12,4,16,33
0,1,13,1
0,7,8,24,9,20,18,21,27,22,5,7,8,7
0,4
0,2,4,9,20,18,21,27,22,5,4,5,7,8,7,8,7
0,4,9,20,26,28,26,22,5,7,8
0,4,5
0
0,2,4,9,22,27,22,27,22,27,20,18,21,26,10,15,5,7
0,13
0,2,4,9,20,18,21,27,22,5,7
0,7,8,4,9,20,26,22
0,1
0,4,5,4,5,4,9,20,18,21,27,22,5,7
0,4,5
0,4,9,22
0,5,4,9,22,5,4,19,16,33,30,15,23
0,1,13,15,19,15,19,23,7
0,18,20,18,20,18,21,26,22
0,1
0,1,15,19,15,23,7,8,7
0,1,12,10,14,10,14,10
0,1,12,6,12,6,12,10,14,10
0,1
0,5,4,5,4,5,4,9,20,18,21,26,22,5,7,8
0
0,5,4,9,20,18,20,26,31,5
0,4,5,7
0,5,4,9,20,26,28,26,28,26,22,5,7,8
0,3,2,10,14,6,18,21,27,22,5,7
0,7
0,1,25,14,6
0,3,2,4,9
0,2,6,18,20,35
0,7,8,7,8,7,8,7
0
0,3,2,6,12,6,18,21,26,10
0,4
0,4,5,4,9,20,18,20,18,21,26,22,5,29,15,19,15,19,15
0,5
0,2,4,9,20,18
0,18,21,27,22,5,7
0,2,6,12,6,18,21,27,22,5,29,17
0,4,9,22,27,20,18,21,26,22,27,22,5,4,5
0,3,2,10,14,10,15,19,15,19,15,19,1,13
0,2,6,18,21,18,20,18,20,26,10,15,19,15,19,15,19,15,19,15,19,1
0,3,2,6,18,21,18,21,27,20,26,10,14,10,15,19
0,1,12,6,12,6,18,20,18,20,26,10
0,2,6,12,6,12,4,5,29,15,5,29
0,2,6,12,6,18,21,26,10
0,5,4,9,22,27
0,3,18,21,27,22,5,7
0,2,6,12,10,30,33,30,33
0,2,6,12,6,12,6,18,20,18,21,26,10
0,5,4,9,20,18,21,27,20,26,10,14,10,15,5,7,8,7
0,4,9,20,26,28,18,21,26,22,5,7,8,7,8,13,23
0,2,6,12,6,12,4,5,7
0,2,6,12,6,12,6,18,21,27
0,7,8,24,9,22,27,20,18,20,26,31,5,7
0,4,16,2,6,18,20,18,20,26,22,5,7,8,13,15,19,15
0,2,6,12,4,19,15,19,15,19
0,1,13,15,19
0,1,25,18
0,5,4,9,22,27,22,5,4,5,4,9,20,18,21,27,22,5,7
0,4,16,2,6,12,6,18,21,27,22,27,22,5,7
0,1,15,19,16,33,30,33
0,7,8
0,4,16,2,10,14,6,12,6,12,6,12,6,12,6,12,4,5
0,4,19,15,19
0,1
0,4,16,2,6,18,21,27,22,5,4,5,7
0,7,8,24
0,1,12,6,18,21,26,10
0,1
0,4,9,20,18,21,26,22,5,7
0,4,5,7
0,13
0,4,16,2,6,12,4,5,7
0,2,4,9,22,27,20,18,21,27,22,5,4,16,15,5,7
0,2,6,12,10,34,29,17
0,3,2,4
0,1,13,15,23,7
0,7,8,24
0,7,8,13
0,7,8
0,2,6,18,21,26,10,14,10
0,2,6,12,6,18,21,27,22,16,30
0
0,5,7,8,13,1
0,2,6,18,21,26,10,14,10,15,19,16,33,30,15,5,29,34
0,1
0,5,29,15,16,2,6,12,6,12,6,12,6,12,4
0,1,13,1,15,19,15,19,15,19,15,19,15
0,2,4,9,20,18,21,27,22,5,4,19,15,19,15,23,7
0,7,8,24,9,20,18,21,27,22,5
0,2,4
0,2,4,5,7
0,18,20,26,31,5,7
0,18,20,26,10,14,4,5
0,5,4,9,22,27,22,5,7
0,4,9,20,18,21,26,22,16,2,10,15,19,16,30,33,30,33,30,33
0,5,4,9,20,26,28,26,28,26,22,5,7,8,13,15,19
0,3,2,10,14,4
0,2,10
0,1,13,15,19,23,32,23
0,4,9,20,18,21,27,22,5,29,15,19,1,13
0,2,6,12,6,12,10,14,10,30
0,3,2,6,12,6,18,21,26,28,26,10
0,1,13,1,13
0,5,4,9,20,18,20,26,28,26,22,27,22,5,7,8,7,8,7
0,7,8,7,8,4,9,22,5,7
0,3,18,20,18
0,1,12,6,12,6,18,21,27,22,5,4,19,15,19,15,23,32
0,2,6,12,6,12,10,14,10,14,4,5
0,1,13,23,7,8,13
0,2,6,12,6,12,6,18,21,26,31
0,7,8,13,1
0,5,4,9,20,18,21,26,22,5,4
0,3,2,4,5,4,19,16
0,1,13
0,2,6,12,6,12,10
0,1,13,15,23,7
0,1,12,6,12,6,12,4,9,20,26,10,34
0,1
0,2,6,12,6,18,21,27,22,5,7,8,13,23,32,23,7
0,2,6,18,21,26,22,5,29
0,1,13,1
0,5,7
0
0,3,2,6,12,6,12,10
0,5,29,17
0,3,18,21,26,28,26,10
0,1
0,2,6,18,20,18,21,26,22,27,22,5
0,1,15,19,15,19,15,5
0,1,13,1
0,3,2,4,19,15,19,23,32,23,7,8,13,23,29,34
0,2,6,12,10
0,1,13,1
0,2,6,18,21,26,22,16,2,4,5
0,7
0
0,2,6,12,6,12,4,9,20,18,21,26,10,14,10,14,10,14,10,30,33,30,33
0,3,2,4,5,4,5,7
0,7,8,4,9,20,18,21,27,22,5,7
0,4,9,20,18,21
0,3,2
0,3,2,10,14,10,15,19,15,19
0,13,1
0,4,9,20,18,21,26,22
0,2,4
0,7,8,13,15,19,1
0,1,12,10
0,5
0,2,6,18,20,26
0,3,2,10,14
0,5
0,1,13,1
0,1
0,7
0,7,8,24,9,20,18,21,26,22
0,2,6,12,10
0,7,8,13,15,19,15,19,15
0,3,2,4,9,20,18
0,4,5,4,19,1,15,23,7
0,1,13,23,7
0,3,2,6,12,6,18,21,26,10,14,10,30,33
0,4,9,20,18,21
0,5,4,5,7,8
0,7
0,3,2,4,9,22,27,20,18,21,27,22,5,7,8,13,1,13
0,4,9,20,18,21,27,20,26,28
0
0,1
0,1,25,14
0,5,4,9,20,18,21,26,28,26,22,5,7
0,13,1,15,19,15
0,2,6,18,21,26,22,27,22,5,4,5
0
0
0,4,9,20,18,21,27,20,26,22,5,29,15
0,5,7
0,3,2,6,18
0,3,2,4,5,4,19,15,19,23,32,23,32
0,2,6,18,21,27,22,27,22,5,4,5,29,17
0,2,6,18,21,26,28,26,22,5,7,8,7
0,3,18,20,18,21,26,28,26,10
0
0,4,9,22,5,7
0,5,7
0,13,23,7
0,2,6,18,21,27,22,5,29,17
0,2,6,18,21,26,31,5,4,5,4,5,29,15,19,15,23,7
0,2,6,18,21,18,20,18,20,26,28,26
0,5,4,9
0,1
0,3,2,4,9,20,18,21,27,22,5,7
0,7
0,2,6,18,21,26,28,26,22,16,2,10,14,10,14,10,15,19,15,19
0,13,15,23,7
0,2,6,12,6,12,4,5,4,5,29,34,29,15,19,1
0,2,6,18,21,26,28,26,28,26,22,16,2,10,14,10,34,29,15,19,15,19,1,13,23,32,23
0,2,6,18,21,27,22,5,7,8,7,8,7
0,2,6,12,6,18,20,26,31,5,7
0
0,3,2,10,14,10
0,1
0,3,18,21,26,22,5
0
0,1,15,5
0,1,13,1
0,18,21,26,28,26,28,26,22,16,33,30,15,19,15,19,15,19,15,23,32,23
0,3,2,6,18,20,18,21,26,22
0,13,23
0,2,4,9,20,18,21,27,22,5,7,8,13,1
0,7,8,13
0,18,21,26,28,26,22,5
0,3,18,21,26,28,26,10,14,10,14,10,15,16,33,30,33
0,1,13,1,15,19,15,19
0
0,4,5,4,5,7
0
0,13,1,13,23,32
0,4,9,20,18,21,26,22,5,7,8,13,1
0,5,29,17
0,2,4,9,22,27,22,16
0,1,13,1
0,3,2,4,16,2,4,19,15,19,16,15,19,15,19,15,19,16
0,7,8,4
0
0,2,10,14,4,5,7
0,1,15,5,7
0,7,8
0,1
0,2,6,12,4,19,1
0
0,5,4,9,20,18,21,27,22,5,4,19
0,5,29,17
0,13
0,2,6,12,4,5
0,1,15,16
0
0
0,5,4,9,20,26,31,5,7
0,4,5,7
0,5,7
0,2,4
0,13,15,19,15,23,32
0,3,2,4,5,7,8,7
0,7,8,7
0,2,6,12,4,9,22,5,7
0,5,7
0
0,1,12,6,12,10
0,1,25,18
0,1,13,15,23,7
0,2,6,12,6,18,20,26,22,5,7,8,13,15,19
0,2,6,18,20,26,31,5,7
0
0
0
0,5,29,15,16,33,30,15,19
0,13,15,19,15,19,23,32
0,3,2,6,18,21,26,28,26,10,15,19,15,19
0,2,4,9,22,5,4
0,2,10,15
0,7,8,4,5
0,3,18,21,26,10,14,10,14,10,34,29
0,1,13,1,13,1,13,15,19
0,4,9,22,5,7
0,2,4,5,4,5,7
0,4,5
0,1,15,19,16,2,4,16,15
0,1,12,10,14,10,15
0,5,7,8,7,8
0,3,2,6,18,21,26,10,30,33,30,33
0,3,2,4,16,2,4,16,2,4,19,15,19,16,30,33
0,2,10,14,10,14,10
0,4,5
0,2,6,12,4,16,33,30,15,19,1
0,3,2,4,5,7,8,7,8,7
0,3,18
0,1
0,3,18,21,27,20,26,10,15,19,15,23,29,34,29,17
0,3,2,4,16,2,4
0,3,2,10,14,6,12,10,25,14,10
0,1
0,3,2,10,14,10,14,10,14,4,19,23,7,8
0,3,2,6,12,4,5,4,19,16,30,33
0,2,4,5,7
0,2,6,18,21,27,22,27,22,5,7,8,13,15,23
0,3,2,4,16,15,16,2,4,16,2,10,14,10,14,10
0,1,15,19,15,19
0,3,2,4,16
0,3,2,6,12,10
0,5,29,17
0,3,18,21,27,22,16,2,10,15,19,1,13,1,13,1,13,15,5
0,2,6,12,4,9,22,5,7
0,2,4,5,7
0,1,13
0,1,13,15,19,15,19,15,19,15,19,15
0,3,2,6,12,10,14,4,5
0,7,8,7,8,7
0
0,1,12,4,5
0,5,4,9,22,16,2,10
0,3,2,10,14,10
0,18,20,18,21,26,28,26,10,30,33,30,33,30,33
0,2,4,16,33,30
0,5,29
0,13,15,19,15,5
0,3,18,20,26,10
0,2,10
0,1,15,19,15,19
0,4
0,4,19,15,19,16,2,10,14,4
0,1,12,10
0,3,2,4
0,1
0,7,8,13,15,19,15
0,2,6,12,4,5,7
0,1,13,15,19,15,19,16,30,15,19
0,3,2,10,30,33,30,33,30,33
0,1,12,6,12,6,12,10,15,19,16,15,19,15,19,23,7,8,13,15,5,7
0,2,6,12,10,15,5,7
0,1,12,10,34
0,3,2,6,12,10,14,4
0,4,5,4,19,15,19,15,16,2,10,14
0,7
0,3,18,20,26,28,26,10,30,33
0,3,2,6
0,4,16,2,10
0,1,25,18
0,3,2,10,14,6,12,10,14,10,14,10,30,33,30
0,18,21,26,10,25,18,21
0,2,4,5,7
0,3,2,4,5,4,16
0,4,19,1,12,10
0,2,4,5,4,5
0,1,15,5,7
0,2,10,14,10,14,10,15,16,33,30,33,30,33
0,3,18,20,26,31,5,7,8,7,8,7,8,7
0,2,6,12,4
0,5,29,34
0,2,10,14,10,15,5,29,34,29,17
0,2,10,15,5,4,5,29,34
0,5,7
0
0
0,5,7,8,7,8,13,1,15,19,1
0,2,6,12,10,14,10,14,10,30,33
0,7,8,7,8,7,8,24
0,2,10,15,16,33,30,33,30,33,30,33
0,4,5,7,8,13,15,19,15,19,23,32
0,3,2,6,12,6,12,10,14,10,14,10,14,10,30,33,30,33
0,2,4,5,4,19,15,16,15,19,1
0,7,8,13,15,19,15,19
0,2,4,16
0,2,4,19,23,29,34,29,34,29,34,29,34,29,15,5,29,15,19,15
0,2,4,19,15,19,23,32,23,7,8,7,8,4,5,7,8
0,3,2,4,16,15,16,2,10,15,19,1,15,19,15,19,15,19,15,19
0,7
0,5,7
0,4,5,7,8,13,1,13,1,12,4,5,7,8
0,4,19,16,33,30,33
0,13,15,23,7
0,7,8,13,15,9,22
0,3,2,10,14,10,34,29,17
0,2,4,19,16,2,10,15,19,23,7,8,13,23,32,23,29,15,19,23,32
0,2,4,19,15,23,7,8,7
0,7,8,13,1,12,6,12,10,14,10,30,15,19
0,5,7,8,7
0,2,4,5
0,1,12,4,16,15,16
0,1,15,5,4,19,15,23
0,4,5,7,8,13,23,32,23,32
0,5,7
0
0,5,7,8,7
0,1,25,14,10,25,14,10
0,3,2,10,14,10,14,10,34,29,15,19,16,33,30,15,19,1
0,2,10,15,19,15,19
0,7
0,2,6,12,10,14,10,30,33,14,10,34,29,17
0,2,10,14,10
0,1,13,15,23,7
0,1,12,10,30
0,13,1,25,14,10
0,4,19,15,5
0
0,4,9,22,5,7
0,4
0,2,4,16,15,16
0,5,4,19,15,16,2,4,16,15,16,30,33
0
0,7
0,3,18,20,26,10,25,18,20,35
0,5,29,17
0,4,9,22,16,2,4,16,30,33,14,4,19,15,5,7
0,1,13
0,1,13,1,13,1,12,4,19
0,2,10,15,5,7,8,13
0,2,4,5,4,19,15,19,16,2,10,15
0,4,19,16
0
0,4,19,15,19,15,5,4,5,7
0,4,9,22,5,7,8,4,5,7
0,4,5,7,8,7
0,13,1,15
0,4,16,2,4,16,33,30,15,23,32,23,32
0,4,5,7
0,5,29,34
0,1,25,14,10,14,6,12,10,15,19,1,25,18,20,26,10
0,1,12,4,16,33,30,15,19,1,13,15,19,15,19,1
0,5,7
0,2,6,12,10,14,10,14,10,15,19
0,4,5,4,19,1,15,5,7
0,4,16,30,15,19,15,19,15,23,7,8,13,1
0,1,12,10,15,23,7
0
0,1,12,6,12,10,25,14,10,30,33
0,1,25,14,10,25,14,10,14,6,12,10,15,19,1
0,1,25,18,20,35
0,13,15,19,15,19,16,33,30
0,1,12,6,12,4,19,15,19,1,12,4,19,1,12,10,14,10,15,19,1
0,4,5,4,5,7
0,1,13,1,13,15,19,15,19,15,23,29,34
0,4,19,16,2,4,19,16,15,19,15,19,15,19,16,2,4,5,29
0,4,9
0,2,10,14,10,30,33
0,5,4,5,7
0,7
0,1,12,10,14,10,15,16
0
0,1,15,16,2,10
0,1,13,1,13,1
0,1,12,10,14,6,12,4,5,29,15,16,2,4,5,4,16,2,10,14,10,14,10,15,19,23,7,8,7,8,7,8
0,7
0,1,12,10
0,7
0,1,12,10,14,10,14,10
0,4,5,7
0,13,23,32
0,1,12,4,16,33
0,7,8,24
0,3,2,10,25,14,6,12,10,25,18
0,5,7
0
0,1,12,10
0,7,8,13,15,19,15,19,15,23,32
0,5,7
0,5,7,8,7
0,4,5,7,8,24
0,1,15,23
0,7,8,13,15,19,15,19,23,32
0,7,8,7
0,7,8,7
0,4,5,29,17
0,1,12,10,30
0,1,12,4,5,29,17
0,7,8,13,15,19,15,16,2,10,15,19,23,7
0,4,16,2,4,5,7
0,13,15,19,1,15,19,23,7
0,1,12,10,14,10,15,19,15,19,15,19,16,15,19,15,19,15,19,1,15,19,15,19
0,2,6,12,10
0,1
0,1,13,23,32,23,32
0,3,18
0,1
0,1,12,6,12
0,5,7
0
0,4,5,7,8,7
0,4,5
0,4,19,23,7
0,1,13,15
0,5,7,8,7,8,7
0,4,5,7
0,2,10,14,10,34,29,17
0
0,1,25,18
0,4,16,2,4,5,7,8,13,15,19,15,19,15,16
0,7,8,7,8,13,1
0
0,1,12,10,34
0,4,5,7
0
0
0,5,7,8
0,7
0,5,4,5,4,19,15,23,7
0
0,7
0,5,4,16,2,10,14,4,5,7,8,7
0,4,5,7
0,4,5,7,8,7
0,4,5,4,5,4,5
0
0,1,12,10,14,10,14,10,30,33,30,33
0,1
0,3,18,20,26,10
0,1
0,1,12,10,30
0,13,1,13
0,4,19,1,13,1,15,19,15,19,1,15,5,7,8,13,15,23,32
0,2,10,34,29
0,7,8,4,5,7,8,7
0,1,15,19,16,15,19,15,19,23,7
0,2,4,19
0
0,1,13,23,32,23,7,8,13
0,4,5,7
0,7,8,7
0
0,5,4,5,7
0,1,13,1
0,2,6,12,10,14,10,30,33,30
0,5,7,8,13,15,19,15,5,7
0,1,12,10,14,10,14,10,14,10
0,1,13,1,13,1,13,1,13
0,1,12,10,34,29,17
0,1,25,14,10,14,10,30,33,30,33,30,33
0,1,12,10,15,19,15,19,15,19,16,15,19,15,23,29,15,19,15,19,16,33,30,33
0
0
0,7,8,7
0
0,5,4,16,2,10,15,5,7,8,13,15,19,15,23,7
0,4,16,33
0
0,13,1,15,19,15,19,15,19,15,23,7
0,4,16,2,10,14,10,15,5,7,8,13
0
0,1,25,14,10,15,19,15,19,15,23
0,1,12,10,14,10,30,33,30
0
0,1,13,15,23,7
0
0,1,12,10,14,10,14,10,14,10,30,15,19,23
0,1,15,19,16,15,19,16
0,1
0,1,15,23,7,8,13,15,23,7,8,13,15,5,29,15
0,1,12,10,14,10,30,33,30
0,4,19,15,19,15,19,15
0
0,7
0,1,12,10
0,1
0,4,16,2,10,14,4,19,15,19,15,23,29,15,19,1,15,16,33
0,1,12,10,34,29,17
0,1,12,10,30,33
0,4,16,2,4,5,7,8
0,1,25,18,20,26,10
0,1
0,1,12,10
0,1
0,1,13,1
0,1,13
0,1
0,5,29
0,13,1,15,23,7
0,1,15,19,23,32
0,7
0
0,13,1,13,1,15,19,15,19,23,7
0,13,1
0,13,1
0,7,8,13,1,13,1
0,4,16,33
0,1,13,1,15,19,16
0,4,5,7,8,13
0,7,8,7,8
0,7
0,1,13,1
0,13,1
0,1,25,18,20,35
0,7,8,7
0,13,15,23,7
0,5,7
0,13,23,7
0,13,15,23,7
0,3,18
0,7
0,13,1
0,4,19,15,19,1,13
0,3,18,20,35
0,3,18
0,1
0,5,4,5
0,7,8
0,4,5,4,5,7,8
0,1
0
0,1
0,1,15,23,7
0,1,12,10,15,23,7
0,1,15,23,7
0,1,15,23,7
0,1,13,23
0,1
0,13,1,15,19,16,30,33
0,5,4,19,23,7,8,7
0,5,29,34,29,34
0,4,5
0,1,13,1,15,19
0,7,8,13,1
0,7,8
0,1,12,10,15,19
0,13,1,12,10,15,19,1,15,19
0,1,15,16,15,5,7,8,7,8,4,19,15,19,15,19,15,23
0,4,19,15,19,15,19,15,19,1,12,10,15,19,15,5,29
0,1,15,19,15,19,15,19,15,19,15,19,15,5,29,15,19,15,23,29
0,5,7
0,1
0
0
0,1,15,16,30,33,30,33,30,33,14,10,15,19,1,13
0,4,5,29,15,23
0,1,15,19,15,19,15,19,15,19,15,19,1,13,1,13,1,13
0,7
0,1
0,1,15,19,15,5,7,8,4,5,7
0,4,5,29,15,23,29,15,23,29,34
0,4,16
0,5,29
0,5,29,15,23,7
0,1,25,14,10,14,10,14,10
0,5,29,34,29,34,29,34,29,17
0
0,1,13,15,5,7
0,1,13,1,13,1,13,15
0,1,13,15,19
0
0,1,12,10,30,33,14,10,15,19,1
0,1,13,1,25,14,10,14,10
0,1,25,14,10,30,33,14,10,15,19,1,13,1
0,4,19,15,16
0,1,13,23,32,23,7
0,1,12,10,30,15,16,33,30,33,30
0,1,12,10,14,10,14,10,30,33
0,4,19,15,23,32
0,1,15,19,15,19,15,19,16,33,30,33
0,4,19,15,19,15,19,15,19,15
0,1,15,23,7,8,7
0,2,10,14,10
0,1,12,4,5,7,8,7
0,13,1,13,15,19,15,16,15,19
0,5,4,5,29,34,29,15,9,22,5,7,8
0,4,19,15,19,15,19,15,19,15,19,15,16,33,30,33
0,1,15,19,1,12,10,30,33
0,1,12,10,14,10,14,10,15,19,1,15,19,1,15,16,30,33,30,33
0,1,15,5,7,8,7,8
0,1,15
0,2,10,14,10,15,16,30,33
0,1
0,1,13,1,25,18
0,5,7,8,7,8,4,5,7
0,1,13,23,32,23
0,5
0,1,12,4,19,15,5,29,34,29,34
0,1,12,10,14,10,15,19,1,13,1,12,10,15,19,1,13,1
0,1,12,10,15,5,29,34,29,15,19,1
0,5,4,5,4,5,7
0,4,5,7,8,7
0,1,15,19,15,19,15,19,15,19,16,2,10,14,10,14,10,14,4,19,16,30,33
0,4,5
0,7
0,1,25,14,10,14,10,30,33
0,1,25,18
0,1,25,14,10,14,10,30,33,14,10,14,10,30,33
0
0,3,2,10
0,3,18
0,4,19,15,16,15,16,30,15,19,1,15,19,15,23,7
0,1,12,10,14,10,30,33,14,4,19,15,19
0,1,12,6,12,10,30
0,1,25,14,10,14,10,14,10,34,29,15,19,1,12,10,15,5,29,17
0,4,5,4
0,1,12
0,1,12,6,12,10,34,29,15,19,15,19
0,1,12,4,5,4,19,15,19,15,19,1,15
0,1,12,4,19,16,30,33
0,1,15,19,15,19,15,19,15,19,1,15,19,15,19,15,19,15,19,15,19
0,5,4,5,7,8,24
0,4,16,2,4,19,1,12,10,14,10,14,10,14,4,19,23,32,23,32,23,7
0,3,18,20,35
0,2,6,12,10,14,10,14,10,25,18
0,1,12,10,25,14,10,14,10,14,10,15,19,15,19,15,19,1,13,1
0,1,12,10,30,33,14,10,30,33
0,1,12,6,12,10,30,33,14,10,14,10,14,10,15,16,30,33
0,4,19,1,25,14,10,14,10,14,10,15
0,1,15,19,15,19,15,19,15,19,15
0,5,7,8
0,1,12,10,15,19,1,15,16,30,33,30,33
0,3,2,10,14,10,14,10,30,33
0,5,4,16,2
0,5,29,17
0,1,12,10,14,4,5,29,15,16,2,4
0,2,10,15,23,29,15,19,1,12,10
0,5,7,8,4,5,7,8,13,23
0,4,19,15,19,15,19,1,13,1
0,1,25,14,10,14
0,5,29,17
0,2,4,19,15,19,15,23
0,1,12,10,14,10,15,19,15,19,1,12,6,12,10,14,10,15,5,29,17
0,3,2,10,14,10,15,19,15,19,1,12,10,15,19,1,13
0,1,13,1,13,15,19,1,15,19,15,19,16,2,10,14,4,16,2,10,15,19,15,23
0,7
0,1,12,10,15,19,15,19
0,7,8,13,15,19,15
0,1,12,4,16,33
0,1,25,14,10,14,10,14,10
0,7
0,5,29,17
0,5,4,5,4,5
0
0,7
0,2,4,5,29,34
0
0,1,15,23,7
0,2,10,15,23,7
0,3,2,4,5
0,3,2,10
0,1,13
0,13,1
0,4,19,15,19,1,13,1,13,1
0,1
0,3,18
0,7
0,2,10,14,10,15,5,7,8,24
0,1,12,10,15,5,4,5
0,1,12,6,12,10,15
0,7
0,7
0,5,4,9
0
0,4,19,15,23,7
0,1,13,15,19,1
0
0,2,10,14,10,15,19,15,19,1,12,10,14,4,19,15,19
0,4,19,16
0,2,4,16,15,16
0,1,12,10,14,10,14,10,15,19,15,19,1
0,1,13,1,15,16,30,15,23,29,15,19
0
0,3,2,10,14,10,14,6
0,2,10,15,5
0,1,15,19,15,19,23,29,34,29
0,3,2,10,25,18,21
0,4,5,29,15,16,2,4,19,15,19,16,33
0,1,15,5,4,5,29,15,19,15,19,15,23
0,1,15
0,5,7
0,5
0,1,13,15,23,7
0,5
0
0,5,7,8,7,8
0,1
0,1,12,10,14,10,25,14,10
0,2,4,5,7,8,7
0,3,2,4,5,7,8,24
0,4,19,15,19,15,19,15,19,15,19,1,15,19,16,2,4,19,16,15,19,15,19,15,19,15,19,15,19,15,19
0,4,16,2,6,12,10,14,10,14,10,30,33,30,33,30
0,5,4,19
0,1,12,10,14,10,14,10,30,15,19,1
0,3,2,10,25,14,10,25,14,10,25,18,20,26,10,14,10,14,10,14,10
0,4,5,29,15,16,2,4,5,7,8,4
0,2,4,16,15,16
0,4,16,15,19,15,16,2,4,5,7,8,13,15,19,16
0,2,10,25
0,4,16,15,16
0,1,15,19,15,19,15,19,16,2,6,12,4,5,7,8,7,8,13,15,19,23,32,23
0,1,15,19,15,16,15,5,4,5,7
0,5,7,8,7
0,2,4,5,7
0,5,4,5
0,4,5,7
0,7
0,1,15,19,1,12,10,14,10,30,15,19,15,19,15,19,15,19,16
0,4,5,4,5,4,5,7
0
0
0,7,8,7,8
0,4,5,29,17
0,1,12,10,14,10,14,6,12,10,14,10,30,33
0,5,7
0,1,15,19,16,2,4,16
0,2,10,15,5,4,16,33
0,2,4,5,4,19,15,19,1,12,10,15,23,7,8,13,15,19,15,23,7,8,13
0,4,19,1,13,1,12,10,15,19,15,19,15,19,1,13,15,19,16,15,16,2
0,4,5,7,8,7
0,1,12,4,16,2,10,14,10,14,10,14,4,19,1,12,10
0,3,2,6,12,10,14,10,14,10,25,14,10,30
0,2,4,5,4,5,29,17
0,2,10,14,10,14,10,14,10,14,10,14,10,15,23,29,34,29,34,29,34,29,15
0,1,12,10,14,10,15,19,15,16,2,4,5,7,8
0,2,10,25,14,6
0,2,4,5,7
0,2,10,30,33,14,4,19,1,12,10,14
0,2,10,15,19,15,19,1
0,2,4,19,1,12,10,14,4
0,3,2,10,15,23,7,8,24
0,7
0,2,4,16,15,19,15,16,2,10,25,14,6,12,6,12,4,5,29,17
0,2,10,14,10,15,16
0,5,7
0,2,10,30,33,14,10,30,15,19,15,19,15,19,15,16,2,6
0,1,15,19,1,12,10
0,7,8,24
0,4,5,7,8
0,4,16,2,10,14,4,5,7,8,4,9
0,4,5,4,5,4,5,7
0,4,5,7,8,7,8,24
0,2,10,15,5,4,19,1,12,4,5,4,5,7,8,24
0,1,12,10,30
0
0
0,7,8,7,8,7,8,4,5,7,8,4,9
0,1,15,19,15,19,15,19,16,2,10,34
0,1,12,10,30,33,30,33
0,2,10,30,15,19,15,19,15,19,15,19,16,2,10,15,19,15,16,2,6,18,20
0,2,10
0,4,19,1,15,5
0,3,2,10,14,6
0,1,25,14,10,14,10,14,10,14,6
0,13,1
0,1,15,23,7
0,2,6
0,7
0,2,4,5,7
0,5,7,8,7
0
0,5,7,8,24
0,2,4,5,7,8,24
0,1,13
0,5,29,34,29,34,29,34
0,4,5
0,7,8,24
0,1,15
0,7,8
0,1,13,1,13
0,4,5,7,8,13,1
0,7,8,13,15,19,15,9,20,18,20
0,5,4,16,33,30,33
0,5,7
0,1,15,5,7,8
0
0,7,8,24,9,20
0,13,23,32,23,7,8,7,8,7,8,7,8
0,4,5,4,5,7,8,4,9,22,5,7,8,4,9,22,27,22,27,22,27
0,4,16,2,6,12,10,14,10,14,10,15,19,1,12,6,18,21
0,2,10,14,10,15,16,2,4,5,7
0
0,1,12,6
0,4,5,7
0,1,13,15,23,7,8,13,23,32
0,1,12,10,30,33,30,33,30,33,30,33
0,1,12,10,14,10,14,10,14,10,14,4,9,22,27
0,1,12,10,14,10,14,10,14,10,14,10,30,33
0,5,7,8,24
0,2,4,16,15,19,16,15,19,1,15,9,20,26,31,5,4,9,22
0,3
0,5,4,5,7
0,1,12,10,14,10,15,16,15,19,16,2,10,15,19,16
0,1,25,18
0,2,10,15,16,2,10,14,10,15,19,15,19,15,19,15,19,15,19,16,2,6,18,21
0,1,15,16,33
0,2,4,5,29,15,5,4,16,2,6,12,4,19,15,19,16,2,6,12,6,12,4,9,20
0,1,12,10,14,10,30,33,30,33
0,2,10,25,14,10,14,10,14,10,14
0,2,10
0,1,12,6,12,6,12,4,5,4,9,20,26,28,26,28
0,4,16,30
0,4,5,4,16,2,4,16,2,4,19,23,32
0,2,10,14,10
0,13,1,12,4,5,7,8,13,15,16,2,6,12,6,18,20
0,3,2,4,5
0,1,12,10,15,16,2,6,12,6,12,4,19,15,19,16,2,6,18,20,26,28
0,1,12,10,14
0,3,2,10,14
0,3,2,10,30,15,19,16,2,6,18
0,18,20,18,20
0,1,12,10,14,10,14,6,12,10,14,4
0,1,13,15,19,15,23,7
0,4,5
0,1,15,16,2,4
0,2,4,5,7,8,4,9
0,4
0,13,15,5,7
0,2,6,12,10,25,14,10,14,4,16,2,6,12,4,5,7
0,2,10,14,10,14,6,12,10,14,6,12,10,30,33,14,6,12,6,12,4,5,4,9
0,7
0,7,8
0
0,4,5,29
0,13
0,5,7
0,7,8,7
0
0,2,4,5,4,16,2,10,14,4,5,7
0,4,5,7,8,24,9,20,26,22,5,29,15,19,15,19,16,2,6,12,6,12
0,1,12,10,14,10,14,10,14,10,15,16,33,30,15,19,15,19,15,16,2,6
0,4,16,2,4,5,4,5,4,9,22
0,1,12,10,15,19,15,23,32
0,13,23,7
0,2,4,5,29,17
0,4,16,15,19,1,12,10,14,4,19,1,12,6,12,6,12,6
0,13,1,15,9,22,5,29,15,9,20,26,22
0,4,9,22,16,2,4,5,29,34
0,3,2,10,14,10,14,4,16,2,6,12,4,5,29,15,19,16,2,6,18,21,26,28
0,1,15,19,1,12,4,9,22,5,7,8,24,9
0,1,12,10,14,10,14,6,12,10,25,14,10,30,33,14,10,14,6
0,3,2,10,15,19,1,12,4,16,2,6,18,20,26,22,5,4,16,2,6,18,21,26,28,26,28
0,1,12,10,14,6,12,10,15,9,20,26,28
0,1
0
0,1,25,18,20,26,31
0,4,5,7
0
0,1,12,10,14,10
0,1,12,10,25,14,10,14,10,15,5,7,8,13,1,12,10,14,4,9,20,18
0,4,19,16,2,10,14,6,12,10
0
0,2,10,30,15,16,2,4,16
0,1,12,10,14,10,14,10,15,19,16,30
0,5,4,19,15,19,15,16,2,4,5,7,8,13,15,19,15,9,22,27,20,26,28,18,21
0,2,10,14,10,14,6,12,10
0,7,8,24
0,1,25,18,20,35
0,3,2,10,25,18,20,35
0,2,4,5,7
0,1,15,5,7
0,1,25,18,20,26,10
0,1,12,10,14
0,4,5,4,9,20,18,20,26,22,5,4,9,20
0,3,2,4,9,20,26,28
0,1,25,14,10,14,10
0,2,10,25,14,4,5,7,8,4,9,20,18,21,27,22,5,4,9,20
0,5,4,16,2,6,12,10,14,4,5,7,8,13,1,12,10,14,6,12,6,18,21
0,4,19,16
0,1,12,6,12,4,5,7,8,13,15,16,2,6,12,6,18,21,27,22,27,22
0,4,5,7
0,13,15,23,7,8,13,15,5,7,8
0,2,10,14,4,9,20,18,20,26,31,5,4,19,1,25,18
0,3,18,20,26,31
0,13,1,15,19,16,2,6,12
0,5,7,8,7,8,13,15,23,7,8,7,8,13,1,12,10,14,6,12,6,18,21
0
0,2,10,14,6,18,20,26,31,5,4,9,20,26,28,26,28
0,2,4
0,3,18
0,4,16,2,10,14,10,14,10,15,23
0,7
0,7,8,4,9,22,5,7,8,24,9,20,26,22,5,4,9,20,18,21,18,21,18,20
0,4,16
0,2,10,14,6,12,6,12,10,15,19,1,12
0,2,6,18,21,26,28,26,28,26,28
0,2,10,14,10,14,10,14,10,14,6,12,10,14,6,12,6,18,21,18
0,7,8,24,9,22,5,7
0,1,15,16
0,7
0,2,4,16
0,2,10,25,18,20,26,10,15,5,29,17
0,3,2,10,25,18,20,35
0,1,25,18,20,26,28,26,10,14,6,12,10,25,14,6,18,20,18,20,18,21,18,20
0
0,1,12,10,14,10,14,10,14,10,14,10,14,10,14,4,19,15,5,29,15,5,29,15,5
0,2,4,16,2,6,18,20,26,22,5,7,8,24,9,20,18,21,18,21
0,2,4,16,2,6,12,6,12,6,12,10,15,19,1,12,10,14,6,18,21
0,4,9,22,16,2,10,15,19,1,12,6,12,6,18,21,26,28,18,20
0,13,15,19,15,19,15,19,16
0,1,15,16
0,5,7
0,2,10,15,16,2,10,14,6,12,4,16,15,19,15,9,20,18,21,26,22,27
0,5,4,19,15,16,2,6,12,4,19
0
0,1,12,4,5,7
0,13,15,19,15,19,15,19,15,5,4,9,20,26,31,5
0,4,5,7,8,24,9,20,18,21,26,28,26,28,26,28,26
0,3,2,10,25,18,21
0,7,8,24,9,22
0,1,12,10,25,14,10,14,10,25,14,10,30,33
0,4,5,4,19,15,9,22,27,22,5,7,8,24
0,3,2,6,12,10,15,16,2,6,18,21,27,22
0,13,15,19,15,19,15,16,2,10,30,33,14,6,18,21,18,21,26
0,1,12,10,14,10,14,10,14,10,14,10,15,19,1,12,4,19,16,30,33
0,2,10,14,6,12,10,14,6,18,21,18,20
0
0,1,12,10,14,10,30,33,14,10,25,18,21,26,28,18,21,27
0,13,1,13,1,12,6,12,4,5,4,9,20,18,21,27,20,18
0,4,19,15,16
0,2,10,25,14,6,18,21,27
0,2,10,15,9,22,27,20,26,22
0,1,12,4,16,2
0,3,18,21,26,28,26,28
0,5,4,5,7
0,4,5,7
0,1,12,10,14,4,5,4,9,20,18,21,18,21,26,31
0,1,12,10,14,6,12,10,14,10,14,6
0,5,4,9,20,18,21,26,28,18,21
0,1,12,6,12,4
0,1,12
0,3,2,6,12,10,14,10,15,16,2
0,3,18,21,26,28,26
0,2,4,5,4,9,22,27,20,18,21,27,22,5,29,15,16,2,6,18,21,26,28,26,28,26,28,26,28,18,21,27
0,1,12,10,14,10,25,14
0,7,8,13,1,12,6,18,21,18,20,26,28,18,20,26
0,4,9,22,27,22
0,2,10,14,6,12,6,18,21,27,20,26,31
0,2,10,14,6,12,6,18,21,27,22
0,4,5
0,2,6,12,6,12,4,5,4,5,4,16,2,6,18,21,26,28,26,22,27,20,26
0,5,4,9,22,5
0,4,16,2,10,14,4,9,22,27,20,18,21,27,20,26,22
0,7,8,7,8,7
0,4,5,29,15,5,4,16,2,6,12,4,5,4,9,20,18,21,26,28
0,1,12,10,14,10,14,10,14,10,30,15,19,16,30,33,14,6,12,6,18,21
0,4,5,4,16,2,6,12,6,12,10,14,6,18,21,26,28,26,22,27,20,26,31
0,1,25,14,4,19,15,19,16,2,6,12,6,18,21,26,22
0,5,7,8,4,5,7
0,1,12,6,12,6,18,21,27,20
0,1,12,10,14,10,25,18,20,26,28,26,10,14,10,30,33
0,4,5,4,16,2,6,18,21,27,22,5,7
0,1,12,10,14,10,14,10,14,6,12,6,12,10,14,4,19,15,19,1,12,6,12,6,18,21,26,28,18,21,26
0,1,12,6,12,10,15,19,15,5,4,5,4,9,20,18,21
0,3,18,20,18,21,27
0,5,4,5
0,2,10,15,5,4,9,20,26,22,27,20,18,20,26,22
0,2,4,9,22,27,20,18,21,26,10,15,19,15,19,15,23,7,8,24,9,20,18,21,27,22,5,4,9,20,18,21,27,20,18,21,27
0,2,10,14,10,14,6,12,6,12,4,5,7,8,13,15,19,15,16,2,6,18,21,27,20,26,22,27,20,26
0,1,25,14,10,14,10,14,10,25,14,10,14,6,18,20,26,28,18,21
0
0,3,2,4,5
0,2,4,9,20,26,28,26,10,15,19,15,19,15,16,2,6,18,21,26,22,27,20,26
0,1,12,10,14,4,16,2,10,14,10,14,10,14,6,18,21,26,28,26,28,18,21,26,28
0,7,8,24
0,5,4,9,20,26,31,5
0,3,2,4,5,4,9,20,18,21,27,22,5,7,8,24
0,2,4,9,20,26,28,18,20,26,31,5,4,9,20,18,20,26,31,5
0,1,12,4,9,20,18,21,26,28,26,22
0,1,12,10,25,18,20,26,10,25,14,10
0,5,4,19,15,16,2,6,18,21,18,21
0,3,2,10,14,10,14,6,12,6,12,4,19,15,19,1,25,18
0,18,20,26,28,26,28,26,28,18,21,27,20,18,20,26,22
0,7,8,24
0,4,9,22,5,29,17
0,1,12,10,14,4,5
0,1,12,6,12,6,18,21,27,22,5,4,9,20,26,31,5,7
0,1,25,14,10,14,10,15,19,16,15,19,16
0,3,2,10,14,6,12,10,14,6,12,4,16
0,2,10,14,6,18,21,27,22
0,3,2,4,16,2,6,12,6,12,6,18,21,27,22,27,20,18,20,26,31,5
0,3,2,10,14,10,25,14,10,14,6,18,21,18,20,26,28,26,28,26,28,26,10
0,1,12,10,14,6,12,10,15,16,2,6,18,21,18,20,26,31
0,13,15,19,15,16,2,4,9,20,18,20,26,31,5,4,9,20,18,21,26,31
0,4,9,22,27,22,5,7,8,24,9,20,26,28,18,21,26,28,18,20,26
0,2,10,14,10,14,6,12,6,12,10,14,6,18,21,18,21,26,22
0,2,10,14,6,18,21,26,31
0,1,12,10,14,10,14,6,12,10,14,6,18,20,18,21,18,21,27
0,4,16,2,10,14,4,5
0,1,12,6,12,10,14,4,16,2,6,18,21,27,20,18,21,26,31,5,7
0
0,3,2,10,14,6,18,21,26,28,18,21,26,22
0,2,10,15,16,2,6,12,6,12,6,12,10,14,6,12,6,18,21,18,20,18,21,26,28,26,28,26,10
0,1,12,10,14,10,14,10,14,10,14,4,19,15,19,1,15,16,2,6,18,21,18,20,26,22,5
0,4,19,16,2,10,14,6,12,6,12,10,15
0,3,2,10,14,6,18,21,18,21,18,20,26,10,14,4
0,2,10,14,6,12,6,18,20,26,31,5,7,8,13,1,12,6,18,21,27,22,27,20,26,28,18,20,26,28,18,20,26,31,5,7
0,4,16,2,4,19,15,19,16,2,6,18,21,26,28,26,31
0,5,7,8,7
0,1,25,18,20,35
0,1,13,1,12,6,12,6,18,21,18,20,18,21
0,4,16,2,6,12,4,5
0,1,15,16,2,6,12,4,5,4,9,20,18,21,18,21,27,22,5
0,1
0,4,16,2,6,12,4,5,4,19,16,2,4,9,20,18,21,18,21,26,10,14,6,12,6,12,4,16
0,1,12,6,12,6,12,4,5,4,19
0,5,4,16,2,4
0,4,5,4,5,4,5,4,5,4,5,4,9,20,26,22,27,20,26,22,27,22
0,4,5,4,9,20,26,28,18,21,27,22,5,7
0,3,2,6,12,6,18,21,26,10,14,6,18,21,27,20,18,21,26,10
0,2,4,16,2,4,5,29,15,5,4,9,20,26,28,18,21,27,20,18,20,26,31,5,4
0,4,16,2,6,12,4,5,4,9,22,27,20,18,21,27,22,27,22,27,20,18,21,26,22,5
0,2,6,12,6,12,4,9,20,18,20,26,28,18,20,26
0,2,10
0,2,6,12,4,9,22,5,7,8,24,9,20,26,22,27,20,26,31,5,4,5,4,9,22,5,7
0,4,9
0,2,6,12,6,18,20,26,10,34
0,4,9,20,26,28,26,10,14,6,12,6,18,21,26,28,26,31
0,4,16,2,4,16,2,4,5
0,13,23,7
0,2,6,12,4
0,5,4,16,2,6,18,21,18,21,26,28,26,31
0,2,6,12,6,12,10
0
0,2,10,14,6,18,21,26,22
0,1,12,6,12,6,18,21,27,22
0,5,4,5,4,16,2,10,15,19,16
0,2,6,12,4
0,1,25,18,21,27,22,5,4,9,20,18,20,18,21,27,20,18,20,26,31
0,2,4
0,7
0,2,6,12,6,12,10,14,10,14,6,12,4,19,15,19,16,2,6,12,4,9,20,18,21,27,22,16,2,6,12,6,12,4
0,2,6,12,6,12,4,5
0
0,3,18,20,26,31
0,5,4,9,22,5,7
0,7,8,24,9,20,26,28,26,31,5,7,8,24,9,20,26,22,27,22,5,7
0,7,8,7
0,2,4,5,4,5,4
0,2,6,12,6,12,6,12,10,30,33,14,6,12,6,18,21,27,20,18,21,27
0,4,9,22,27,22,5,4,19,15,9,22,27
0,2,6,12,10,14,10,14,10,15,19,1,12,6,18,21,18,21,26,22,27,20,26,31,5,29,15,19,15,19,15
0,3,18,21,26,10,30,33
0,4,9,22,5,7
0
0,3,2,6,12,6,12,10,34,29,17
0,3,2,10,14,6,12,10,15,23,29
0,2,6,12,6,18,20,26,22
0,3,2,6,12,4,5,4,9,20,18,21,27,20
0,5,4,9,20,26,22
0,2,6,12,10,14,10,15,19,16,2,6,18,21,18,21,26,10
0,3,2,10,14,10,14,10,14,6,12,10,14,4,16,2,6,12,4,9
0,3,2,6,12,4,19,16,15
0,3,18,21
0,18,21,18,21
0
0,1,12,6,18,21,18,21,27,20,26,10,14,4,16
0,1,15,16
0,2,6,18,20,26,31,5,7,8,13,15,16,2,6,18,21,26,22,5,4,9,20,18,21,27,22,27,22,5,7
0,5,4,9,22,5,7,8,24
0,5,4,9,20,18,21,27,22,5,7
0
0,5,4,5,7,8
0,1,12,6,18,21,27,22,27,20,18,21,27,20,26,31,5
0
0,3,2,4,5,7,8,24
0,3,2,6,12,4,5,4,9,20,26,31,5,7
0,2,6,12,6,12,10,14,10,14,6,12,6,18,21,27,20,18,21,27,20,26,22
0,2,6,12,6,18,20,26,31
0,4,9,22,5,7,8,24
0,2,4,9
0,2,6,12,6,18,20,26,31
0,3,18,20,26,31
0,2,6,12,6,12,10,14,10,14,10,14,6,12,6,18,21,18,20,26,28,18,21,26,31
0,7
0,2,6,12,4,5,7
0,5,7
0,1,25,18,21,27,22,27,20,18,20,26,28,26,10,14,4,19,15,19
0,3,2,10,15,9,20,18,21,18,21,26,28,26,28,26,31,5,4
0,3,2,6,12,10,14,10,14,6,18,21,26,28,26,31
0,2,6,12,10,14,10,14,10,15,16,2,4,16,2,6,18,21,27,22,5,4,9,20,26,22,5
0,3,18,21,18,21,27,22,5,7,8,24,9,20,18,21,26,31,5
0,2,6,18,21,27,22,27,22,5,7
0,2,6,12,10
0,5,7
0,5,4,9,20,18,20,26,31,5,4,9,20,18,20,26,31,5,4,5,7
0,2,6,12,4,5,4,9,20,18,21,27,22,27,20,26,31,5,7
0,4,9,22,5,4,9,20,18,20,26,28,18,21,27,22,5,4,5,7
0,5,4,9,22,5,4,9,20,18,21,18,21,18,20,26,31
0,2,6,12,4,16,2,10,14,10,14,6,12,6,18,21,18
0,3,18,20,18,21,26,22,27
0,3,18,20,26,10
0,5,4,9,20,18,21,18,21,26,10
0,2,6,12,10,14,10
0,1,25,14,6,12,6,18,21,26,31
0,2,6,12,10,14,10,14,10
0,5,4,16,2,6,18,21,26,28,26,28,18,21,26,22,5
0,4,5,7
0,5,4,16,2,4,9,20,18,21,27,22,5,4,9,20,26,22,5,7
0,2,6,12,4,9,22,16,15,9,22,27,20,18,20,26
0,4,9,20,18,21,26,22
0,2,6,12,4,5,4,9,20,18
0,3,2,6,18,20,26,31,5,7
0,3,2,4,5,4,9,20,18,21,26,28,18,20,26,22,5,4,19
0,3,2,10,14,10,14,10,14,6,18,20
0,2
0,3,2,4,5,29
0,3,2
0,2,10,25,14,10,25,14,6,12,6,18,21,26,22,27,20,18,20,26,10,15,19,15,19
0,3,2,10,14,10,14,10,14,6,18,21,18,20,18,21,27,20,26,10,14,10,14,10,14,10,14,10,30
0,2,4
0,7,8,4,9,20,18,21,27,22,27
0,3,18,20,35
0,3,2,4
0,3,2,10,14,10,14,6,18,21,26,28,18,20,26,22,5,7
0,2,6,12,4,5,29,15,19,16,2,10,14,6,18,21,26,28,18,21,27,22
0,3,2,6,12,10,15,19,15,19,15,19
0,4
0,2,6,12,4,5,4,9,20,26,22,27,20,26,31,5
0,3,18,21,26,10
0,1,15,19,1,12,6,18,21,18,21,27,20,26,10
0,13,1
0,2,6,12,4,16
0,4,9,22,27
0,3,18,20,26,31,5,7,8,24,9,20,18,21,26,28,18,21,26,28,26,10,15,23,32,23,7
0,4,9,20,26,22,5,4,9,20,26,31
0,3,2,4
0,3,18,20,26,31,5,4,9,20,18,20,26,31,5,4,9,20,18,20,26,10,14,10,34
0,5,4,5,4,9,20,18,21,26,22,27,22,27,22,5
0,3,2,6,12,10,14,10,14,10,14,6,12,4,9,20,26,22
0,2,6,12,4,5,7
0,4,19,15,9,20,18,21,26,22,27,20,26,31,5,4,9,22,5,7
0
0,1,12,6,18,21,26,28,26,28,26,28,26,22,5,29
0,3,2,10,14,4,16,2,4,9,22,27,22,27,20,26,28,26,22,27,22,27,22,27,20,26,22,5,29,15,23
0,2,6,12,4,5,7
0,4,5,7
0,4,19,16,2,4,9,20,18,21,26,28,26,28,26,10,15,19,1
0,2,6,12,6,12,10,14,10,14,10,14,6,18,21,26,28,18,20,26,28,18,20,26,28,18,20,26,10,30,33,30,33
0,3,2,10,14,10,14,10,14,6,12,6,12,6,12,6,18,21,26,28,26,10,15,19,16,33,30,33,30,33
0,2,4,19,15,19,15,16,2,10,14,10,14,6,12,6,18,21,27,20,26,28,26,10,14,10
0,3,18,21,26,10
0,5,4,9,20,18,21,18,20,26,28,26,28
0,3,2,10
0,3,2,4,5,4,9,20,18,21,27,22,27,20,26,22,5,7
0,3,2,10,14,10,14,10,14,10,14,6
0
0,2,10,14,10,14,6,12,6,18,20,26,28,26,28,26,31
0,18,21,27,22,5,4,16,2,6,18,21,26,28
0,5,4,9,20,26,22
0,3,2,10,14,6,18,21,18,20,26,28,26,10
0,2,4,5
0,7,8,24,9,20,18,21,26,28,26,28,26,22,5,7
0,2,10,14,6,12,6,18,21,26,28,18,20,26,10
0,5,7,8,4,9,20,18,21,27,22
0,3,2,4,5,7,8,24,9,20,18,21,26,31,5,4,9,22,5,4,9,20,26,22,5,7
0,3,2,4,5,4,9,20,18,20,18,21,26,28,26,22,5,7
0,2,4,5,7,8,24,9,20,26,22,27,20,26,22,27,22
0,4,5,4,16,2,6,12,4,9,20,18,21,26,22,27,20,26,31,5,7,8,13
0,5,7,8,4,5,4,9,20,18,21,26,28,26,22,5,4,5,7
0,3,2,10,14,6,18,21,26,28,26,10,30,33
0,2,4,16,2,6,18,20,18,21,26,28,26,31
0,1,12,10,14,10,14,6,12,6,12,6,12,6,18,21,26,28,26,10,30,33,30,33,30,33
0,2,10,15,9,22,16,2,4,9,20,18,21,26,28,26,22,5,4,16,2,10,14,10,15,19,15,19,15,19,15,19
0,3,2,10,14,10,25,14,10,14,6,18,21,18,21,26,28,18,20,35
0,4,19,15,19,16
0
0,2,4,9,20,18,20,26,28,18,20,26,28,26,28,26,22,5,7
0,2,4,5,7,8,4,9,20,18,21,18,20,26,28,18,20,26,31
0,2,4,5,4,9,20,18,21,26,22,27,20,26,28,26,22,5,7,8,7
0,4,9,20,26,28,18,20,18,21,27,22,27,20,26,22,5,29
0,5,4,5,4,9,20,18,21,26,28,26,28,26,28,26,31,5
0,7,8,7
0,1,15,16,2,10,14,10,14,4,9,22,27,20,18,21,26,28,26,22
0,4,5,4,5,4,5,4
0,5,4,9,20,18,21,27,22,5,4,9,20,18,21,27,22,5,4
0
0,4,5,4,9,20,26,22,27,20,26,28,26,22,5,7
0,3,18,20,18,21
