g,c,d,h,d;g,b,c,d;g,b,c,d,h;b,c,d,h;g,i,c,d;b,g,c,d,h;b,g,c,d,c;b,g,c,d,f;g,b,g,c,d,h;g,b,g,c,d,h,d;i,g,c,d;b,g,c,d;g,c,d,h;g,c,d,c;g,c,d,f;b,g,c,d,h,d


h,d,h,d;d,h,d,f,d;d,h,d,c,g;d,c,d,c;d,c,d,h;d,h,d,c,g,b;d,h,d,h;d,h,d,c;d,h,d,f;c,d,c,d,h;h,d,f,c;h,d,f,d;h,d,c,d;f,d,f,d;f,d,f,c;d,f,c,d;c,d,f,d,f;c,d,h,d,c;c,d,h,d,f;c,d,h,d,h;d,f,d,f;d,f,d,c;d,f,d,h;d,h,d,h,d;d,f,d,f,c;d,f,d,f,d;i,c,d,f;c,d,f,c;c,d,f,a;c,d,f,d;d,c,d,h,d;f,d,f,d,f;f,d,h,d;f,d,f,a;c,d,c,d;c,d,h,d


c,f,a,c;f,a,c,a;f,a,c,i;a,c,a,i;a,c,a,c;g,i,c,a;d,f,a,c;d,f,a,i;a,i,a,i;i,c,a,c;i,c,a,f;i,c,a,i;g,i,a,i;a,i,c,a;d,f,c,i;i,a,i,a;i,a,i,g;d,f,a,i,g;a,f,a,i;c,a,c,a


g,b,g,b,g;f,a,i,g,b,g;b,g,c,i,g;b,g,b,g,b,g;g,b,g,c;g,b,g,b;d,c,i,g,b;d,c,g,b;b,g,c,g,b,g,c;b,g,i,g;b,g,i,c;f,a,i,g,b;a,c,i,g;g,c,i,g,b;b,g,c,g,b,g;g,i,g,b;g,i,g,i;g,b,g,c,i,g;c,g,b,g;c,g,b,c;f,c,i,g;g,b,g,c,i;g,b,g,c,d;g,b,g,c,g;c,i,g,b,g,c;g,b,g,b,g,b,g;g,b,g,i;d,c,g,b,c;d,c,g,b,g;c,g,c,g;e,g,b,g;c,g,b,c,d,h;i,c,i,g;i,g,b,g,c,d;g,c,i,g;g,c,g,b,g,c,d;b,g,c,g,b;a,i,g,b,g;c,d,c,g,b,g;c,d,c,g,b;i,g,i,g;i,g,i,c;c,g,b,g,c,d;c,g,b,g,c,g;a,i,g,i,g;c,a,i,g;f,a,i,g;i,g,e,g;b,g,i,g,i;h,d,c,g;g,c,g,b,g;g,b,g,c,d,f;i,e,g,i;b,g,b,g,c;b,g,b,g,b;b,g,b,g,i;c,g,b,g,b;c,g,b,g,c;g,b,g,b,g,b;g,b,g,b,g,c;i,g,b,g;g,e,g,i;i,g,b,g,b,g;a,i,g,i;a,i,g,b;c,i,g,b,g,c,d;g,b,g,c,g,b,g;d,c,g,b,g,c,d;c,g,b,g,c,d,h;h,d,c,g,b;g,c,g,b,g,c;g,b,g,c,d,c;a,i,e,g;d,c,g,b,g,c;g,c,g,b;g,c,g,c;i,g,i,c,a;c,i,g,b;b,g,b,g,c,d;g,i,g,b,g;i,g,b,g,i;i,g,b,g,b;i,g,b,g,c;b,g,c,i;b,g,c,g;g,b,g,i,c;g,b,g,i,g;e,g,e,g;d,c,i,g;i,g,i,g,i;h,d,c,g,b,g;c,g,b,g,b,g;b,g,b,g;c,i,g,c;c,i,g,i;h,d,c,g,b,g,c;g,b,g,c,g,b;c,i,g,b,g;c,d,c,g;g,i,g,i,c;g,i,g,i,g;c,g,b,c,d


