11,10,14
10,14,10
0,1,3
10,14,12
10,15,14
14,10,14
10,14,10,14
11,12,11
14,10,15
7,8,7
11,10,14,10
8,16,7
11,10,15
12,11,10
10,14,10,15
7,9,11
9,11,12
7,8,16
8,7,9
14,10,14,10
11,10,14,12
7,11,10
12,11,12
16,7,8
11,10,14,10,14
10,14,10,14,10
1,3,5
12,11,10,14
8,7,8
2,4,7
11,12,11,10
7,9,8
3,5,2
15,14,12
0,4,2
10,15,14,12
3,10,14
4,7,8
0,3,5
15,14,10
14,10,15,14
10,15,14,10
11,12,18
7,18,11
0,2,6
14,12,11
0,1,3,5
2,6,13
14,10,14,12
9,17,18
16,7,9
14,12,8
9,11,10
7,8,7,9
14,12,18
11,10,15,14
9,5,2
7,8,16,7
22,3,10
14,10,14,10,14
7,8,7,8
19,22,3
10,14,10,15,14
11,12,11,12
10,14,12,11
11,12,11,10,14
10,14,10,14,12
7,16,7
17,18,11
3,10,15
0,2,4
2,7,9
0,4,7
0,2,7
7,18,21
14,10,14,10,15
2,7,8
7,18,17
12,18,21
16,7,11
7,11,10,14
10,14,10,14,10,14
18,21,7
