7,13,20;7,17,21


1,6,2;1,6,2,1;6,2,1;12,2,1;2,12,2;4,9,1;1,6,11;2,1,6;2,12,2,1;1,16,1;12,2,12;1,6,2,12;6,2,12;1,16,1,6;16,1,6;0,1,6;2,12,15;4,10,14;2,12,2,12;6,11,16;1,6,11,16;0,2,1;11,16,1;6,2,12,2;1,6,2,12,2;1,6,11,16,1;6,11,16,1;1,6,15;12,2,12,2;1,6,2,12,2,1;6,2,12,2,1;6,11,6;1,6,11,6;12,2,12,2,1;9,1,6;4,9,12;0,5,4;5,4,9;14,10,14;2,1,6,2;2,12,2,12,2;12,2,12,15;10,14,10;11,16,1,6;12,2,1,6;6,2,12,2,12;1,6,2,12,2,12;2,1,6,2,1;16,1,6,2;1,16,1,6,2;14,9,1;0,4,9;10,14,9;2,1,6,11;2,12,2,12,2,1;1,6,11,16,1,6;6,11,16,1,6;9,12,2;6,2,1,6;15,19,1;1,6,2,1,6;4,10,14,10;4,9,1,6;16,1,6,2,1;1,16,1,6,2,1;12,2,12,2,12;4,10,14,9;2,12,2,12,15;9,12,2,1;5,4,10;0,3,2;5,4,9,1;2,12,2,1,6;12,15,19;0,7,13;0,4,9,1;3,2,1;0,3,2,1;0,1,6,11;10,14,10,14;1,16,1,6,11;16,1,6,11;11,6,2;9,12,15;10,14,9,1;2,12,2,12,2,12;2,1,16;6,11,6,2;1,6,11,6,2;2,1,6,2,12;0,2,1,6;1,6,2,12,2,12,2;6,2,12,2,12,2;0,3,15;11,6,2,1;9,12,2,12;14,10,14,10;4,10,14,10,14;4,10,14,9,1;0,2,12;2,1,16,1;0,8,7;11,16,1,6,2;0,1,6,2;1,6,11,6,2,1;6,11,6,2,1;1,6,2,12,2,12,2,1;6,2,12,2,12,2,1;15,14,10;1,6,11,16,1,6,2;6,11,16,1,6,2;4,9,12,2;0,5,4,9;15,4,9;2,1,6,11,16;5,4,10,14;16,1,6,2,12;1,16,1,6,2,12;2,12,15,19;12,2,12,2,12,2;11,16,1,6,2,1;4,10,23;0,1,6,2,1;14,10,14,9;1,6,11,16,1,6,2,1;6,11,16,1,6,2,1;2,1,6,11,16,1;15,19,15;0,4,10;16,1,16;1,16,1,16;4,9,12,2,1;12,15,14;1,6,2,12,15;6,2,12,15;12,2,12,2,12,2,1;12,15,19,1;1,16,1,16,1;16,1,16,1;0,5,4,10;4,9,12,15;2,1,6,2,12,2;2,12,2,12,2,12,2;14,9,12;0,5,4,9,1;0,2,12,2;1,16,1,6,2,12,2;16,1,6,2,12,2;12,15,4;11,6,11;1,6,2,1,6,2;6,2,1,6,2;9,15,19;12,2,12,2,12,15;8,7,13;12,2,1,6,2;2,1,16,1,6;3,2,12;0,3,2,12;9,1,6,2;1,6,2,12,2,12,2,12;6,2,12,2,12,2,12;0,7,17;2,1,6,15;4,9,24;17,21,17;15,14,10,14;14,10,14,10,14;1,6,11,6,11;0,2,12,2,1;6,11,6,11;2,12,2,12,2,12,2,1;10,14,10,14,10;1,16,1,6,2,12,2,1;13,20,1;16,1,6,2,12,2,1;12,2,1,6,2,1;16,1,16,1,6;1,16,1,16,1,6;2,1,6,11,6;12,2,12,2,1,6;11,6,2,12;9,1,6,2,1;2,1,6,2,12,2,1;16,1,6,11,16;1,16,1,6,11,16;15,4,9,1;14,9,1,6;15,19,12;4,9,12,2,12;14,10,23;12,2,1,6,11;9,1,6,11;1,6,2,1,6,2,1;6,2,1,6,2,1;4,10,14,10,14,10;6,11,6,2,12;1,6,11,6,2,12;0,4,10,14;12,2,12,2,12,2,12;14,10,14,9,1;1,16,1,6,11,16,1;1,6,2,1,6,11;16,1,6,11,16,1;6,2,1,6,11;9,12,2,12,2


