f,h,g,c,g;a,h,g,c,g,h;a,h,g,c,g,h,a,e;e,a,h,g,c,g,h;e,a,h,g;g,h,g,h,a;g,h,g,h,f;h,g,c,g,c,g;a,h,g,c,g;h,g,c,g,c;h,g,c,g,h;g,c,g,c,g;e,a,h,g,c;c,g,c,g;f,h,g,c;f,h,g,h;g,c,g,h,g;f,h,g,h,g;c,g,h,g,h;h,g,h,g,h;h,g,h,g,c;a,h,g,c;a,h,g,h;g,h,g,h;g,h,g,c;c,g,h,g;a,h,g,c,g,h,a;c,g,c,g,h;g,c,g,h,a,e;h,g,h,f,h;g,c,g,c,g,h;h,g,c,g,h,a,e;g,h,g,c,g,h;h,g,c,g,c,g,h;h,g,h,f;h,g,h,g;g,c,g,c;g,c,g,h;g,h,g,c,g;g,c,g,h,g,h;h,g,c,g;h,g,c,g,h,a;g,c,g,h,a;g,c,g,h,f;e,a,h,g,c,g;f,h,g,c,g,h


g,h,a,e;g,h,a,h;c,g,h,a,e;f,h,f,h;f,h,f,a;h,a,f,h;h,f,h,f,h;a,f,h,g;a,h,a,e;g,h,f,h,f;h,f,h,g;h,f,h,f;h,g,h,a,e;f,h,f,h,f,h;f,h,f,a,d;a,f,h,f;a,f,h,a;h,f,h,a;h,f,h,g,h;g,h,f,h,f,h;f,h,a,e;h,a,h,a;c,g,h,f;c,g,h,a;f,h,f,h,g;f,h,f,h,f;h,f,h,f,h,f;h,a,h,g;g,h,f,h;h,g,h,a;a,d,f,h;g,h,a,e,a;h,f,h,f,a


f,a,d,a;f,a,d,f;f,a,d,a,d;d,f,a,d;d,a,d,a,d,a;d,a,d,a;d,a,d,f;f,d,f,d;d,a,d,a,d;d,f,d,f;a,d,a,d,a;a,d,a,d,f;h,f,d,f;a,d,a,d,a,d;f,d,f,d,f;a,d,f,a;h,f,a,d;e,d,a,d;a,d,a,d


h,a,e,b;h,a,e,a;e,b,e,d;e,b,i,b;d,a,e,b;b,e,b,e;e,b,e,b;g,h,a,e,b;a,e,a,e;a,e,a,h;h,a,e,a,h;a,e,b,e;a,e,b,i;b,e,a,h;h,a,e,b,e;h,a,e,b,i;a,d,a,e;a,e,a,h,g


