e,c,a,h;e,c,a,g;a,g,d,i;a,g,d,g;a,h,a,h;e,a,g,d;e,a,g,d,i;e,c,a,h,g;h,a,h,a;a,h,g,h;c,a,g,d;a,g,h,a;c,a,h,a;c,a,h,g;b,e,a,g;c,a,h,a,h;b,e,a,g,d


b,e,b,e,a;b,e,b,e,c;b,e,b,e,b;b,e,b,e,b,e,b;b,e,b,e,b,e,c;e,b,e,c,a,h;b,e,b,e;e,b,e,a;e,b,e,c;e,b,e,b;e,b,e,b,e;b,e,b,e,c,e;b,e,b,e,c,a;c,e,b,e;c,e,b,e,a;c,e,b,e,b;c,e,b,e,c;b,e,b,e,b,e;e,b,e,c,a;e,b,e,c,e;e,b,e,a,g,d;c,e,b,e,b,e;e,b,e,c,e,c;e,b,e,a,g;e,b,e,b,e,b;e,b,e,b,e,c;e,b,e,b,e,b,e


a,c,e,a;a,c,e,b;a,c,e,c;b,e,c,e;b,e,c,a;b,e,c,h;c,e,c,e,c;b,e,c,e,c;e,c,a,c;a,c,a,h;a,c,a,c;b,e,c,a,h;c,e,c,a,h;e,c,e,b,e;c,e,c,e;c,e,c,a;e,c,a,c,a;c,a,h,c;a,c,a,c,a;a,c,a,c,e;e,a,c,e;b,e,a,c;e,c,e,c,e,c;a,c,e,b,e;h,a,c,e;c,a,c,a,h;e,c,e,b;e,c,e,c;c,a,c,a,c;c,a,c,a;c,a,c,e;e,c,e,c,a;e,c,e,c,e


g,d,i,f


