3,9,3
9,16,19
2,3,9
7,15,17
1,8,4
0,2,1
9,3,9
3,9,16
1,6,1
0,2,3
15,17,12
2,1,6
12,17,12
9,3,12
3,12,17
2,3,5
2,3,12
7,15,17,12
0,7,15
16,19,5
3,9,3,9
12,3,9
12,9,3
3,12,3
3,9,16,19
1,6,3
3,12,9
2,1,6,1
3,5,12
5,12,3
17,12,17
2,3,9,3
4,11,2
3,16,19
17,12,3
6,1,6
0,1,6
16,19,9
12,3,12
1,8,11
3,5,7
1,6,1,6
0,1,8
11,8,4
9,16,20
9,3,9,3
7,15,24
4,13,14
0,7,5
3,9,3,12
5,7,15
8,23,18
0,2,1,6
3,12,17,12
9,16,19,5
15,24,15
23,18,23
17,12,9
12,3,5
0,7,15,17
9,16,19,9
2,3,9,16
8,4,13
10,7,15
18,23,18
8,4,11
16,20,2
8,9,3
15,17,15
1,8,4,11
1,8,4,13
6,1,8
0,3,9
7,10,7
4,11,8
9,2,1
0,4,11
0,3,5
3,9,2
17,15,17
0,1,4
2,1,8
9,3,5
7,15,24,15
12,17,12,17
17,12,17,12
8,23,13
12,17,15
5,7,5
4,13,25
9,3,9,16
0,1,6,1
6,1,6,1
0,5,12
1,4,11
2,3,12,3
11,21,11
11,2,1
9,3,12,17
0,7,10
9,3,12,9
0,2,3,9
7,15,25
1,6,1,6,1
5,7,10
0,22,10
18,23,13
17,7,15
12,3,9,3
4,11,21
1,6,1,8
13,14,13
19,9,16
19,16,19
5,12,17
9,16,20,2
2,3,9,3,9
0,2,1,6,1
16,19,23
12,17,7
3,9,3,9,3
13,25,13
0,5,7
13,14,21
0,10,7
5,7,15,17
5,12,9
3,12,9,3
3,12,3,12
15,17,12,3
3,9,16,20
8,11,8
24,15,17
16,19,16
6,3,9
8,23,11
1,6,3,9
0,4,13
2,1,6,1,6
7,15,17,15
8,23,18,23
0,3,12
2,3,5,7
4,18,23
2,3,16
11,8,11
12,3,12,3
19,5,7
1,8,11,8
0,1,8,4
8,11,2
23,18,17
1,8,9
15,17,12,17
19,9,3
11,2,3
2,3,12,17
0,7,15,17,12
5,19,5
15,17,7
9,2,3
18,23,11
1,8,11,2
12,9,3,12
