j,d,g,h;d,h,g,a;d,h,g,h;j,h,j,h;j,h,g;j,h,j;d,h,g,h,g;j,d,h,j;j,d,h,d;j,d,h,g;j,d,h;j,d,g;j,d,h,g,h;j,d,h,d,h;j,d,h,j,d;d,h,g


h,d,h,g;h,d,h,d;h,d,h,j;h,j,d;g,h,d,j,i;g,h,d,j,d;d,h,j,d,j;d,h,j,d,h;h,j,d,j,d;d,i,d;d,h,j,i;d,h,j,d;h,d,j,i,d;h,d,j,d,j;g,h,d,h,d;d,j,d;d,j,i;d,j,h;d,h,d,j;d,h,d,h;d,h,d,g;d,i,d,j;d,i,d,g;h,j,d,j;h,j,h;h,d,h,d,h;h,j,d,h,j;h,j,d,h,g;h,j,d,h;d,j,i,d,g;d,j,i,d,j;h,j,i;g,h,d,h;g,h,d,j;d,h,d,h,d;d,h,d,h,g;d,j,d,h,g;d,j,d,h,j;g,h,j,i;g,h,j,d;d,j,i,d;d,j,i,j;h,d,h;h,d,j;h,d,g;d,j,d,j,i;d,j,d,j,d;h,j,h,j;h,j,i,d;g,h,j;g,h,d;d,j,d,h;d,j,d,j;d,j,d,g;d,j,i,j,i;h,d,j,i;h,d,j,d;h,d,g,h;d,h,j;d,h,d


i,d,g,h;i,j,d,h;i,j,d;i,j,h;i,d,h;i,d,g


j,i,j,i,d;j,i,j,i,j;i,j,i,d,j;i,d,j,i;i,d,j,d;i,d,i,d;i,j,i,j,d;i,j,i,j,i;h,j,i,j,i;j,d,j,i,d;j,d,j,d,j;j,i,d;j,i,j;j,i,d,h;j,i,d,i;j,i,d,j;j,i,d,g;i,j,i;i,j,d,j;i,j,i,j,i,j;i,d,j,d,j;j,d,j;j,d,j,d,h;j,d,j,i,j;j,d,j,d;j,d,j,i;j,i,j,d,h;j,i,j,d,j;i,d,j,i,d;j,i,j,d;j,i,j,i;j,i,d,j,d;j,i,d,j,i;h,j,i,j;j,i,j,i,j,d;j,i,j,i,j,i;j,i,d,i,d;i,j,i,d;i,j,i,j;j,d,i;i,d,i;i,d,j


c,e,a,g;e,a,g


g,e,c,e;e,c,e;e,g,e;g,a,e;e,a,e,a;e,a,e


e,c,f


a,e,c;d,g,e,c;g,e,c


a,g,a,g;a,e,a;g,e,a,g;g,e,g;d,g,e,a;g,e,a;g,e,a,g,h;a,e,a,g;c,e,a;a,g,a


d,h,g,e;a,g,e;i,d,g,e;h,g,e;d,g,e;h,d,g,e


a,h,j;a,h,g;a,g,h,j


e,a,g,h,d;g,a,h,g;g,a,h;g,h,g,h,d;g,h,g,h,g;h,g,a,h;h,g,a,g;e,g,h;d,g,h,g;g,a,g,h;g,a,g,a;e,a,g,h;g,a,g;h,g,h,g,h;h,g,h,g,a;a,g,h;g,h,g,h;g,h,g,a;a,g,h,d;a,g,h,g;g,d,g;g,h,d,g;d,g,h,d;h,g,a;h,g,h;h,g,h,d;h,g,h,g;h,g,h,j;d,g,h;d,g,d;g,h,g;h,g,e,a


