h,b,h,b;h,b,h,f;g,b,h,f;b,h,f,e;b,h,f,b;b,h,b,h,f;b,h,f,b,f;b,f,b,f;b,f,b,h;i,b,h,f;b,h,f,i;b,h,b,h;h,f,b,f;h,f,b,h;f,b,f,b;f,b,h,f


f,i,b,f;f,i,e,d;f,i,e,g;b,f,i,g;b,f,i,e;b,f,i,b;b,i,g,b;g,b,f,i;f,b,f,i;h,f,i,e;i,b,f,i;g,b,i,g;f,i,f,i;i,f,i,e


c,g,e,d;g,e,d,c,d;g,e,d,c,g;d,c,d,a;d,c,d,c;e,d,c,d;e,d,c,g;c,g,e,d,c;g,e,d,c,d,c;a,c,d,a;a,c,d,c;d,c,d,c,d;d,c,d,c,g;e,d,c,d,c,d;c,d,c,d,a,c;e,d,a,c;i,e,d,c;d,c,d,c,d,c;d,a,c,d;d,a,c,g;e,g,c,g;e,d,c,d,c;a,c,d,c,d;c,d,a,c,d;c,d,a,c,g;d,a,c,d,c;g,c,g,c;g,c,d,c;c,d,a,c;e,g,e,d;f,e,d,c;e,g,e,d,c;c,g,c,g;g,e,d,a;g,e,d,c;c,d,c,d,a;c,d,c,d,c;c,d,c,d,c,d;d,c,d,c,d,a;d,c,d,a,c;c,d,c,g;c,d,c,d


c,g,e,g;i,g,i,e;a,c,g,b;g,i,g,i;e,g,e,g;i,e,g,e;g,b,g,b;c,g,b,g;c,g,b,h;g,c,g,b;g,i,e,g;d,c,g,i;d,c,g,b;d,c,g,e;g,e,g,e;b,g,b,g


