0 j [0, 448]->1 #443 p=0.252278
0 f [0, 448]->2 #307 p=0.174829
0 c [0, 448]->7 #171 p=0.0973804
0 b [0, 448]->3 #189 p=0.107631
0 h [0, 448]->4 #188 p=0.107062
0 a [0, 448]->9 #151 p=0.0859909
0 i [0, 448]->6 #126 p=0.071754
0 g [0, 448]->13 #110 p=0.0626424
0 d [0, 448]->24 #62 p=0.0353075
0 e [0, 448]->-1 #9 p=0.00512528
1 f [0, 448]->2 #352 p=0.431902
1 c [0, 448]->5 #258 p=0.316564
1 i [0, 448]->6 #205 p=0.251534
2 j [0, 448]->1 #470 p=0.564226
2 c [0, 448]->5 #93 p=0.111645
2 b [0, 448]->8 #210 p=0.252101
2 h [0, 448]->29 #60 p=0.0720288
3 f [0, 448]->11 #424 p=0.359018
3 c [0, 12]->32 #31 p=0.0262489
3 c [13, 448]->12 #229 p=0.193903
3 h [0, 448]->4 #496 p=0.419983
3 a [0, 448]->-1 #1 p=0.00084674
4 f [0, 448]->18 #118 p=0.120408
4 b [0, 448]->3 #531 p=0.541837
4 a [0, 448]->9 #331 p=0.337755
5 j [0, 10]->23 #270 p=0.261882
5 j [11, 448]->15 #175 p=0.169738
5 f [0, 448]->18 #337 p=0.326867
5 b [0, 20]->8 #45 p=0.0436469
5 b [21, 448]->20 #127 p=0.123181
5 i [0, 448]->28 #77 p=0.0746848
6 j [0, 448]->10 #301 p=0.485484
6 c [0, 448]->7 #319 p=0.514516
7 j [0, 448]->15 #251 p=0.294601
7 f [0, 448]->18 #101 p=0.118545
7 b [0, 448]->3 #353 p=0.414319
7 i [0, 448]->22 #147 p=0.172535
8 f [0, 448]->19 #354 p=0.513043
8 c [0, 448]->-1 #13 p=0.0188406
8 h [0, 448]->17 #323 p=0.468116
9 h [0, 448]->4 #390 p=0.600924
9 g [0, 27]->31 #76 p=0.117103
9 g [28, 448]->13 #183 p=0.281972
10 f [0, 448]->2 #53 p=0.192029
10 c [0, 448]->5 #78 p=0.282609
10 i [0, 448]->6 #145 p=0.525362
11 j [0, 18]->32 #40 p=0.039801
11 j [19, 44]->15 #60 p=0.0597015
11 j [45, 448]->23 #53 p=0.0527363
11 c [0, 448]->14 #454 p=0.451741
11 b [0, 448]->20 #389 p=0.387065
11 h [0, 448]->-1 #9 p=0.00895522
12 j [0, 448]->26 #83 p=0.107932
12 f [0, 448]->18 #47 p=0.0611183
12 b [0, 448]->25 #418 p=0.543563
12 i [0, 448]->22 #221 p=0.287386
13 a [0, 448]->16 #208 p=0.787879
13 d [0, 448]->24 #56 p=0.212121
14 j [0, 448]->26 #235 p=0.40378
14 f [0, 448]->11 #76 p=0.130584
14 b [0, 448]->25 #144 p=0.247423
14 i [0, 448]->22 #127 p=0.218213
15 f [0, 448]->-1 #19 p=0.0349265
15 c [0, 448]->5 #322 p=0.591912
15 i [0, 30]->28 #149 p=0.273897
15 i [31, 448]->6 #54 p=0.0992647
16 h [0, 448]->21 #160 p=0.80402
16 g [0, 448]->30 #39 p=0.19598
17 f [0, 448]->18 #123 p=0.258403
17 b [0, 448]->20 #200 p=0.420168
17 a [0, 15]->24 #22 p=0.0462185
17 a [16, 448]->9 #131 p=0.27521
18 j [0, 448]->23 #266 p=0.361413
18 c [0, 448]->29 #172 p=0.233696
18 b [0, 448]->8 #260 p=0.353261
18 h [0, 448]->33 #38 p=0.0516304
19 j [0, 448]->15 #48 p=0.146341
19 c [0, 18]->14 #29 p=0.0884146
19 c [19, 448]->33 #31 p=0.0945122
19 b [0, 448]->8 #198 p=0.603659
19 h [0, 448]->33 #22 p=0.0670732
20 f [0, 448]->11 #413 p=0.573611
20 c [0, 448]->7 #63 p=0.0875
20 h [0, 448]->17 #244 p=0.338889
21 f [0, 448]->2 #24 p=0.169014
21 b [0, 448]->3 #105 p=0.739437
21 a [0, 448]->-1 #13 p=0.0915493
22 j [0, 448]->31 #22 p=0.0461216
22 c [0, 448]->12 #455 p=0.953878
23 f [0, 448]->2 #129 p=0.241121
23 c [0, 448]->5 #276 p=0.515888
23 i [0, 448]->6 #130 p=0.242991
24 h [0, 448]->-1 #4 p=0.045977
24 g [0, 448]->13 #74 p=0.850575
24 e [0, 448]->-1 #9 p=0.103448
25 f [0, 448]->11 #128 p=0.226549
25 c [0, 448]->12 #114 p=0.20177
25 h [0, 21]->30 #87 p=0.153982
25 h [22, 448]->27 #235 p=0.415929
25 a [0, 448]->-1 #1 p=0.00176991
26 f [0, 448]->-1 #8 p=0.0228571
26 c [0, 9]->14 #119 p=0.34
26 c [10, 16]->-1 #15 p=0.0428571
26 c [17, 448]->5 #36 p=0.102857
26 i [0, 448]->28 #172 p=0.491429
27 f [0, 448]->-1 #9 p=0.0434783
27 b [0, 448]->3 #66 p=0.318841
27 a [0, 448]->9 #132 p=0.637681
28 j [0, 16]->32 #23 p=0.0594315
28 j [17, 448]->15 #38 p=0.0981912
28 c [0, 448]->7 #326 p=0.842377
29 j [0, 448]->26 #37 p=0.174528
29 f [0, 448]->18 #98 p=0.462264
29 b [0, 448]->20 #58 p=0.273585
29 a [0, 448]->-1 #11 p=0.0518868
29 i [0, 448]->-1 #8 p=0.0377358
30 b [0, 448]->-1 #13 p=0.13
30 a [0, 448]->9 #83 p=0.83
30 d [0, 448]->-1 #4 p=0.04
31 f [0, 448]->-1 #2 p=0.025974
31 c [0, 448]->-1 #9 p=0.116883
31 a [0, 448]->16 #32 p=0.415584
31 i [0, 448]->-1 #9 p=0.116883
31 d [0, 448]->36 #25 p=0.324675
32 j [0, 448]->-1 #7 p=0.0777778
32 f [0, 448]->-1 #4 p=0.0444444
32 c [0, 448]->-1 #15 p=0.166667
32 b [0, 448]->-1 #9 p=0.1
32 i [0, 448]->34 #55 p=0.611111
33 j [0, 448]->-1 #4 p=0.0519481
33 f [0, 448]->2 #54 p=0.701299
33 b [0, 448]->-1 #10 p=0.12987
33 a [0, 448]->-1 #7 p=0.0909091
33 i [0, 448]->-1 #2 p=0.025974
34 j [0, 448]->-1 #5 p=0.0961538
34 c [0, 448]->35 #47 p=0.903846
35 j [0, 448]->-1 #8 p=0.173913
35 f [0, 448]->-1 #1 p=0.0217391
35 b [0, 448]->25 #32 p=0.695652
35 i [0, 448]->-1 #5 p=0.108696
36 g [0, 448]->-1 #3 p=0.428571
36 e [0, 448]->-1 #4 p=0.571429