5,28,7;28,7,3;26,28,7;7,15,5;6,7,15;6,7,3;15,28,7;16,21,3;5,28,7,3;5,15,5;0,7,3;7,15,28;28,7,15;26,28,7,3;0,7,22;15,28,7,3;7,15,28,7;6,7,15,5


25,27,9;25,27,3;25,30,9


4,3,11;9,4,3;3,4,9;7,3,4;3,4,3;7,3,11;4,3,4;0,9,4;4,9,4;4,3,12;0,4,3;0,3,4;4,9,13;7,3,4,9;7,3,11,14;3,4,3,11;3,4,9,4;4,3,4,3;4,9,4,3;3,4,3,4;0,9,4,3;9,4,3,11;7,3,4,3;28,7,3,4;9,4,9;17,9,4;0,3,11;4,3,11,20;4,3,4,9;0,4,9;9,4,3,12


22,12,25;12,22,12;12,25,27;12,22,12,25;7,22,12;22,12,25,27;14,22,12;3,12,22;3,12,22,12;3,12,25;12,25,27,9;11,14,22,12;3,12,22,12,25;12,25,12;7,22,12,25;12,25,11;14,22,12,25;12,22,12,25,27;12,25,30;22,12,22;7,3,12;22,12,25,11;22,12,25,27,9


3,11,14;11,14,26;11,20,11;20,11,20;3,11,20;20,11,14;11,20,17;14,26,28;11,14,25;4,3,11,14;14,26,28,7;3,11,14,26;17,20,11;11,20,11,20;11,14,26,28;11,14,22;3,11,20,11;11,14,26,28,7;20,11,20,11;5,20,11;20,11,20,17;14,26,14;3,11,14,25;11,20,11,14;17,20,17;25,11,14;11,14,26,14


13,16,21;13,16,21,3;0,13,16;9,13,16;0,13,16,21


0,1,2;1,2,1;0,2,1;2,1,5;2,1,2;0,1,5;0,1,6;0,2,8;0,1,2,1;2,1,6;2,1,2,1;23,2,1;1,2,8;0,1,6,10;1,2,1,2;0,2,1,5;0,2,5


0,6,7;1,6,10;6,10,6;1,6,7;0,6,10;6,10,5;23,6,7;6,10,6,10;10,6,10


1,5,18;15,5,23;23,5,18;15,5,18;1,5,23;23,5,23


8,17,20;20,17,20;8,17,9;8,17,18;20,17,9


5,23,5;18,23,5;18,23,2;18,29,18;5,23,6;18,23,6


8,19,8;18,8,19;18,8,17;2,8,17;5,18,8;5,18,23;2,8,19;19,8,17;8,19,8,17;5,18,29;18,8,19,8;7,18,23;19,8,19;8,19,8,19;7,18,8;2,8,19,8;5,18,8,19


