h,f,j;h,b,h,a;a,h,f;c,b,h,a;a,h,b;h,a,g;h,f;h,a,h;h,b;h,a;a,h,a;g,a,h,b;b,h;b,h,b,f;h,f,b;h,b,h,b;h,b,f,b;a,h;b,h,a,h;h,b,c,i;f,b,h,b;c,b,h,b;b,h,b,h;b,h,b,c;a,h,b,c;a,h,b,f;a,h,b,h;b,h,f;b,h,b;b,h,a;h,a,h,b;h,a,h,a;b,h,a,g;h,b,f;h,b,c;h,b,h;h,a,g,a;b,h,f,b;h,b,c,b


i,j,f;i,j,c;i,j,i;j,i,c,b;j,i,c,j;j,i,c,i;j,i;j,c,j,i;j,c;j,f,j,i;j,c,j,c;i,c,i,c;j,c,j,f;i,c,j;i,c,b;j,c,j;j,c,f;j,c,b;i,c,b,f;i,c,i;c,j,i,j;i,c,f;i,c,b,c;i,c,j,c;j,c,b,f;i,c,j,i;i,c;i,j;j,i,j,c;j,c,f,b;j,i,j,i;j,c,f,j;j,f,j,f;j,i,c;j,i,j;j,c,i;i,j,i,c;j,c,i,c;j,f,b;i,j,i,j;j,f,j,c;i,j,c,j;j,f;j,f,j


c,j,c,f;b,f,b,f;b,f,b,h;c,j,c,b;c,b,c,i;f,h;f,j;f,c;f,b;c,i,c;f,h,f;i,c,b,h;c,b,f,c;c,i,c,b;f,c,b;f,c,f;c,i,c,j;f,c,i;f,c,j;b,f;b,c;c,b;c,f,b;c,f,c;c,f,j;b,f,c;b,f,b;f,b,f;c,j,i,c;f,j,i,c;c,f,b,f;f,b,h;c,i,c,i;c,j,i;f,b,h,a;c,j,f;c,j,c;f,b,f,b;b,c,b;b,c,i;b,c,j;c,f,j,f;f,c,j,c;j,c,b,h;f,c,j,i;b,c,b,h;f,b,f,j;b,f,c,b;b,c,i,c;f,c,b,h;f,c,b,f;h,b,f,c;f,b,h,f;b,f,c,i;f,j,c;b,f,c,j;f,j,f;f,j,i;f,j,i,j;c,b,f,j;c,b,c,b;b,c,b,c;c,f,b,h;c,i;c,j;c,f;f,c,i,c;c,f,c,f;b,f,c,f;c,f,j,c;f,j,c,j;f,j,c,f;f,j,c,b;c,b,f;c,b,c;c,b,h;c,b,f,b;f,c,f,b;f,c,f,c;f,b,f,c;b,f,j;c,j,c,i;c,j,c,j;f,j,f,j;b,f,j,i;b,f,j,c;c,f,c,b


g,d;g,a;g,a,h


d,g;a,g,a,h;a,g;a,g,a;a,g,d


