1940 10
4 h 0 a 243 f 21 a 12 
6 c 0 f 111 c 3 f 14 c 51 f 34 
15 g 0 a 29 g 2 a 4 g 2 a 143 c 78 g 66 c 20 a 12 f 23 a 130 f 3 h 61 f 14 
12 d 0 g 61 a 91 f 47 h 6 f 5 h 18 f 109 a 1 h 31 j 40 e 62 
19 g 0 d 28 g 160 a 10 g 79 a 32 h 29 j 39 h 35 a 24 g 18 d 24 g 6 a 27 h 45 j 64 e 25 i 32 b 45 
7 g 0 d 55 g 37 a 49 f 88 a 51 h 40 
6 c 0 f 69 a 14 f 6 h 87 j 56 
8 d 0 g 30 d 1 g 128 c 68 g 70 c 57 f 100 
14 g 0 d 12 g 150 a 19 g 35 a 94 h 36 a 68 g 25 d 27 g 10 c 49 f 192 h 52 
14 d 0 g 137 c 54 g 132 d 2 g 6 c 3 g 11 c 10 f 51 h 89 f 28 h 1 f 9 
12 g 0 d 32 g 86 c 61 g 82 a 47 f 53 c 22 f 48 c 52 f 60 c 39 
6 g 0 a 112 f 72 a 76 f 110 h 53 
4 h 0 j 45 e 119 j 43 
6 e 0 i 61 e 12 i 62 e 1 i 15 
11 d 0 g 151 c 142 g 4 c 3 g 93 a 125 c 22 a 54 f 6 c 41 
18 g 0 a 119 f 46 a 40 f 12 c 1 a 16 c 39 g 27 c 11 a 7 f 26 h 13 j 24 e 21 i 59 e 34 j 39 
10 g 0 d 58 g 60 c 44 a 21 c 9 g 64 a 64 f 45 c 71 
14 g 0 d 50 g 41 d 21 g 3 a 59 f 35 c 51 g 10 a 44 h 29 f 155 h 62 f 45 
10 a 0 h 43 a 5 h 10 a 36 h 8 f 107 h 35 j 42 e 126 
10 a 0 f 140 h 27 f 53 a 22 f 93 h 76 j 33 e 59 j 24 
17 g 0 a 12 f 157 a 8 h 3 f 47 a 6 g 23 a 60 f 62 a 26 f 8 h 25 j 27 e 92 j 30 e 4 
8 g 0 a 67 f 54 c 94 f 190 h 44 j 38 h 37 
5 a 0 h 59 j 89 h 34 j 4 
11 a 0 g 10 a 60 h 61 j 37 h 61 a 30 h 24 j 29 e 50 j 89 
10 g 0 a 13 g 56 a 10 h 99 j 33 h 66 j 66 e 38 i 68 
18 g 0 a 32 g 13 a 22 f 54 a 1 f 4 a 3 f 22 a 60 c 26 g 5 a 67 h 51 f 20 h 56 j 57 h 13 
12 d 0 g 52 a 47 c 4 f 51 c 3 f 3 c 39 a 10 f 96 h 78 j 41 
11 d 0 g 38 c 129 g 35 c 100 g 11 c 36 f 101 h 35 f 12 c 66 
17 g 0 c 61 g 15 c 4 g 9 c 28 g 4 c 1 g 5 c 3 a 9 f 118 a 4 h 1 j 49 e 49 j 93 
13 g 0 c 112 g 99 c 7 g 7 c 47 g 47 c 14 f 140 c 79 f 16 c 15 f 5 
16 g 0 a 66 f 27 a 5 h 5 f 48 a 40 f 61 a 16 f 34 h 9 f 7 h 3 f 4 h 94 j 19 
13 g 0 d 22 g 22 a 18 h 75 f 94 a 6 c 24 a 3 g 2 a 3 h 32 j 31 
12 g 0 a 112 f 12 c 1 a 45 g 94 a 34 h 50 j 40 h 3 j 97 h 96 
4 f 0 h 30 j 35 e 33 
7 g 0 a 26 f 95 a 5 f 2 a 37 h 82 
4 c 0 f 58 c 87 f 19 
10 g 0 a 128 f 31 a 40 f 109 a 33 f 3 c 99 f 46 h 38 
16 g 0 a 91 f 79 a 8 h 90 f 33 a 20 f 5 h 32 f 25 h 99 f 3 h 1 f 4 h 26 f 18 
7 a 0 h 49 j 28 h 106 j 120 h 9 j 15 
12 h 0 j 54 e 31 j 83 h 40 a 20 h 66 j 37 e 143 j 28 e 24 j 32 
11 d 0 g 20 c 103 g 8 c 4 a 29 c 42 g 19 c 35 a 31 f 7 
3 c 0 f 80 c 79 
13 a 0 f 96 a 8 f 3 a 36 f 4 a 9 c 13 a 3 c 6 a 8 f 65 h 3 
3 j 0 h 149 f 19 
11 g 0 a 78 c 52 a 11 c 10 g 30 a 42 f 52 h 3 f 5 h 31 
1 c 0 
17 d 0 g 9 c 59 a 9 c 6 f 30 c 12 a 45 f 62 c 19 a 24 f 7 c 33 f 16 h 61 f 18 h 31 
14 g 0 c 43 g 5 c 18 g 3 a 48 c 9 a 3 c 54 a 7 c 20 g 12 a 24 f 32 
13 a 0 h 114 f 108 a 2 c 16 g 4 a 84 f 28 h 12 f 2 h 22 f 125 c 63 
4 g 0 c 77 a 10 f 21 
2 c 0 f 70 
1 c 0 
2 c 0 f 35 
3 g 0 c 65 g 13 
5 c 0 f 31 c 22 g 36 c 16 
6 a 0 c 9 a 37 f 32 h 10 j 49 
3 f 0 h 8 f 7 
2 i 0 e 56 
2 g 0 a 64 
5 d 0 g 14 c 1 g 6 c 3 
7 f 0 h 15 f 9 h 7 f 7 h 142 f 112 
9 a 0 g 7 c 58 g 1 c 6 a 4 c 91 g 5 a 38 
8 d 0 g 17 c 35 g 14 c 24 f 105 h 73 f 25 
8 g 0 c 85 a 49 f 193 h 21 f 1 h 6 j 56 
1 f 0 
7 g 0 c 89 a 115 f 22 h 80 f 58 h 16 
4 c 0 f 47 c 28 f 33 
8 g 0 c 33 g 23 a 2 g 4 a 50 h 152 j 37 
2 f 0 c 67 
2 j 0 h 27 
1 c 0 
4 g 0 a 26 h 68 j 25 
3 h 0 a 33 h 67 
3 e 0 i 19 b 118 
11 a 0 f 122 a 39 c 57 a 33 c 11 a 31 f 11 h 44 j 127 h 43 
8 a 0 h 108 a 87 h 50 j 47 e 44 j 138 h 36 
15 a 0 h 62 f 72 a 8 g 29 a 36 h 35 f 46 a 4 h 2 f 74 h 73 j 44 h 46 f 32 
9 g 0 c 72 g 58 a 139 f 56 h 120 f 14 c 86 f 19 
2 d 0 g 58 
14 a 0 f 20 a 32 c 12 a 8 c 8 g 20 d 72 g 3 c 48 g 2 c 11 f 186 c 24 
6 g 0 a 57 g 1 a 8 c 5 a 2 
4 e 0 j 19 e 175 j 40 
2 i 0 e 24 
15 d 0 g 7 a 68 h 37 f 44 a 2 g 49 c 48 a 101 f 8 h 24 f 28 h 92 j 39 h 6 
10 a 0 c 50 g 9 a 21 f 39 a 14 f 112 h 103 f 76 c 67 
7 a 0 f 119 a 21 h 94 j 75 h 15 j 33 
21 g 0 c 42 g 3 c 22 g 43 a 1 c 3 a 5 c 8 a 22 g 13 c 111 a 25 c 8 a 3 f 13 h 39 j 34 h 82 f 41 c 30 
8 g 0 c 84 g 66 a 85 f 27 h 117 f 39 h 105 
6 g 0 c 70 g 9 c 5 g 3 c 4 
5 h 0 f 9 a 16 c 8 g 13 
7 c 0 a 15 f 22 h 7 j 64 e 57 j 127 
10 g 0 c 35 g 106 c 32 g 5 c 52 g 5 c 26 f 122 c 133 
19 g 0 a 9 f 106 a 6 f 5 a 7 c 16 g 37 a 4 c 2 g 2 c 3 g 9 a 18 f 27 h 42 j 49 h 124 f 25 
13 g 0 a 82 f 44 a 4 f 4 a 1 f 3 a 23 f 116 a 3 f 17 h 13 j 42 
3 a 0 f 92 h 6 
3 d 0 g 57 c 55 
3 c 0 f 73 c 120 
10 a 0 f 81 a 18 c 80 g 1 c 4 g 7 c 17 f 169 c 142 
6 c 0 g 6 c 38 a 9 c 46 g 54 
6 h 0 f 50 h 125 j 18 e 74 j 52 
10 a 0 h 19 a 2 h 3 f 6 a 4 c 156 a 20 f 31 h 38 
10 c 0 f 12 h 91 j 42 h 10 f 39 c 29 a 5 c 2 a 16 
12 g 0 c 84 a 28 c 6 a 2 c 4 g 59 c 2 g 19 c 2 a 84 f 7 
2 h 0 j 16 
5 f 0 a 10 f 3 a 3 h 31 
2 a 0 h 84 
6 e 0 j 23 h 136 f 24 c 38 a 16 
19 g 0 c 10 g 6 c 4 g 14 c 29 g 2 c 4 g 79 c 5 g 12 c 5 g 12 c 2 g 4 c 37 f 202 c 59 g 47 
11 g 0 c 61 g 82 a 21 h 32 f 79 h 103 j 67 h 38 j 5 h 3 
15 a 0 h 48 j 38 h 30 a 44 h 69 f 8 a 20 h 9 f 19 h 13 f 32 h 67 j 39 h 98 
11 a 0 c 25 a 9 c 1 a 8 c 6 a 18 h 174 f 97 h 8 j 44 
3 g 0 a 70 h 39 
4 a 0 g 11 a 12 f 81 
4 f 0 h 70 j 27 e 64 
15 g 0 c 55 a 18 c 24 g 58 c 46 a 29 c 4 a 10 c 9 a 27 f 5 c 46 f 55 h 95 
7 f 0 a 6 c 56 a 1 c 18 g 49 c 18 
10 a 0 f 43 h 23 f 6 a 22 h 67 j 27 e 50 j 5 e 6 
5 f 0 h 53 f 29 h 19 j 25 
13 c 0 g 7 c 2 g 6 c 6 g 15 a 23 f 199 h 24 j 29 h 44 f 32 h 29 
1 i 0 
6 h 0 j 24 e 96 j 73 e 54 i 157 
12 a 0 f 74 h 32 a 24 f 98 a 12 f 1 a 2 f 3 h 18 j 76 e 88 
9 g 0 c 52 g 86 c 41 f 56 c 47 f 71 c 14 f 22 
4 g 0 a 10 h 223 j 32 
2 i 0 e 174 
3 h 0 f 22 a 33 
17 a 0 c 34 g 30 c 4 g 37 c 2 g 40 c 19 a 1 c 23 a 59 c 6 a 16 f 19 h 20 j 38 e 110 
8 g 0 c 54 g 110 c 19 g 14 c 32 g 27 c 2 
2 c 0 f 20 
8 g 0 c 35 a 113 c 2 a 3 f 42 a 5 f 2 
1 c 0 
2 f 0 c 77 
9 d 0 g 37 c 74 g 23 d 53 g 7 c 65 f 49 c 40 
1 a 0 
3 h 0 f 32 c 24 
1 j 0 
8 c 0 f 23 h 21 j 27 h 32 f 35 c 43 a 9 
6 f 0 a 21 f 3 c 4 g 71 c 3 
11 j 0 h 22 f 62 c 84 f 3 c 17 f 58 c 8 f 10 c 2 f 12 
7 g 0 a 61 g 102 a 53 f 46 h 33 j 29 
6 f 0 c 15 f 59 h 24 f 67 c 38 
4 h 0 j 53 h 49 j 40 
3 a 0 f 4 h 8 
4 d 0 c 1 f 37 h 16 
4 f 0 h 2 j 51 e 29 
6 g 0 a 40 c 64 a 7 c 46 a 16 
2 j 0 h 42 
4 h 0 f 82 h 44 j 31 
4 f 0 c 4 d 43 c 3 
2 f 0 c 16 
9 h 0 f 69 a 20 f 55 h 25 f 19 h 5 j 59 h 62 
2 e 0 j 37 
3 j 0 e 41 i 162 
3 h 0 j 24 e 39 
2 i 0 b 10 
2 j 0 e 3 
2 e 0 j 6 
4 a 0 f 80 a 8 h 89 
8 j 0 e 35 j 25 h 78 j 51 e 67 j 6 e 12 
11 a 0 g 15 a 11 h 49 f 84 a 1 h 59 j 37 h 118 j 69 h 69 
4 a 0 h 44 j 154 e 31 
7 c 0 f 113 a 32 f 8 h 19 j 39 h 11 
12 g 0 d 17 g 82 c 36 g 12 c 3 g 13 c 84 f 72 c 81 g 128 c 7 
18 a 0 f 21 a 5 f 4 a 19 f 2 a 9 f 7 a 1 f 4 a 32 f 4 h 14 f 2 h 7 j 113 e 62 j 22 
1 i 0 
7 h 0 j 94 h 1 j 39 h 9 j 5 e 293 
8 g 0 c 45 g 50 c 10 g 3 a 16 f 70 c 49 
5 i 0 e 38 j 49 h 96 f 39 
12 g 0 c 106 g 28 c 5 g 23 c 73 f 97 c 29 f 9 c 7 f 115 c 12 
1 a 0 
3 d 0 g 18 a 20 
3 a 0 h 14 j 39 
2 h 0 f 9 
5 c 0 f 18 c 9 f 8 a 162 
12 g 0 c 90 g 5 c 4 g 35 c 4 g 13 c 26 f 228 c 25 f 70 c 33 
11 a 0 c 117 a 3 g 2 a 21 c 10 a 21 f 29 h 73 f 19 h 188 
9 a 0 f 79 a 20 f 32 a 13 f 4 h 33 j 84 e 79 
3 c 0 g 33 c 2 
6 g 0 a 79 c 3 a 3 c 16 f 17 
5 j 0 h 57 f 23 h 44 f 81 
7 g 0 a 105 c 83 a 35 f 27 h 34 j 44 
11 f 0 c 131 f 21 c 14 f 3 c 12 a 4 f 7 c 14 a 2 c 1 
9 a 0 c 58 g 27 a 28 f 53 h 36 j 63 h 41 f 24 
12 a 0 h 185 f 30 h 30 f 18 h 31 f 53 h 30 f 1 h 33 f 4 h 81 
11 c 0 a 37 c 3 a 7 c 24 a 8 f 85 h 2 f 80 h 33 j 73 
12 g 0 c 100 g 4 a 49 f 65 a 7 f 2 h 28 j 49 h 80 f 76 c 43 
8 a 0 h 99 a 11 h 6 j 35 h 51 f 59 c 53 
6 c 0 g 32 c 72 g 2 c 5 f 145 
11 g 0 c 132 g 5 c 2 a 8 c 23 a 1 f 60 a 20 f 11 c 105 
15 a 0 f 56 a 8 f 3 a 7 c 16 g 9 a 10 f 52 h 20 f 12 h 27 f 3 h 78 f 16 
5 d 0 g 15 c 186 f 110 c 228 
15 c 0 a 10 c 13 g 64 a 117 f 18 h 16 f 17 h 50 f 59 c 43 a 7 f 14 h 49 f 11 
9 c 0 g 34 c 1 g 22 c 34 a 90 f 4 c 209 f 7 
14 c 0 g 8 c 7 g 4 c 9 g 1 a 13 f 154 h 125 f 50 h 5 f 18 h 85 f 34 
12 h 0 a 8 h 7 a 4 h 5 f 72 a 7 h 52 j 36 e 75 j 95 e 45 
8 g 0 c 216 a 23 f 6 c 108 f 133 c 24 g 50 
8 g 0 a 101 h 104 f 36 h 126 f 8 c 152 g 35 
11 c 0 g 25 c 49 f 89 c 5 f 75 c 74 f 38 c 13 f 29 c 43 
10 g 0 c 43 g 67 c 50 a 7 c 3 f 26 c 181 f 22 c 67 
13 a 0 g 13 a 87 c 60 a 14 c 11 a 6 f 22 h 260 f 42 h 4 f 13 a 12 
17 a 0 h 3 a 42 h 125 j 57 h 18 j 57 h 41 j 17 h 8 f 34 h 4 f 3 c 46 a 39 f 3 h 33 
12 a 0 f 42 c 44 a 7 g 3 a 39 h 21 f 81 h 6 f 10 h 71 f 22 
11 g 0 c 198 f 106 c 51 f 14 c 8 f 90 c 16 f 4 c 2 g 79 
12 j 0 h 19 f 16 a 17 f 9 a 30 f 1 a 26 h 31 j 21 e 49 i 45 
9 g 0 a 4 f 168 h 10 j 114 h 60 f 52 c 46 a 78 
3 h 0 j 194 e 28 
2 c 0 a 49 
4 c 0 f 51 h 33 f 63 
3 c 0 f 29 h 40 
1 g 0 
4 g 0 d 8 g 11 c 102 
8 i 0 e 95 j 19 h 14 f 8 c 29 f 19 c 77 
1 g 0 
4 a 0 c 69 a 69 f 15 
1 c 0 
4 j 0 h 58 f 20 c 42 
1 c 0 
7 e 0 j 86 h 27 f 22 h 40 j 51 e 36 
9 a 0 f 61 a 30 g 34 a 20 h 32 j 23 e 23 j 146 
11 g 0 a 122 f 46 h 18 j 19 e 33 i 37 e 40 j 33 h 94 f 22 
9 g 0 a 49 c 83 a 20 c 13 f 107 h 33 f 48 c 47 
3 h 0 f 51 a 22 
5 c 0 g 12 a 78 h 93 j 38 
2 h 0 j 103 
3 e 0 j 50 h 31 
8 f 0 h 4 f 135 c 60 f 5 c 15 f 3 h 134 
3 f 0 c 13 f 14 
9 h 0 a 50 f 60 a 6 f 2 a 17 f 4 a 16 c 6 
5 c 0 f 43 h 32 j 22 h 92 
3 f 0 h 43 f 5 
9 a 0 h 39 f 48 a 10 h 47 j 56 e 57 j 54 h 47 
11 a 0 g 89 a 1 c 5 g 11 c 30 g 45 c 1 a 65 f 7 h 218 
4 a 0 f 15 h 243 j 19 
5 a 0 c 35 g 12 a 63 h 57 
9 c 0 f 11 a 1 f 3 h 104 f 57 c 50 f 41 c 58 
10 a 0 c 7 a 11 c 1 a 23 c 3 a 18 h 51 f 23 h 1 
11 e 0 j 7 h 58 j 22 h 99 j 79 h 7 f 19 a 16 f 4 a 3 
8 g 0 c 70 g 34 c 62 f 36 h 61 f 123 c 86 
5 d 0 g 36 c 118 a 92 f 4 
3 c 0 g 151 c 1 
13 g 0 c 6 a 21 c 2 a 2 f 99 h 25 f 50 h 85 f 113 h 33 f 12 a 23 
9 d 0 g 1 c 160 g 14 a 1 f 36 h 113 f 46 c 47 
1 c 0 
5 g 0 c 168 g 1 c 3 f 124 
5 e 0 j 19 h 28 f 20 c 53 
9 g 0 c 60 g 60 c 30 a 34 f 3 h 93 j 34 h 63 
2 c 0 f 88 
5 f 0 a 12 f 4 h 51 j 47 
4 g 0 a 104 h 43 f 20 
1 j 0 
6 h 0 a 3 f 175 c 64 f 79 c 149 
1 g 0 
4 g 0 c 14 f 208 c 75 
12 a 0 c 24 a 32 h 111 j 25 e 48 j 21 e 16 j 24 h 116 f 51 h 15 
12 g 0 d 76 g 25 a 47 f 27 h 132 f 56 c 48 f 44 c 19 f 10 a 33 
9 a 0 f 100 a 2 h 16 j 25 e 42 j 60 e 1 j 87 
1 h 0 
4 g 0 c 178 f 244 c 85 
13 c 0 g 6 c 39 g 30 c 7 g 12 c 67 f 71 c 2 f 29 c 20 f 15 c 99 
8 g 0 d 44 g 46 c 61 f 55 h 135 f 60 c 103 
6 h 0 j 103 h 45 j 96 e 75 j 8 
1 a 0 
7 h 0 a 50 h 3 a 1 f 32 h 8 j 262 
4 a 0 f 19 h 5 j 263 
4 c 0 f 8 h 36 j 31 
19 c 0 g 19 c 2 g 3 a 12 c 1 a 7 c 22 a 3 c 4 g 35 c 3 a 49 f 6 c 52 f 50 c 137 f 39 c 47 
10 g 0 d 48 g 71 c 40 a 7 f 37 h 27 j 34 e 143 j 2 
5 c 0 a 73 c 6 a 27 c 3 
7 g 0 a 22 h 97 j 35 e 73 j 147 h 43 
6 e 0 j 27 e 84 i 51 e 209 j 77 
5 g 0 a 60 c 16 f 241 c 12 
7 a 0 f 12 a 6 c 19 a 23 c 3 f 53 
6 j 0 h 57 f 19 c 100 f 44 c 88 
12 g 0 a 26 f 61 c 5 f 141 c 105 g 117 c 8 g 16 c 6 g 12 c 11 
2 e 0 j 14 
1 f 0 
5 h 0 a 7 h 92 j 51 h 245 
1 f 0 
10 g 0 a 65 g 35 a 3 h 50 j 39 h 2 j 6 h 138 f 73 
5 g 0 a 38 f 42 c 33 f 19 
1 f 0 
2 e 0 j 38 
9 a 0 f 73 a 15 f 2 a 10 h 21 j 47 h 50 j 57 
8 g 0 a 12 f 39 h 29 f 7 h 66 j 218 e 44 
16 h 0 a 35 c 68 g 10 c 1 g 5 c 22 g 8 c 25 a 11 f 16 h 23 j 24 e 48 i 58 e 30 
2 j 0 h 31 
10 a 0 f 52 a 17 f 2 a 28 f 5 h 47 f 7 h 99 j 30 
5 e 0 j 89 h 38 f 21 c 26 
7 a 0 f 61 a 1 f 6 c 4 f 81 c 202 
2 f 0 c 6 
4 c 0 g 33 a 63 c 6 
4 j 0 h 58 f 35 h 7 
2 d 0 c 3 
4 g 0 c 8 g 10 c 2 
7 h 0 f 34 c 201 f 71 c 6 f 2 c 26 
6 c 0 g 29 c 65 g 13 c 28 f 135 
5 h 0 j 1 h 78 f 29 c 38 
4 g 0 a 19 h 30 j 110 
4 c 0 f 3 h 27 j 27 
2 f 0 h 55 
2 e 0 j 18 
1 b 0 
3 c 0 f 51 c 16 
6 c 0 f 24 a 41 f 20 a 2 f 16 
6 j 0 h 44 j 41 e 42 i 58 b 119 
3 f 0 c 85 f 5 
2 c 0 f 11 
4 h 0 j 174 h 35 j 76 
11 c 0 a 53 f 7 a 22 f 1 c 4 a 32 f 8 a 9 f 7 c 28 
6 g 0 a 30 f 20 a 15 h 3 f 123 
12 a 0 c 3 g 22 a 69 c 9 g 24 c 4 a 8 f 22 h 30 f 49 h 85 
2 j 0 h 81 
2 a 0 h 46 
3 j 0 h 55 f 63 
4 j 0 h 41 f 119 c 29 
8 a 0 f 88 a 12 h 6 f 16 h 12 j 58 e 57 
2 j 0 h 35 
2 j 0 e 37 
6 a 0 f 5 h 10 j 24 e 27 i 39 
4 c 0 f 4 h 29 j 28 
3 h 0 j 73 h 70 
4 i 0 e 4 j 28 h 17 
2 f 0 c 38 
2 c 0 g 135 
5 e 0 j 4 h 21 f 7 c 20 
5 a 0 f 61 a 8 h 3 j 45 
2 i 0 e 40 
5 f 0 h 22 f 31 h 6 f 5 
5 j 0 h 19 f 41 h 14 f 20 
1 c 0 
9 g 0 c 103 a 72 f 6 h 92 j 56 h 42 f 61 c 40 
7 a 0 g 6 a 20 h 34 j 21 e 30 i 82 
3 f 0 h 23 j 13 
8 i 0 e 25 j 33 h 34 f 30 h 38 f 6 h 7 
6 h 0 a 7 h 67 j 68 e 35 i 37 
5 c 0 f 6 h 8 j 12 e 15 
1 i 0 
4 c 0 f 19 h 74 f 9 
2 g 0 c 90 
2 f 0 c 140 
5 e 0 j 12 h 27 f 8 c 20 
13 a 0 f 41 a 16 f 1 a 17 f 3 h 51 f 5 h 12 j 54 h 29 j 5 h 47 
4 f 0 c 30 a 45 c 2 
6 c 0 f 28 h 44 j 25 h 33 j 31 
2 j 0 h 44 
9 f 0 a 5 c 23 g 21 a 50 c 2 a 17 c 8 a 13 
7 a 0 f 3 h 51 f 18 h 24 f 188 c 36 
10 a 0 f 33 a 9 f 4 a 13 f 7 h 83 f 59 h 21 f 49 
3 j 0 h 41 f 32 
5 h 0 j 79 e 89 i 87 e 98 
3 j 0 e 74 j 24 
7 g 0 a 58 f 34 h 45 f 1 h 19 j 43 
3 f 0 h 116 f 42 
2 i 0 e 56 
2 h 0 j 87 
2 j 0 e 23 
3 h 0 j 22 h 130 
4 a 0 h 62 j 229 h 18 
2 a 0 h 7 
1 c 0 
1 j 0 
1 j 0 
4 c 0 f 3 h 59 j 70 
8 a 0 h 1 j 41 e 35 j 29 e 1 j 2 e 166 
4 i 0 e 35 j 61 h 65 
2 g 0 c 27 
5 e 0 j 125 h 53 f 34 c 39 
7 a 0 f 38 a 8 f 6 a 5 f 7 h 77 
3 c 0 f 209 c 22 
5 c 0 a 55 c 7 a 79 f 2 
5 i 0 e 94 j 46 h 29 f 17 
2 g 0 c 64 
14 a 0 f 32 a 18 f 6 h 107 f 25 h 14 f 134 a 45 f 2 h 22 f 18 h 16 f 7 
3 d 0 g 33 c 31 
2 g 0 c 4 
2 h 0 j 130 
4 c 0 f 10 h 116 f 1 
3 j 0 e 3 i 45 
2 c 0 f 87 
3 g 0 c 63 f 80 
6 c 0 f 80 c 62 g 122 c 1 g 66 
7 g 0 c 63 g 5 c 3 f 118 h 140 f 98 
6 a 0 h 50 j 26 e 31 j 310 h 39 
3 a 0 h 36 f 59 
1 j 0 
9 a 0 f 76 h 39 j 58 h 95 f 68 a 121 f 1 c 28 
4 g 0 c 68 f 125 c 302 
2 j 0 e 16 
9 j 0 e 12 j 12 h 76 f 56 h 66 f 46 h 7 j 43 
9 a 0 h 26 j 157 e 102 i 72 e 2 j 50 h 23 f 15 
7 g 0 a 61 c 19 a 5 f 46 h 185 f 135 
3 g 0 c 31 f 108 
6 f 0 h 12 f 5 h 14 f 4 h 16 
8 g 0 c 1 a 28 f 13 h 89 f 132 c 38 g 130 
2 c 0 f 17 
3 i 0 e 18 j 40 
12 a 0 f 47 h 5 f 75 h 2 f 8 h 29 f 48 h 3 f 11 h 3 j 78 
7 h 0 a 15 h 5 j 125 h 253 j 6 h 25 
1 f 0 
6 f 0 h 16 f 10 h 44 j 47 e 53 
8 g 0 a 56 h 49 j 78 e 47 j 14 h 137 f 48 
7 c 0 g 8 a 6 c 3 a 20 c 9 f 89 
6 c 0 f 12 c 17 f 86 c 4 f 7 
5 j 0 h 1 f 25 a 23 c 3 
10 a 0 h 17 j 47 h 21 j 49 h 4 j 100 h 17 f 19 c 89 
2 f 0 c 23 
3 a 0 h 24 j 63 
1 b 0 
5 c 0 f 2 h 29 f 40 h 90 
7 a 0 h 49 j 90 h 3 j 46 e 127 i 61 
3 c 0 f 12 h 41 
7 g 0 c 70 g 4 c 3 f 125 c 74 f 21 
3 j 0 h 24 f 18 
3 g 0 a 13 f 49 
10 a 0 h 25 f 68 h 25 f 142 h 20 f 43 h 46 j 40 h 5 
3 d 0 g 21 c 16 
5 a 0 h 7 j 38 e 32 i 97 
8 e 0 j 4 h 51 f 10 c 44 a 19 f 3 c 62 
6 a 0 h 19 j 37 e 56 i 79 e 135 
5 h 0 j 12 e 70 j 4 e 24 
1 i 0 
1 e 0 
7 g 0 c 25 f 150 c 35 f 11 c 18 g 225 
4 c 0 f 323 c 112 g 46 
11 g 0 c 13 a 14 f 19 h 36 j 51 h 26 f 129 a 141 f 1 c 4 
6 a 0 c 50 a 4 f 18 h 156 j 80 
14 g 0 a 24 c 13 a 8 f 8 h 64 j 57 h 17 j 29 h 46 j 26 e 25 j 90 h 44 
10 g 0 a 16 c 26 f 30 c 3 f 69 c 157 f 1 c 119 g 38 
5 a 0 f 50 a 15 f 4 c 214 
11 g 0 c 22 a 20 f 9 c 56 f 29 h 85 f 69 h 25 j 24 h 106 
12 g 0 c 11 g 9 c 1 a 21 c 6 f 11 a 2 f 4 h 150 f 21 a 202 
15 c 0 a 36 f 7 a 15 f 1 h 39 f 3 h 1 j 37 h 142 f 83 c 57 a 3 f 10 c 14 
8 a 0 h 21 j 98 e 66 j 106 h 87 f 57 a 20 
13 g 0 c 12 f 56 c 2 f 104 c 16 f 29 c 37 a 52 f 15 h 24 f 20 c 52 
5 g 0 c 36 f 155 c 242 g 23 
5 j 0 h 3 f 17 c 42 f 15 
10 f 0 a 14 f 2 a 38 h 1 j 73 h 13 j 8 h 34 j 21 
4 f 0 h 4 f 63 h 117 
11 c 0 f 69 c 3 f 7 c 5 f 3 h 63 f 113 c 29 g 160 c 2 
4 c 0 f 332 c 11 f 59 
10 a 0 f 30 h 24 f 32 h 54 j 73 e 92 i 82 e 9 j 58 
11 a 0 h 21 j 16 e 22 j 103 h 99 f 27 h 23 j 27 e 26 j 76 
2 j 0 e 113 
5 h 0 j 24 h 23 j 9 h 7 
8 c 0 a 71 f 5 h 48 j 50 h 138 f 38 h 1 
2 f 0 a 59 
6 h 0 j 115 h 86 f 17 a 185 f 2 
11 a 0 f 29 h 60 f 20 h 34 j 73 h 24 a 225 h 25 a 5 h 3 
11 d 0 g 20 c 37 f 53 c 18 f 115 c 10 a 49 h 34 j 44 h 55 
7 c 0 a 85 f 3 h 68 j 29 e 81 j 43 
3 i 0 e 25 j 49 
5 h 0 j 87 h 242 j 67 h 48 
7 c 0 a 15 c 2 f 8 c 7 f 108 c 187 
10 a 0 h 7 j 42 e 42 j 139 h 27 j 66 e 24 j 105 h 53 
15 a 0 f 15 a 2 h 1 j 42 h 167 f 26 h 34 j 67 h 18 f 47 a 14 f 15 c 4 g 8 
4 c 0 f 211 c 164 g 80 
8 c 0 f 39 c 4 a 9 f 9 a 28 f 2 c 331 
3 c 0 f 162 c 188 
15 c 0 f 151 c 39 f 29 c 12 f 42 c 73 a 63 c 16 a 1 c 19 g 14 d 56 g 8 d 10 
8 c 0 f 211 c 92 f 44 c 13 f 31 c 27 a 6 
8 c 0 f 87 h 147 f 35 h 6 f 91 a 64 g 77 
14 g 0 c 34 f 35 a 6 f 1 h 65 f 51 c 53 g 21 c 19 g 6 a 10 f 44 h 1 
4 a 0 g 76 d 21 g 49 
4 c 0 g 423 c 22 g 3 
2 g 0 d 50 
7 c 0 f 170 h 117 f 79 h 2 f 14 c 47 
10 j 0 h 58 f 62 h 15 j 60 h 13 f 19 a 187 f 9 a 7 
8 g 0 c 33 g 222 a 72 f 21 c 33 g 74 d 93 
10 f 0 h 1 f 371 a 25 c 56 g 2 a 36 g 5 a 17 g 1 
6 f 0 h 72 f 109 a 72 f 2 c 1 
13 f 0 h 56 f 2 h 17 f 95 c 69 a 19 f 21 h 20 j 43 h 17 j 3 h 2 
5 c 0 g 39 c 25 g 2 d 89 
6 c 0 a 52 f 4 c 6 f 23 c 344 
10 c 0 a 61 f 15 h 32 f 41 c 55 f 17 c 1 f 119 c 14 
3 a 0 g 14 d 87 
7 c 0 f 203 c 53 f 13 c 7 f 8 c 106 
18 a 0 f 31 h 33 j 63 h 92 f 13 a 15 c 7 g 4 a 32 h 32 j 23 h 77 a 54 g 69 d 27 g 45 d 30 
14 c 0 a 10 f 9 h 140 f 17 a 72 c 14 a 4 f 16 a 125 g 63 d 49 g 5 d 31 
2 e 0 i 24 
2 j 0 e 3 
6 f 0 h 120 f 16 h 123 f 16 h 29 
6 c 0 g 257 c 10 g 131 d 111 g 188 
7 f 0 h 100 j 33 h 71 f 50 h 11 f 71 
6 j 0 h 2 f 32 a 9 g 45 a 87 
17 j 0 e 145 j 73 h 16 f 13 a 6 g 14 a 22 h 26 j 16 e 24 j 24 h 39 f 22 a 10 g 70 d 28 
17 c 0 f 30 c 39 f 8 c 103 a 39 f 11 c 7 a 4 f 39 a 108 c 5 a 4 c 12 g 20 d 127 g 135 
4 f 0 c 11 f 112 a 337 
12 c 0 f 14 h 95 f 63 h 73 f 20 c 94 g 71 c 7 g 9 c 9 g 9 
11 f 0 c 25 f 92 c 136 f 5 c 110 a 39 c 10 g 12 d 74 g 77 
16 c 0 f 111 c 65 f 13 c 37 g 17 a 70 h 24 j 19 h 85 a 26 g 69 d 25 g 46 d 42 g 27 
9 c 0 f 318 c 5 f 23 c 26 f 1 c 4 f 9 c 2 
15 c 0 f 166 c 7 g 71 d 7 g 31 a 72 h 21 j 16 h 58 f 13 a 12 g 48 d 38 g 61 
23 c 0 f 65 c 9 f 15 h 34 j 40 h 21 f 14 c 25 g 45 a 15 f 23 h 6 f 61 a 33 f 3 c 2 a 4 c 14 g 13 d 151 g 107 a 11 
2 h 0 f 22 
15 e 0 j 23 h 81 f 33 c 32 f 18 a 1 f 3 h 22 f 96 a 10 g 45 d 77 g 10 d 6 
1 f 0 
7 c 0 f 53 h 115 f 41 h 11 f 167 a 10 
7 h 0 j 56 e 74 j 51 e 68 j 125 h 52 
16 f 0 c 63 f 57 c 92 g 23 d 8 g 35 a 94 h 22 j 21 h 55 f 24 a 2 g 44 d 19 g 68 
11 f 0 c 64 f 52 a 111 h 63 f 80 a 37 g 22 d 81 g 183 a 16 
2 c 0 a 443 
6 h 0 j 79 h 138 f 145 a 13 g 131 
18 f 0 h 31 f 64 h 10 f 106 a 14 g 7 d 20 g 14 a 24 g 61 a 17 h 31 a 91 g 64 d 11 g 66 a 40 
20 f 0 h 5 f 13 c 67 f 32 c 87 a 26 g 1 a 11 h 58 f 71 a 27 c 5 g 18 d 107 g 43 d 28 g 91 a 11 h 19 
3 f 0 h 16 f 69 
4 c 0 f 2 c 153 g 129 
2 h 0 j 41 
10 f 0 a 9 f 1 a 4 f 11 h 7 f 2 h 27 j 40 e 96 
8 j 0 h 203 f 167 h 7 f 16 a 22 c 6 a 41 
17 f 0 h 108 f 90 c 22 g 6 d 18 g 32 a 25 g 61 a 17 h 32 f 66 a 8 g 82 d 17 g 52 a 78 
3 f 0 h 70 j 35 
18 j 0 h 6 f 60 a 23 h 74 j 45 h 35 f 21 a 21 g 20 a 69 g 14 d 42 g 30 d 30 g 87 a 15 h 33 
10 f 0 h 51 a 1 h 1 f 9 h 95 f 44 h 3 f 31 h 13 
16 c 0 g 226 d 20 g 34 a 28 g 50 a 17 h 37 j 38 h 5 f 41 a 1 g 60 d 30 g 59 a 102 
3 f 0 c 41 f 33 
13 j 0 h 83 j 8 h 2 f 27 a 125 f 12 c 2 g 19 d 43 g 12 d 25 g 115 
8 f 0 h 41 j 66 h 112 j 27 h 111 f 45 a 20 
17 f 0 c 35 a 16 c 1 f 2 c 5 f 124 c 8 a 30 f 9 a 4 f 7 a 3 f 18 c 127 a 15 h 68 
4 f 0 h 30 j 77 e 28 
8 c 0 a 41 f 15 a 7 f 14 c 8 a 2 h 116 
7 f 0 h 102 f 61 c 77 g 79 d 47 g 156 
2 j 0 e 41 
6 h 0 j 39 h 50 a 36 h 49 j 24 
9 g 0 c 8 a 27 f 11 h 16 a 70 g 84 a 152 h 43 
4 h 0 f 184 h 77 j 45 
11 f 0 a 17 f 3 a 1 f 13 a 5 c 2 g 66 a 16 f 113 a 8 
17 f 0 h 10 j 117 h 58 a 32 g 20 d 21 g 15 a 130 f 26 h 6 f 26 a 25 g 22 d 60 g 76 a 102 
6 c 0 f 68 c 114 g 18 a 21 h 57 
12 i 0 e 31 j 23 h 11 f 6 a 7 g 10 d 223 g 41 a 22 h 21 j 26 
3 f 0 h 94 j 39 
8 c 0 f 8 c 17 a 16 f 11 a 1 f 2 h 12 
9 h 0 f 55 c 15 g 7 d 107 g 10 d 35 g 66 a 23 
14 c 0 f 60 h 24 j 42 h 15 j 13 h 36 f 116 c 25 g 10 d 112 g 12 a 87 h 30 
17 f 0 a 198 g 18 d 29 g 19 a 23 g 53 a 49 h 29 j 22 h 35 a 29 g 43 d 21 g 82 a 31 h 64 
3 c 0 f 217 c 15 
9 c 0 g 48 d 8 g 83 d 5 g 12 d 53 g 153 c 34 
17 f 0 c 142 g 55 d 50 g 13 a 28 h 138 j 16 h 50 f 32 a 5 g 21 d 16 g 74 a 28 g 8 a 66 
22 c 0 f 34 h 51 j 30 h 72 f 15 a 3 g 26 a 14 h 36 j 38 e 21 i 37 e 17 j 26 h 17 a 18 g 92 d 65 g 83 a 11 h 39 
2 e 0 j 156 
6 j 0 h 46 a 111 h 11 a 11 h 4 
9 h 0 j 122 h 10 j 22 h 4 j 4 h 8 f 22 c 27 
2 e 0 j 11 
3 b 0 i 46 e 61 
1 c 0 
20 f 0 c 183 g 15 d 33 g 42 d 91 g 65 a 20 f 15 h 18 f 18 a 37 c 7 g 5 d 16 g 90 a 52 g 22 a 19 c 28 
7 h 0 f 190 a 7 g 26 a 19 h 32 j 23 
10 c 0 g 93 d 48 g 42 d 44 g 135 a 24 h 22 j 14 e 15 
2 j 0 e 153 
16 f 0 c 21 a 11 c 9 a 37 f 3 c 4 a 1 f 31 c 9 g 12 d 117 g 45 d 38 g 5 a 58 
9 f 0 h 124 f 66 h 74 f 7 h 4 f 39 a 64 h 174 
6 a 0 f 9 a 4 f 3 h 64 f 30 
6 j 0 h 84 j 42 h 95 f 50 a 29 
1 c 0 
2 i 0 e 58 
3 c 0 f 111 c 107 
13 c 0 f 97 c 13 f 2 c 213 a 28 c 6 g 19 d 52 g 5 d 53 g 109 a 74 
20 f 0 h 56 f 9 h 11 f 63 a 51 g 28 a 79 c 31 g 8 a 109 h 19 f 82 a 2 g 18 d 15 g 46 a 37 g 38 a 48 
5 c 0 g 191 a 71 h 24 j 14 
13 i 0 e 67 j 17 h 13 f 12 a 7 g 10 d 22 g 217 a 21 c 3 g 7 a 7 
11 c 0 f 62 a 62 f 1 a 103 f 11 a 9 f 19 c 85 g 39 a 87 
15 c 0 f 154 c 7 f 44 c 52 g 104 d 56 g 34 d 24 g 129 a 39 c 30 a 14 c 6 a 3 
12 c 0 f 44 a 7 f 2 c 24 f 32 h 135 f 99 a 85 f 7 c 3 a 6 
25 c 0 f 107 a 55 f 4 a 5 c 18 g 8 d 32 g 43 a 15 g 88 a 43 g 15 a 13 h 28 j 24 h 35 f 23 a 5 c 6 g 4 d 10 g 61 a 28 g 131 
12 j 0 e 3 j 22 h 91 f 47 a 12 c 14 g 1 a 81 f 23 h 11 j 30 
13 f 0 h 20 f 37 a 5 g 43 d 129 g 91 a 12 h 29 f 4 h 31 f 7 h 3 
22 f 0 a 181 h 6 f 2 h 18 f 31 a 98 c 11 a 3 c 4 g 13 a 87 g 12 d 28 g 31 d 50 g 16 a 20 h 22 j 13 e 26 j 11 
2 j 0 h 180 
7 c 0 f 3 h 32 f 10 h 4 j 109 h 23 
1 c 0 
6 f 0 c 292 g 68 c 5 g 2 c 2 
3 f 0 c 201 g 30 
5 e 0 j 65 h 26 f 12 a 13 
4 c 0 f 94 c 17 f 33 
12 c 0 g 56 c 10 g 22 d 27 g 98 d 30 g 159 a 28 c 5 a 6 f 37 
24 h 0 f 71 h 11 f 64 a 22 g 25 d 51 g 18 a 14 g 94 a 46 g 12 a 31 h 26 j 23 h 54 a 12 g 10 d 12 g 52 a 16 h 34 a 75 g 30 
2 c 0 f 55 
3 e 0 j 57 h 34 
14 f 0 a 163 g 27 a 80 h 22 j 29 h 89 a 26 g 49 d 122 g 83 a 14 h 20 j 44 
1 c 0 
11 c 0 f 4 c 40 a 7 c 6 g 2 d 31 g 219 a 8 h 27 f 15 
4 c 0 a 11 f 10 h 29 
8 c 0 a 45 f 8 h 14 f 53 h 79 f 62 a 15 
20 c 0 g 170 d 47 g 57 c 34 g 25 d 48 g 26 a 24 g 5 a 61 c 77 g 5 d 17 g 72 a 47 c 31 g 15 c 7 g 33 
5 f 0 c 10 f 44 h 49 j 24 
5 e 0 j 4 h 29 f 37 c 91 
10 c 0 a 49 f 2 h 115 j 86 h 12 f 55 a 101 f 13 a 12 
1 e 0 
9 h 0 j 8 h 31 j 67 h 177 f 19 a 3 f 135 a 5 
12 j 0 h 73 j 1 h 43 j 6 h 3 f 30 a 11 g 18 a 87 f 29 h 29 
10 c 0 g 23 d 90 g 92 d 44 g 51 a 21 h 45 f 29 a 21 
22 c 0 a 5 f 2 a 161 g 15 d 51 g 35 a 25 c 48 a 3 g 11 d 41 g 6 c 59 g 2 a 45 g 79 d 15 g 59 a 62 c 72 g 14 
1 e 0 
11 e 0 j 40 h 21 a 24 g 115 d 27 g 10 a 63 g 18 a 4 h 38 
5 c 0 g 42 c 3 g 1 c 5 
6 f 0 c 99 f 33 a 218 f 153 a 9 
6 f 0 h 92 f 140 h 8 f 92 c 62 
6 j 0 h 1 f 45 h 88 f 181 c 17 
10 c 0 g 19 d 79 g 31 a 59 g 17 d 40 g 27 a 15 h 29 
19 h 0 f 157 a 8 g 38 a 41 h 30 j 15 e 44 j 73 h 20 a 66 g 28 d 24 g 32 d 76 g 32 a 8 h 21 j 21 
28 f 0 c 84 a 53 c 11 g 21 d 54 g 41 a 8 h 20 f 49 a 6 g 19 d 19 g 19 a 5 h 13 j 15 h 11 f 17 a 6 h 50 a 45 g 22 d 13 g 45 a 16 h 66 a 75 
15 f 0 h 136 f 22 h 2 f 46 h 1 f 2 h 81 f 51 a 10 c 133 a 3 c 28 g 50 c 2 
10 h 0 f 44 h 44 j 56 e 51 j 146 e 11 j 6 e 3 j 18 
10 c 0 f 19 c 25 a 59 f 13 c 104 f 30 c 16 f 23 c 32 
10 j 0 h 5 a 14 g 37 a 7 g 4 d 81 g 132 a 10 f 27 
16 f 0 c 59 f 33 c 3 a 28 f 4 c 122 f 37 c 13 g 46 a 43 h 93 a 6 h 1 f 68 a 6 
4 j 0 h 15 j 89 h 226 
24 c 0 a 127 f 10 c 35 g 18 d 1 g 5 a 2 f 3 a 7 f 5 c 112 g 18 d 29 g 66 d 40 g 68 d 11 g 64 a 7 h 14 j 8 e 9 i 22 
17 f 0 c 8 g 151 a 132 f 58 c 59 g 14 d 111 g 83 d 26 g 55 a 18 f 45 a 24 h 5 f 1 a 11 
11 j 0 h 18 f 31 c 52 f 31 h 168 a 24 f 189 h 6 f 3 a 31 
15 c 0 a 153 f 6 h 4 f 18 c 147 g 14 d 32 g 69 d 37 g 150 c 40 a 17 f 6 c 30 
9 h 0 f 246 a 34 f 2 c 11 g 38 a 56 h 121 f 47 
22 h 0 j 37 h 2 f 34 c 77 g 5 a 96 h 45 j 82 h 8 f 19 a 7 g 17 d 102 g 28 d 79 g 46 a 14 f 36 a 8 f 53 a 6 
32 f 0 c 83 a 26 f 17 a 1 f 4 a 8 c 9 a 7 g 12 d 81 g 18 a 28 h 25 f 33 a 3 g 23 d 14 g 28 a 10 h 17 f 34 a 5 h 46 a 55 g 18 a 85 h 36 j 45 h 11 a 37 g 50 
5 h 0 f 51 h 28 j 30 e 27 
5 c 0 g 318 c 131 g 5 c 39 
9 c 0 g 71 c 1 g 16 c 32 g 264 c 2 g 68 c 4 
16 h 0 f 55 a 58 h 21 j 87 h 95 f 14 a 5 g 82 a 34 g 20 d 27 g 123 a 18 f 35 h 8 
5 h 0 f 32 a 73 f 6 c 127 
6 j 0 h 44 f 104 h 23 f 3 h 5 
22 j 0 h 61 f 45 a 39 g 12 a 122 f 37 a 17 h 8 j 39 h 21 f 17 a 3 g 16 d 39 g 123 d 34 g 61 a 10 h 16 j 16 h 87 
29 f 0 a 13 f 2 h 23 f 45 a 37 f 5 a 19 f 1 a 2 c 8 g 5 d 63 g 34 a 53 c 37 g 13 d 22 g 36 a 25 g 156 d 20 g 4 a 15 h 23 j 17 h 12 a 126 g 55 
4 c 0 g 85 c 43 f 18 
1 c 0 
20 f 0 c 25 f 26 c 18 g 16 d 26 g 6 d 122 g 147 c 23 g 1 a 4 f 20 a 30 f 9 a 3 c 4 a 2 c 6 a 9 
8 h 0 f 23 h 3 f 1 c 26 g 32 a 33 f 14 
1 j 0 
11 c 0 f 14 c 116 g 14 c 158 a 100 c 2 g 17 d 79 g 210 a 27 
1 g 0 
5 j 0 h 98 j 40 h 7 j 2 
16 c 0 f 13 h 38 f 40 a 9 g 11 d 20 g 30 d 10 g 6 a 48 g 38 a 139 h 22 j 15 e 20 
2 e 0 j 76 
2 h 0 j 51 
1 e 0 
8 c 0 g 14 d 23 g 93 d 131 g 6 a 59 h 78 
4 g 0 c 25 g 11 a 50 
8 f 0 c 78 a 7 f 78 a 7 f 5 a 40 f 7 
8 c 0 g 11 d 10 g 174 d 14 g 132 c 61 g 1 
1 j 0 
19 f 0 c 36 g 102 d 21 g 4 c 130 a 61 f 32 a 3 c 22 g 10 d 50 g 114 d 31 g 78 c 51 g 55 c 84 g 8 
27 c 0 g 158 d 19 g 85 a 9 h 23 f 68 a 6 g 11 d 13 g 27 a 15 c 43 a 3 c 1 g 8 a 64 c 21 g 13 d 18 g 81 c 45 g 54 c 16 g 17 d 56 g 11 
6 h 0 f 60 a 12 h 50 j 13 e 15 
6 c 0 a 123 f 3 a 21 f 3 c 95 
5 i 0 e 13 j 18 h 11 f 6 
6 i 0 e 24 j 33 h 24 f 15 c 23 
21 j 0 h 2 f 133 a 2 g 21 a 82 h 133 f 10 a 7 h 3 a 14 f 4 a 6 g 16 d 48 g 102 d 61 g 51 a 10 h 40 a 71 
10 f 0 a 95 h 75 f 125 a 28 g 25 d 56 g 142 d 4 g 7 
5 a 0 c 92 a 3 f 38 a 3 
3 e 0 j 8 h 57 
18 h 0 f 17 a 80 c 57 g 1 d 30 g 92 a 9 h 23 f 57 a 6 g 8 d 15 g 25 a 15 h 17 a 49 h 45 
12 a 0 h 23 a 23 g 12 d 11 g 40 a 18 h 25 j 38 h 38 f 52 a 4 
3 c 0 g 132 d 44 
8 g 0 c 141 g 11 c 17 g 7 d 50 g 27 d 9 
5 g 0 d 36 g 80 c 50 g 41 
7 c 0 g 103 d 48 g 5 c 12 g 144 d 3 
11 g 0 d 39 g 14 d 4 g 48 c 66 g 8 c 11 g 18 c 5 g 15 
7 f 0 c 133 a 16 f 13 h 21 f 56 h 23 
8 c 0 a 35 f 15 a 32 f 108 a 55 f 3 a 27 
6 j 0 h 25 f 28 a 16 h 74 j 28 
3 j 0 e 7 i 49 
5 c 0 f 2 a 68 c 17 g 37 
3 h 0 f 15 h 81 
8 f 0 c 2 f 20 c 37 a 25 c 2 g 53 d 28 
18 a 0 f 47 a 34 c 8 g 10 d 15 g 35 c 42 g 22 a 87 g 56 d 14 g 27 a 14 h 49 j 33 h 73 a 30 
5 h 0 f 27 a 64 g 114 a 2 
6 d 0 g 10 a 20 g 178 d 36 g 16 
9 a 0 g 10 d 16 g 65 d 45 g 52 a 18 h 32 a 158 
21 c 0 g 117 a 13 g 14 a 2 f 33 h 16 f 106 a 14 g 8 d 31 g 139 d 25 g 20 d 58 g 12 a 88 c 24 a 2 f 29 a 2 
9 h 0 j 191 h 78 j 59 h 10 a 80 f 14 a 3 h 5 
11 c 0 a 1 c 3 a 37 c 1 a 2 c 4 a 12 c 2 g 5 c 3 
7 f 0 h 19 f 20 c 25 g 25 a 38 h 22 
3 e 0 i 40 e 36 
20 f 0 a 73 c 44 g 16 d 36 g 96 a 18 f 31 a 36 g 18 a 66 g 45 d 35 g 30 d 79 g 63 a 62 c 112 g 3 a 79 
19 f 0 a 88 c 9 g 21 d 38 g 27 c 97 g 27 c 36 g 10 c 9 g 22 c 10 g 12 d 45 g 154 d 17 g 74 a 55 
31 f 0 a 55 f 1 a 21 c 10 a 5 c 4 g 15 a 40 f 26 h 81 f 2 a 40 g 41 d 103 g 39 d 18 g 43 d 41 g 21 a 31 g 27 c 4 g 4 a 14 c 2 a 6 c 66 g 18 c 2 g 15 
7 c 0 a 63 h 99 j 47 h 43 f 21 c 18 
5 i 0 e 16 j 33 h 32 f 14 
16 c 0 g 116 d 44 g 58 c 55 g 41 a 42 c 21 g 31 d 57 g 226 a 46 c 69 g 17 c 9 g 30 
1 e 0 
9 h 0 f 33 a 9 h 4 a 29 h 22 a 63 h 64 j 31 
6 c 0 g 87 c 1 g 12 d 33 g 103 
17 f 0 a 25 c 7 g 4 d 35 g 13 c 39 g 17 d 27 g 83 d 43 g 77 c 58 g 50 d 67 g 61 c 28 
20 j 0 h 12 f 54 a 26 f 62 a 2 h 21 j 37 h 13 j 24 h 22 f 20 a 7 g 24 d 41 g 87 a 27 g 33 a 20 h 140 
6 f 0 a 90 c 20 a 3 g 3 c 38 
14 g 0 c 8 g 141 c 33 g 8 c 45 g 72 c 12 g 4 c 33 a 12 f 20 c 13 g 48 
2 e 0 j 67 
1 e 0 
1 j 0 
2 e 0 i 12 
8 c 0 g 44 d 209 g 3 c 34 g 44 c 4 g 3 
7 f 0 h 20 f 26 a 38 c 12 g 19 a 109 
16 j 0 h 15 f 19 c 13 g 13 a 27 c 45 g 10 d 46 g 120 d 55 g 51 a 65 c 27 g 19 a 6 
2 g 0 a 58 
5 c 0 a 60 c 11 g 38 c 20 
12 h 0 j 33 h 46 f 46 a 16 g 34 d 61 g 89 d 41 g 7 a 94 g 220 
1 h 0 
8 f 0 a 1 c 8 a 8 f 15 h 30 f 26 h 4 
3 c 0 g 68 c 39 
3 c 0 f 14 h 100 
8 f 0 a 49 f 3 a 6 c 5 a 41 f 35 h 10 
4 j 0 e 7 i 114 e 57 
22 f 0 c 68 g 33 d 53 g 58 c 35 a 21 f 4 c 20 g 13 c 37 g 25 c 2 g 22 d 29 g 160 d 20 g 69 a 10 f 79 a 9 c 13 
4 j 0 h 32 f 33 a 1 
17 c 0 g 54 c 4 g 18 c 72 g 9 c 3 g 123 d 43 g 193 d 4 g 44 a 181 c 1 g 5 c 2 g 14 
5 c 0 f 53 h 24 j 21 h 165 
15 f 0 c 21 a 31 c 3 a 5 f 31 c 8 a 60 f 11 h 25 f 9 c 52 g 29 c 13 g 7 
14 h 0 f 65 a 24 c 55 a 5 c 6 a 18 f 23 a 13 f 2 c 1 a 2 c 12 g 19 
9 h 0 a 124 g 48 d 29 g 50 a 8 h 17 j 10 e 11 
5 h 0 j 5 e 14 j 41 e 60 
13 h 0 a 40 g 18 d 21 g 12 a 31 g 45 a 85 h 24 j 18 e 21 j 126 h 29 
11 c 0 g 99 d 36 g 74 c 39 g 33 d 2 g 1 c 3 g 21 c 45 
12 a 0 c 3 g 6 d 20 g 40 d 77 g 69 a 25 h 41 a 61 g 65 a 68 
4 c 0 f 50 h 47 f 11 
2 c 0 g 281 
3 c 0 f 20 c 141 
17 h 0 f 42 a 17 f 5 a 9 c 39 a 8 h 39 j 41 h 19 a 46 g 72 d 26 g 44 a 12 g 22 a 140 
1 g 0 
4 c 0 d 25 g 7 c 2 
2 c 0 g 31 
3 c 0 f 141 c 24 
10 c 0 g 60 d 104 g 11 a 27 h 23 f 25 h 3 f 7 a 19 
16 j 0 h 12 a 15 g 37 d 40 g 77 d 50 g 57 a 5 h 14 j 17 h 16 f 121 a 7 c 21 g 8 
8 f 0 c 10 g 73 a 179 g 32 a 18 c 70 g 1 
17 d 0 g 5 c 56 g 31 d 13 g 161 d 46 g 72 a 8 f 22 a 22 f 6 a 78 c 13 a 10 c 4 g 18 
19 c 0 g 73 a 38 c 11 g 11 c 7 a 11 f 13 h 43 a 60 g 42 a 15 g 18 d 32 g 51 a 38 g 92 a 11 g 133 
6 f 0 a 28 f 73 a 30 f 24 c 5 
3 h 0 j 117 e 57 
3 j 0 h 26 a 33 
1 e 0 
1 h 0 
3 e 0 j 17 e 45 
5 c 0 a 1 h 18 j 4 h 5 
2 e 0 i 44 
4 c 0 f 56 h 26 j 23 
2 h 0 f 4 
23 f 0 a 43 c 12 g 24 a 29 f 49 a 86 c 3 g 22 d 78 g 83 a 129 c 59 g 26 c 11 g 8 a 21 c 16 g 15 c 2 g 3 a 64 g 101 
6 j 0 h 59 a 46 h 91 j 36 h 50 
17 f 0 c 5 g 12 a 45 h 21 a 29 g 24 d 59 g 78 a 14 g 40 d 14 g 53 a 9 h 16 j 19 h 56 
9 h 0 j 4 h 3 f 34 a 2 g 26 d 35 g 68 a 11 
11 h 0 f 57 a 14 g 55 d 75 g 8 d 8 g 47 a 18 g 16 a 15 
9 j 0 h 7 f 75 a 9 h 283 a 8 h 53 j 24 h 85 
5 f 0 a 14 c 5 g 38 c 2 
2 j 0 h 19 
5 j 0 h 8 f 19 h 30 f 149 
15 h 0 a 63 f 85 h 7 f 69 a 28 g 28 d 69 g 212 a 38 c 88 g 21 d 54 g 9 d 121 
28 f 0 c 24 g 55 d 110 g 6 a 49 f 24 a 3 h 6 f 48 a 3 g 28 a 31 g 52 d 47 g 115 a 16 g 22 d 25 g 42 a 14 h 25 j 28 h 66 a 68 g 39 d 22 g 83 
20 i 0 e 1 j 69 e 76 j 97 h 25 j 66 h 37 f 146 a 2 f 9 a 6 c 15 g 3 c 3 g 3 d 39 g 10 d 12 g 2 
8 f 0 a 27 f 4 h 42 j 29 e 67 i 91 e 38 
16 e 0 j 44 h 21 a 22 g 47 d 27 g 36 a 49 h 64 a 42 h 58 a 48 g 25 a 225 h 119 a 42 
4 g 0 c 26 g 9 d 90 
24 c 0 g 54 d 46 g 89 c 39 g 7 c 2 g 31 c 2 g 47 d 121 g 262 c 46 a 30 f 11 a 31 f 3 a 23 f 4 c 4 a 29 g 31 d 43 g 103 
22 f 0 a 15 f 1 h 20 f 53 a 34 f 7 h 114 f 141 a 17 f 11 a 3 f 16 a 8 h 38 f 13 a 34 c 24 g 17 d 23 g 7 d 8 
9 j 0 e 144 j 78 h 20 a 28 g 31 d 30 g 60 a 135 
4 a 0 g 44 a 50 g 86 
17 c 0 g 48 c 2 g 4 d 37 g 94 a 36 c 1 g 54 d 172 g 250 c 35 a 9 c 10 g 113 d 52 g 150 
17 f 0 c 52 g 19 d 78 g 92 a 67 c 29 g 16 a 67 c 4 g 10 d 59 g 24 a 191 g 240 d 60 g 45 
29 h 0 f 30 a 16 g 33 d 59 g 78 a 99 c 1 a 4 c 3 a 2 c 4 g 10 a 61 c 36 g 12 d 26 g 52 a 33 g 81 a 27 h 62 a 146 h 19 a 67 g 32 d 18 g 50 a 22 
24 c 0 g 36 d 36 g 3 d 17 g 4 d 4 g 51 d 19 g 8 c 44 g 87 d 66 g 12 d 58 g 246 c 42 g 129 c 8 g 8 d 82 g 80 d 6 g 20 
22 c 0 a 11 f 146 h 28 f 47 a 8 f 3 a 2 g 54 d 43 g 60 a 23 g 31 a 66 c 163 a 5 g 7 a 6 g 29 a 31 h 51 a 50 
25 f 0 a 13 f 19 a 5 f 4 a 4 f 6 a 6 h 3 j 43 h 5 j 41 h 69 f 83 a 12 h 22 f 2 h 2 f 44 a 27 h 71 a 90 g 33 d 19 g 136 
1 i 0 
2 j 0 e 54 
4 h 0 j 10 e 27 i 62 
2 j 0 h 159 
1 b 0 
5 a 0 g 51 a 138 h 36 f 68 
11 c 0 g 26 d 55 g 126 a 127 c 144 g 4 d 51 g 42 a 42 g 5 
23 f 0 a 42 c 29 g 8 d 31 g 127 a 25 c 70 g 16 c 77 g 33 d 13 g 114 d 12 g 4 d 6 g 92 d 13 g 26 c 90 g 41 d 134 g 112 
4 j 0 e 120 j 61 h 60 
5 c 0 a 25 h 57 a 6 h 25 
18 c 0 g 38 d 46 g 128 a 22 g 45 a 55 h 37 f 45 a 5 c 77 g 5 d 39 g 79 a 42 g 1 a 3 g 20 
13 f 0 a 36 f 26 a 5 h 29 j 80 e 155 j 85 h 62 a 86 g 61 d 26 g 119 
1 i 0 
3 h 0 f 9 c 24 
10 c 0 a 153 f 8 c 63 a 16 c 1 a 12 g 148 d 26 g 55 
26 c 0 f 17 c 6 g 39 d 18 g 121 a 61 c 104 g 5 c 39 g 32 d 23 g 117 d 50 g 3 d 10 g 46 a 39 c 32 g 54 c 1 a 23 c 31 g 17 d 109 g 131 
4 c 0 g 19 d 28 g 106 
18 i 0 e 31 j 16 h 14 a 14 g 30 d 44 g 152 d 21 g 66 a 30 h 40 f 63 a 19 g 70 d 16 g 98 a 55 
17 f 0 a 6 f 18 a 33 f 5 a 11 f 34 h 16 j 217 h 79 f 51 a 20 f 20 a 6 g 60 d 43 g 138 
4 a 0 h 26 j 52 e 62 
14 c 0 a 22 f 38 a 16 h 7 j 88 h 92 f 23 a 13 f 1 a 2 g 110 d 28 g 64 
5 j 0 h 20 a 39 h 127 j 32 
17 g 0 c 5 a 10 h 20 a 96 g 33 d 46 g 76 a 28 g 50 a 43 f 123 a 4 g 57 a 91 h 52 j 44 
9 c 0 g 16 c 4 g 42 c 3 a 214 c 8 a 59 h 31 
7 c 0 a 12 f 25 a 59 g 117 d 21 g 97 
13 f 0 a 3 h 22 f 52 a 100 f 4 a 17 h 150 a 179 g 45 d 33 g 145 a 14 
28 h 0 a 76 g 23 d 39 g 70 a 11 h 32 j 40 h 69 j 38 h 32 a 22 g 18 d 16 g 6 d 6 g 41 a 27 g 87 a 49 h 25 j 30 h 66 a 66 h 62 a 35 g 19 a 105 
21 j 0 e 161 j 80 h 37 a 26 g 16 d 15 g 101 a 49 g 5 d 26 g 21 a 17 h 35 j 51 h 68 a 66 g 43 d 17 g 44 a 10 
4 e 0 j 4 h 22 a 16 
2 g 0 a 23 
15 g 0 c 68 g 39 d 91 g 101 a 33 h 95 j 19 e 30 j 113 h 27 a 25 g 68 a 20 h 119 
22 g 0 c 51 a 26 c 11 a 15 f 20 c 49 g 78 a 5 c 2 a 6 h 103 j 28 h 6 f 116 a 10 c 28 a 3 g 10 d 38 g 161 a 17 
27 h 0 f 18 a 19 f 3 a 16 f 3 a 6 f 3 a 22 f 3 c 75 g 60 c 1 g 12 a 9 f 112 a 4 c 1 g 122 c 20 g 10 d 74 g 8 d 5 g 78 a 46 g 4 
7 a 0 f 6 a 14 f 3 a 8 f 5 c 8 
2 j 0 h 16 
1 b 0 
29 a 0 c 40 g 3 a 41 g 6 d 40 g 105 a 52 g 1 a 26 c 15 a 5 c 8 a 3 c 11 a 8 g 6 a 20 g 50 d 29 g 55 d 156 g 15 a 25 f 93 a 30 g 147 d 30 g 14 
7 g 0 a 143 h 26 f 58 h 2 j 25 e 24 
2 g 0 d 89 
18 h 0 f 3 a 17 f 98 a 18 f 18 c 5 a 27 f 44 a 26 c 14 g 28 c 4 g 9 a 55 g 3 d 29 g 85 
29 g 0 d 17 g 1 d 43 g 203 c 75 g 8 d 31 g 9 c 29 g 6 c 6 g 3 d 18 g 149 d 87 g 11 a 30 f 40 a 28 f 9 c 20 a 2 c 19 g 28 d 108 g 75 d 28 g 44 
7 f 0 a 47 f 3 a 14 f 4 c 21 a 3 
6 c 0 a 11 f 20 a 3 f 4 a 59 
9 c 0 g 13 a 70 g 38 a 49 f 26 a 43 c 1 g 15 
6 j 0 h 17 a 39 g 30 d 35 g 131 
1 e 0 
6 c 0 g 82 c 3 g 5 d 115 g 94 
19 g 0 d 31 g 12 a 59 h 51 j 39 h 87 a 34 g 33 d 16 g 215 a 25 h 41 j 40 h 54 a 59 g 23 d 26 g 96 
5 f 0 a 15 f 3 h 20 j 50 
18 c 0 f 4 c 39 g 15 a 6 f 91 h 17 f 18 a 30 c 4 a 20 f 30 a 3 f 2 a 18 c 6 g 24 c 2 
5 f 0 a 4 g 44 d 29 g 165 
22 g 0 d 30 g 31 c 110 g 135 d 46 g 131 d 3 g 90 a 19 f 84 c 58 a 17 c 7 a 1 c 3 a 10 g 2 a 6 g 52 d 20 g 29 
2 g 0 a 30 
30 c 0 g 14 a 11 g 13 d 46 g 130 a 15 h 33 f 87 a 7 h 62 a 11 g 24 d 15 g 77 a 34 g 69 d 28 g 22 a 32 h 22 j 11 e 35 j 59 h 24 a 29 g 69 d 23 g 26 a 117 
11 j 0 e 65 j 192 h 23 a 22 g 20 d 20 g 57 a 16 h 61 j 143 
2 h 0 a 71 
4 g 0 a 134 h 63 j 65 
3 g 0 a 35 h 34 
5 c 0 g 10 c 2 a 5 h 44 
7 c 0 a 8 h 85 f 114 c 28 a 15 f 37 
7 j 0 h 4 f 23 a 1 g 25 d 30 g 96 
25 g 0 a 105 c 17 g 25 a 2 c 2 a 8 f 57 a 74 c 10 g 5 d 41 g 144 d 39 g 58 a 33 c 1 a 50 f 17 a 1 f 3 a 29 c 44 g 11 d 55 
3 d 0 g 28 a 49 
7 g 0 a 31 h 57 f 4 a 17 f 5 a 1 
20 e 0 j 29 h 24 a 46 c 44 g 5 a 16 h 25 f 29 a 25 c 1 g 22 c 20 a 17 g 71 d 31 g 43 d 28 g 82 a 23 
4 c 0 g 6 c 4 g 8 
15 c 0 g 20 d 57 g 170 d 60 g 5 a 33 f 30 a 15 f 44 a 19 f 24 a 8 g 76 d 18 
3 d 0 g 92 a 33 
23 a 0 c 2 g 3 d 81 g 119 a 25 h 64 f 61 a 13 g 17 a 15 g 42 d 19 g 109 d 5 g 6 d 88 g 34 a 40 f 45 c 76 g 23 d 94 
3 d 0 g 12 a 102 
3 h 0 j 26 e 43 
13 h 0 f 20 a 19 g 30 a 21 h 32 j 27 h 212 a 30 g 19 d 17 g 57 a 14 
21 h 0 a 26 g 37 c 15 g 8 c 43 g 1 c 13 g 23 a 4 g 125 d 25 g 100 a 93 g 226 d 31 g 53 d 65 g 12 a 21 g 135 
31 g 0 d 49 g 6 d 22 g 146 a 40 c 11 a 35 c 10 a 15 c 1 g 37 d 84 g 102 d 114 g 46 a 29 f 44 h 64 f 2 a 22 g 26 a 9 g 56 d 27 g 30 a 20 g 30 d 38 g 12 a 26 
3 g 0 a 38 h 48 
15 c 0 a 17 g 25 d 64 g 144 d 45 g 9 d 8 g 10 a 22 h 45 f 15 a 11 h 27 a 110 
4 g 0 d 15 g 39 a 70 
18 a 0 g 5 a 46 f 44 a 9 f 4 a 2 h 285 f 66 a 5 g 132 d 34 g 39 d 3 g 31 d 9 g 68 a 13 
29 c 0 a 15 c 5 a 13 c 9 a 9 f 21 a 20 f 3 h 8 f 100 a 2 g 35 a 25 h 41 j 61 h 18 f 52 a 23 f 1 a 9 h 10 a 71 g 19 d 18 g 53 a 21 g 62 a 25 
20 g 0 c 72 g 5 c 4 g 77 c 5 g 108 c 32 a 8 c 1 g 36 c 43 a 43 c 4 g 35 a 22 c 57 g 13 d 28 g 203 
5 g 0 c 29 g 3 d 85 g 1 
6 a 0 g 35 d 25 g 207 d 231 g 168 
18 g 0 c 93 a 81 f 11 c 15 g 48 c 3 g 4 d 60 g 68 d 14 g 70 a 112 f 41 a 21 c 1 a 9 c 19 
10 j 0 h 20 f 17 a 11 g 30 d 43 g 87 d 52 g 19 a 24 
20 g 0 d 29 g 183 a 21 h 27 j 25 h 76 f 16 a 4 g 60 d 15 g 100 a 9 h 41 a 32 g 48 a 28 h 42 j 18 e 33 
17 c 0 g 2 c 2 a 8 f 12 a 33 c 6 g 5 a 25 g 30 d 20 g 45 a 17 h 33 a 47 h 20 j 26 
24 g 0 c 51 g 19 c 4 a 6 c 10 g 87 c 5 g 17 c 7 g 50 c 42 a 24 c 3 g 24 a 14 f 36 a 39 c 42 a 2 c 67 g 6 d 27 g 180 
13 a 0 f 138 a 3 g 160 d 18 g 83 a 94 h 72 a 132 g 52 d 21 g 21 a 111 
17 h 0 f 68 h 23 f 4 h 14 j 58 h 25 a 50 h 27 j 24 e 32 j 145 h 44 a 34 g 18 d 16 g 45 
22 g 0 c 41 g 31 a 2 c 29 a 6 c 3 a 3 c 2 g 74 a 13 f 187 c 39 a 32 c 56 a 10 c 3 a 10 g 6 d 35 g 168 a 15 
16 g 0 d 16 g 214 c 67 a 23 c 2 f 6 c 31 g 24 d 67 g 135 d 19 g 6 d 91 g 4 c 81 
5 c 0 g 29 d 73 g 73 c 147 
13 g 0 a 6 f 72 a 6 f 4 h 78 a 87 g 55 d 21 g 156 a 55 f 45 h 13 
6 h 0 a 3 g 83 d 29 g 109 a 38 
33 g 0 a 26 c 41 a 3 f 16 a 2 c 12 a 3 c 7 g 78 c 52 g 21 d 3 g 4 a 13 h 35 f 18 a 20 f 8 a 31 f 1 c 31 g 20 a 20 c 37 g 29 d 79 g 4 d 49 g 85 a 23 g 59 a 27 
21 a 0 h 20 f 92 h 3 a 138 h 44 j 52 h 35 f 31 a 52 c 2 g 31 a 2 g 15 a 22 g 10 d 31 g 23 a 23 h 24 a 39 
14 g 0 a 9 f 26 a 5 f 4 c 36 g 49 c 5 g 8 c 6 g 22 a 163 f 26 h 16 
13 c 0 g 92 d 29 g 4 d 2 g 7 d 29 g 121 a 20 c 36 g 9 c 4 g 15 
13 g 0 a 16 f 54 a 2 f 6 a 63 g 78 d 108 g 11 d 30 g 63 a 110 f 30 
6 j 0 h 4 a 31 g 31 a 41 h 104 
25 c 0 g 9 c 10 g 23 c 4 g 8 c 1 g 4 c 74 g 19 c 16 g 1 a 13 g 28 d 48 g 10 d 51 g 162 d 25 g 15 d 210 g 178 c 144 g 11 c 4 
30 a 0 f 40 a 8 f 1 c 14 g 78 c 3 g 1 a 18 c 5 g 14 a 31 c 90 a 39 f 29 h 22 f 8 a 21 c 16 a 3 f 41 a 4 f 3 c 8 g 17 d 43 g 72 d 14 g 109 a 107 
9 g 0 d 11 g 21 d 41 g 3 d 37 g 5 a 38 h 26 
2 g 0 c 4 
6 j 0 h 20 a 16 c 16 a 2 g 2 
3 d 0 g 143 c 120 
11 c 0 a 18 c 14 a 5 f 21 a 2 f 5 a 27 f 4 c 8 g 41 
16 g 0 c 24 a 19 f 26 a 4 f 2 a 11 c 11 a 1 g 136 a 35 h 33 j 82 h 28 f 25 a 14 
10 c 0 g 21 d 46 g 47 d 6 g 3 d 25 g 23 d 19 g 8 
4 a 0 h 25 j 29 h 40 
3 a 0 g 20 a 35 
11 e 0 j 134 h 24 a 26 g 22 d 22 g 56 a 32 h 25 j 21 h 34 
7 a 0 h 52 a 163 g 37 d 52 g 131 a 66 
9 j 0 e 38 j 53 h 65 a 25 g 35 a 42 f 96 h 6 
2 f 0 c 52 
8 c 0 g 84 d 78 g 75 a 13 h 21 a 35 g 31 
8 c 0 g 18 c 1 g 71 c 5 g 32 a 156 h 71 
6 c 0 a 6 f 36 c 12 g 84 d 16 
9 a 0 g 22 d 25 g 112 a 53 c 6 g 7 c 10 g 5 
16 g 0 a 77 h 26 j 27 h 114 f 22 a 7 g 33 d 20 g 87 a 39 c 23 a 2 c 40 g 18 a 5 
4 g 0 c 26 a 39 f 48 
5 f 0 h 5 j 21 e 37 j 53 
16 a 0 f 41 a 21 f 2 a 19 f 302 h 31 f 86 a 8 g 11 a 58 g 34 d 11 g 83 a 20 g 98 
14 g 0 d 16 g 193 a 75 f 39 h 17 f 15 c 19 g 17 d 54 g 139 d 7 g 10 a 134 
10 a 0 h 22 f 17 a 25 c 3 g 13 d 53 g 87 a 104 h 33 
4 a 0 h 52 f 77 a 7 
12 g 0 d 69 g 22 c 37 g 150 d 63 g 64 d 7 g 24 a 29 c 53 g 34 
7 c 0 g 16 c 5 g 21 c 3 g 10 c 42 
3 j 0 h 35 f 20 
3 c 0 f 8 h 96 
7 e 0 j 217 h 24 a 35 h 173 j 54 e 41 
6 a 0 h 85 a 76 h 98 j 21 e 23 
25 a 0 f 30 a 30 f 1 c 20 a 12 c 3 g 23 a 110 g 19 a 2 f 109 h 9 f 3 h 34 f 86 a 12 g 40 a 31 g 57 d 15 g 50 a 21 f 64 a 4 
1 g 0 
5 g 0 d 55 g 79 d 12 g 125 
17 g 0 a 26 c 45 a 45 f 12 a 41 c 18 a 2 c 10 g 28 d 34 g 25 d 3 g 3 c 118 a 11 c 10 
14 c 0 g 6 c 4 g 4 c 20 g 6 c 6 a 18 f 30 a 6 f 3 a 7 g 179 c 63 
14 c 0 a 66 c 2 a 10 c 4 a 3 c 20 g 7 d 11 g 84 d 49 g 52 a 13 h 49 
4 c 0 g 80 a 171 h 97 
3 h 0 f 12 h 14 
12 c 0 g 28 d 48 g 29 d 12 g 120 a 76 c 1 a 1 f 12 a 8 c 5 
4 h 0 a 58 h 21 a 17 
13 j 0 h 25 a 38 g 27 d 22 g 124 a 55 g 166 d 31 g 188 a 97 c 58 a 8 
3 e 0 i 30 b 62 
9 c 0 a 31 g 33 d 60 g 52 a 18 h 35 j 25 e 25 
11 c 0 g 17 c 4 g 5 c 5 g 2 c 14 g 16 c 34 a 4 f 26 
5 e 0 j 8 h 36 a 82 h 24 
1 c 0 
19 a 0 f 3 c 4 a 5 c 37 g 4 d 58 g 1 d 9 g 5 d 82 g 54 a 18 g 13 c 6 g 8 a 48 g 3 a 3 
17 g 0 d 11 g 49 d 3 g 134 c 84 f 50 a 12 f 9 a 9 c 5 g 13 d 55 g 128 a 13 h 70 a 31 
13 h 0 f 47 a 31 h 34 f 46 c 14 g 6 d 44 g 72 a 7 h 40 a 28 h 67 
4 h 0 f 64 a 14 h 193 
1 j 0 
10 c 0 a 1 g 71 d 25 g 50 a 45 g 5 d 46 g 19 a 24 
13 c 0 g 65 c 6 g 15 c 2 g 2 a 20 f 53 a 12 f 3 a 9 h 139 j 31 
10 e 0 j 21 h 54 a 20 g 37 d 13 g 108 a 18 h 47 j 44 
24 c 0 a 8 f 8 a 37 f 15 a 8 c 18 g 10 d 47 g 6 a 141 f 62 c 45 g 46 d 77 g 92 d 46 g 46 a 27 c 64 g 22 c 23 g 5 c 4 
18 d 0 g 35 d 17 g 29 d 16 g 77 c 62 a 63 f 13 c 1 a 8 g 32 d 54 g 166 d 20 g 1 d 2 g 23 
21 g 0 d 34 g 6 a 19 f 27 a 40 c 7 g 25 a 18 f 27 h 11 f 3 a 18 c 7 g 4 d 39 g 96 a 16 g 58 c 44 f 29 
7 i 0 e 26 j 14 h 9 f 7 c 6 g 4 
40 f 0 a 3 c 20 a 9 c 23 a 6 c 4 g 22 a 26 h 31 f 40 a 17 c 26 g 3 c 2 g 6 c 15 g 4 c 14 g 3 c 46 a 8 c 9 a 5 f 15 a 54 c 4 a 4 g 53 d 66 g 80 a 83 f 42 a 5 f 3 a 2 f 8 a 6 f 5 a 8 
21 f 0 a 15 c 79 g 1 a 34 f 37 a 19 f 3 a 6 c 40 g 15 a 4 c 5 g 1 c 7 g 15 c 26 g 129 d 94 g 91 c 88 
20 j 0 h 35 a 66 g 70 a 114 h 53 j 27 h 36 f 36 a 6 g 40 d 37 g 113 d 21 g 48 a 31 h 45 a 33 f 1 a 7 
4 g 0 a 15 f 67 a 44 
2 g 0 d 62 
18 d 0 g 3 d 41 g 24 a 21 f 33 h 13 f 15 h 16 f 75 a 16 g 43 d 41 g 5 c 108 a 9 f 20 h 5 
22 h 0 a 130 h 59 a 6 g 49 d 29 g 21 a 11 h 76 j 26 e 47 i 117 e 7 j 54 h 20 a 18 g 47 d 55 g 30 a 38 h 71 j 113 
14 a 0 h 33 a 8 h 32 a 9 h 58 j 203 h 50 f 26 a 13 g 21 d 34 g 129 a 23 
9 d 0 g 11 c 53 g 2 c 3 g 7 c 10 a 1 f 39 
14 a 0 f 2 a 12 f 4 a 18 g 62 a 170 h 86 f 78 a 14 g 45 a 113 h 92 j 42 
5 c 0 a 28 c 8 a 10 f 48 
5 d 0 g 17 d 101 g 18 c 29 
1 b 0 
15 g 0 c 20 g 117 d 43 g 1 d 45 g 246 d 30 g 23 a 42 h 49 f 86 a 15 g 49 c 165 
16 g 0 d 33 g 74 a 12 h 59 f 12 a 12 f 7 a 6 f 5 a 51 f 4 a 4 g 28 d 42 g 148 
15 a 0 g 25 a 43 h 21 j 26 h 29 f 26 a 5 h 39 a 51 g 22 d 16 g 83 a 12 h 125 
28 g 0 d 16 g 69 a 18 f 62 a 21 h 23 f 55 a 7 g 17 d 30 g 155 a 173 f 30 h 4 f 47 a 25 c 1 g 17 a 6 g 67 d 17 g 91 a 14 c 88 g 8 a 8 f 27 
25 c 0 a 12 c 36 a 13 c 1 a 4 c 4 a 5 g 49 a 48 g 39 d 41 g 62 d 1 g 84 a 114 g 126 d 38 g 164 a 142 c 21 g 8 c 2 a 49 c 4 
14 a 0 g 163 a 110 f 39 a 5 f 47 a 71 c 6 g 17 d 48 g 231 c 112 g 15 c 9 
19 a 0 c 23 g 20 c 2 g 19 c 6 g 14 a 56 c 88 g 9 c 7 a 75 f 30 h 40 f 14 a 20 g 43 d 43 g 79 
9 a 0 f 36 a 4 f 2 a 2 c 43 g 21 c 6 a 8 
12 a 0 f 23 a 38 f 4 a 6 f 2 c 8 a 17 g 23 a 13 g 76 d 142 
11 d 0 g 49 a 86 h 28 j 102 h 40 a 42 g 37 a 52 f 88 h 7 
26 f 0 a 14 f 6 a 2 c 4 g 34 c 4 g 2 a 11 g 4 a 174 h 34 j 98 h 1 f 65 a 5 g 18 d 34 g 124 a 59 h 61 f 50 a 1 f 2 a 1 f 74 
16 d 0 g 62 a 14 h 56 f 24 a 28 g 72 d 28 g 203 a 124 h 32 f 86 a 10 g 82 d 15 g 96 
3 e 0 j 64 e 53 
22 c 0 g 64 c 4 g 1 c 5 g 13 a 78 g 66 d 23 g 55 a 45 h 204 a 42 f 35 c 3 g 9 d 40 g 111 d 5 g 2 a 23 f 226 
3 a 0 g 72 c 66 
1 b 0 
8 c 0 g 16 c 4 g 2 a 7 g 81 a 9 h 29 
9 j 0 e 6 j 97 h 143 f 22 a 6 g 24 d 38 g 77 
5 g 0 c 49 g 4 a 2 c 34 
3 a 0 c 30 a 40 
14 a 0 f 22 a 21 f 2 a 11 f 4 a 3 f 6 a 13 c 20 g 14 d 95 g 69 d 55 
10 d 0 g 82 a 96 f 35 a 46 h 70 a 37 g 54 a 1 h 135 
20 a 0 h 37 f 4 h 3 f 1 h 21 f 24 a 13 h 15 a 40 g 33 d 25 g 155 a 88 g 19 a 51 f 43 a 82 g 87 d 16 
6 d 0 g 27 a 6 h 18 f 56 h 30 
12 g 0 d 101 g 46 c 82 g 100 c 14 g 80 d 40 g 131 c 53 g 4 c 25 
3 h 0 f 19 c 18 
20 h 0 f 36 a 3 c 44 g 6 a 128 g 15 a 45 h 47 f 120 a 13 c 5 g 4 d 21 g 161 a 68 f 92 a 3 f 61 h 4 
15 c 0 g 82 d 47 g 32 d 73 g 214 c 88 g 5 c 8 g 87 d 24 g 170 a 37 c 18 g 38 
2 a 0 f 34 
23 a 0 c 38 g 12 a 102 c 26 a 1 c 4 a 2 f 45 a 49 f 7 c 8 f 73 c 1 a 10 f 15 c 5 a 11 c 1 g 14 d 48 g 84 a 25 
7 d 0 g 9 c 21 g 4 c 25 a 66 f 3 
6 g 0 c 21 g 45 c 3 g 15 d 150 
11 d 0 g 140 d 19 g 39 c 40 g 71 c 4 g 12 d 115 g 32 c 121 
19 h 0 a 85 g 64 a 61 h 80 j 63 h 65 f 35 a 6 g 12 d 19 g 100 a 48 g 24 a 27 h 34 j 57 h 41 j 58 
16 a 0 h 32 f 56 a 16 g 77 d 16 g 164 a 168 h 32 f 42 a 42 h 67 a 15 g 14 d 14 g 43 
2 a 0 h 65 
22 c 0 g 15 c 6 g 1 a 142 c 26 a 5 c 4 a 30 c 2 a 6 f 11 c 37 g 130 d 27 g 120 a 26 c 112 a 33 c 4 a 1 f 17 
3 g 0 d 68 g 5 
2 i 0 b 15 
19 j 0 h 44 a 32 g 142 d 15 g 85 d 27 g 9 a 125 f 60 a 4 f 24 a 6 g 53 d 78 g 90 a 10 h 42 f 99 
1 h 0 
9 h 0 f 28 c 24 g 23 d 112 g 44 c 3 g 2 d 2 
12 d 0 g 29 d 37 g 98 a 103 h 36 f 54 a 11 c 112 g 3 a 62 h 106 
14 h 0 a 111 g 69 a 90 f 63 a 15 h 8 a 92 g 27 d 21 g 86 a 151 h 48 j 86 
18 c 0 g 58 c 3 g 10 d 34 g 3 d 8 g 33 d 88 g 146 c 137 g 7 c 2 g 64 d 39 g 182 a 50 c 33 
2 a 0 h 142 
3 f 0 h 69 j 23 
5 f 0 a 53 g 33 d 122 g 9 
15 d 0 g 205 a 110 f 40 a 17 h 5 a 114 h 20 a 1 g 79 a 8 c 11 g 14 a 41 h 29 
15 a 0 g 175 a 21 f 134 a 55 f 5 a 45 g 31 d 30 g 110 a 19 f 203 a 6 h 2 f 4 
17 c 0 g 62 d 161 g 2 d 3 g 113 d 6 g 12 a 31 g 43 a 50 g 148 d 89 g 89 a 21 h 39 j 169 
1 j 0 
4 g 0 c 13 a 11 h 19 
23 j 0 h 9 a 9 g 19 d 15 g 91 a 21 h 61 a 13 h 71 j 20 e 20 j 82 h 27 a 51 g 14 d 10 g 107 a 10 h 20 j 15 e 19 i 50 
24 a 0 h 97 a 4 g 57 a 52 f 96 a 18 h 5 f 72 a 10 g 30 d 42 g 106 a 38 g 12 a 59 c 23 g 21 c 10 g 2 a 39 f 35 a 13 f 2 
13 h 0 f 72 a 13 g 21 d 90 g 90 d 50 g 82 a 96 h 39 j 133 h 24 j 212 
27 f 0 c 5 a 17 c 4 g 29 a 116 g 6 d 46 g 163 c 122 g 67 d 53 g 45 d 31 g 101 a 62 f 40 a 6 f 7 a 18 c 31 a 13 f 18 a 2 f 5 a 5 f 17 
20 a 0 h 69 a 56 g 18 d 31 g 109 a 76 h 109 j 31 h 29 a 77 g 47 d 19 g 111 a 8 h 75 f 16 a 16 h 17 j 40 
4 a 0 h 30 j 25 e 34 
7 d 0 g 80 d 10 g 84 a 30 g 65 a 49 
1 g 0 
3 g 0 a 38 h 27 
1 h 0 
6 a 0 g 47 a 31 h 24 j 13 e 15 
1 b 0 
13 b 0 i 2 e 31 j 21 h 13 a 12 g 24 a 46 h 20 j 12 e 16 i 28 b 55 
2 g 0 a 249 
5 c 0 g 8 c 11 g 9 c 48 
11 e 0 j 1 h 21 a 17 g 21 d 20 g 108 a 8 c 146 g 27 c 6 
2 f 0 a 20 
6 g 0 d 44 g 15 d 54 g 82 d 47 
10 h 0 a 57 f 94 a 6 f 9 a 1 c 255 g 29 a 23 f 37 
8 h 0 a 54 g 66 a 10 g 80 d 13 g 90 a 49 
1 g 0 
8 h 0 f 104 a 11 g 31 d 122 g 70 a 8 h 23 
20 g 0 d 163 g 3 a 93 c 53 g 25 c 42 d 9 g 14 c 3 g 8 a 5 c 1 g 13 d 42 g 121 a 22 c 103 g 54 c 5 
20 f 0 c 2 g 23 d 91 g 25 d 64 g 159 a 115 c 6 g 75 d 26 g 66 d 65 g 86 a 16 c 26 g 61 a 14 f 28 c 53 
22 a 0 g 192 d 22 g 91 a 11 h 30 a 71 h 74 j 26 e 24 j 48 h 29 f 17 a 5 g 37 d 22 g 107 a 8 h 22 f 123 a 6 h 6 
5 h 0 a 64 h 30 j 25 e 33 
4 h 0 f 2 c 20 g 18 
5 e 0 j 1 h 38 j 145 e 111 
12 a 0 c 13 g 14 d 134 g 42 d 8 g 20 c 36 a 13 c 47 a 33 h 3 
15 a 0 f 2 a 1 f 3 c 16 g 16 d 15 g 86 d 47 g 88 a 18 h 16 j 11 h 59 f 100 
22 c 0 g 23 c 66 g 10 a 35 g 15 d 41 g 162 a 156 f 50 h 47 f 7 a 26 g 36 d 20 g 117 a 22 f 60 c 48 a 1 c 5 a 54 
12 f 0 a 10 c 1 a 4 c 3 g 8 d 91 g 1 d 103 g 86 a 165 h 30 
10 g 0 c 11 g 36 d 18 g 225 a 38 f 40 h 50 j 39 h 71 
24 g 0 d 67 g 30 c 49 g 2 c 4 f 116 c 6 f 8 c 52 g 22 d 36 g 1 d 6 g 67 d 13 g 18 c 109 g 3 c 13 g 12 c 19 g 4 c 15 
8 f 0 c 2 g 24 d 8 g 5 c 19 g 4 c 7 
7 c 0 g 12 d 25 g 106 d 54 g 140 d 29 
16 g 0 c 3 g 124 d 25 g 8 d 6 g 92 d 10 g 3 d 25 g 45 c 53 g 22 c 21 g 2 c 26 
24 c 0 g 14 c 4 g 3 c 53 g 26 d 93 g 132 a 48 g 59 a 60 f 54 h 18 f 77 a 1 g 45 d 16 g 105 a 10 f 68 a 61 f 40 a 3 f 2 
12 h 0 a 24 g 25 d 35 g 11 d 7 g 136 a 87 h 22 j 15 e 44 i 305 
1 e 0 
20 f 0 a 14 c 9 g 5 d 87 g 8 a 21 g 28 d 35 g 93 a 88 c 42 g 2 a 37 g 107 d 15 g 219 a 12 h 46 j 121 
4 a 0 g 113 a 120 h 30 
12 e 0 j 9 h 36 a 19 g 31 d 22 g 105 a 17 h 35 f 100 a 24 f 44 
10 g 0 d 45 g 13 d 4 g 6 c 42 g 27 c 4 a 59 c 4 
4 h 0 j 5 e 12 i 19 
6 h 0 a 26 g 29 a 43 f 57 h 10 
16 c 0 a 7 f 15 h 15 j 53 h 56 a 22 g 33 d 16 g 45 a 17 h 25 j 105 h 15 j 74 e 36 
1 f 0 
4 f 0 c 7 g 24 c 14 
16 h 0 a 53 g 46 d 74 g 129 d 23 g 61 a 47 h 267 a 28 c 85 g 5 c 7 a 48 f 33 h 47 
18 a 0 g 155 d 32 g 139 a 35 g 59 a 77 h 29 f 110 a 3 g 30 d 19 g 118 a 13 f 40 c 87 a 46 f 8 
8 a 0 g 22 d 93 g 6 a 21 g 47 d 24 g 107 
14 a 0 h 30 a 48 f 51 a 20 c 17 g 18 d 33 g 234 c 36 g 5 c 2 f 139 h 63 
11 h 0 f 6 a 10 g 91 d 53 g 263 c 101 g 55 a 169 f 131 h 71 
6 g 0 d 56 g 23 c 28 g 6 c 3 
9 h 0 f 44 c 39 g 45 d 46 g 113 a 88 c 16 f 147 
17 g 0 d 68 g 75 d 51 g 101 c 115 g 3 c 9 g 15 c 36 g 47 d 29 g 252 a 30 c 7 f 157 c 57 
2 h 0 a 152 
14 a 0 h 15 j 34 e 39 j 91 h 25 a 12 g 14 d 13 g 82 a 7 h 26 j 27 e 49 
1 h 0 
14 g 0 d 65 g 66 d 61 g 120 d 6 g 9 c 135 g 55 d 48 g 152 d 15 g 59 c 34 
21 a 0 c 1 a 17 c 2 g 15 d 89 g 245 d 13 g 17 a 110 f 99 a 2 g 123 a 57 c 13 g 30 a 2 c 21 a 3 f 28 h 82 
11 g 0 a 22 g 430 d 17 g 113 a 36 c 49 a 64 f 20 a 15 f 2 
16 a 0 g 38 a 21 h 36 j 29 e 80 j 27 h 59 f 20 a 3 g 21 d 34 g 74 a 18 h 104 j 115 
9 g 0 d 43 g 18 a 36 c 8 g 184 d 20 g 144 c 116 
22 a 0 h 78 a 95 g 21 d 18 g 86 a 15 h 30 j 20 e 28 j 40 e 84 j 151 h 15 a 11 g 15 d 15 g 69 a 5 h 15 j 15 e 32 
27 c 0 g 19 a 64 g 29 d 40 g 217 a 158 c 4 g 43 a 59 c 97 a 4 g 17 a 14 c 54 a 26 c 5 a 19 c 9 a 5 c 3 a 16 f 17 a 22 f 10 a 1 f 5 
26 g 0 d 61 g 49 d 74 g 90 a 20 g 63 a 6 h 47 a 15 h 16 f 53 a 3 g 18 d 32 g 229 a 31 f 21 a 49 f 10 a 24 f 3 a 6 f 7 h 44 j 51 
18 g 0 d 173 g 5 c 62 g 44 a 20 c 17 g 43 c 37 g 5 d 46 g 98 c 62 a 184 f 11 a 8 f 2 h 13 
3 c 0 g 20 d 20 
7 g 0 d 12 g 96 a 10 h 34 f 46 c 60 
14 g 0 d 39 g 387 d 59 g 2 c 47 g 30 d 10 g 57 d 81 g 6 c 91 g 17 c 43 
6 g 0 d 37 g 26 a 24 f 53 h 44 
3 c 0 g 26 d 30 
13 g 0 d 3 g 78 c 57 g 11 c 14 g 8 c 28 a 56 c 6 a 47 f 5 c 8 
13 d 0 g 114 d 12 g 159 a 16 c 133 a 14 f 24 c 12 g 23 d 7 g 259 a 15 
4 c 0 g 76 c 1 f 143 
21 a 0 g 71 d 120 g 157 d 7 g 15 a 132 h 75 a 53 g 60 d 42 g 61 a 28 c 30 a 30 c 3 a 62 f 3 c 19 a 6 f 11 
7 a 0 g 149 a 34 h 48 a 39 h 16 a 53 
7 g 0 d 21 g 113 a 15 h 27 j 13 e 21 
5 h 0 j 46 h 40 j 35 h 37 
15 a 0 g 9 d 37 g 1 a 30 f 38 a 1 f 6 c 145 g 13 d 18 g 29 d 21 g 53 a 42 
7 g 0 a 19 c 18 g 7 c 9 g 23 c 21 
22 a 0 g 67 a 26 g 57 d 15 g 211 a 63 g 48 a 35 f 28 a 6 f 118 a 7 c 25 g 7 a 42 f 55 a 33 c 5 a 4 h 48 f 51 
19 g 0 d 139 g 181 a 173 c 7 g 23 c 52 g 2 a 19 c 3 a 5 c 12 g 33 d 34 g 105 a 16 f 44 a 71 f 8 
18 g 0 d 48 g 43 a 26 g 30 d 24 g 85 a 51 f 142 a 36 g 8 d 31 g 77 d 23 g 74 d 8 g 54 a 19 
6 e 0 j 62 h 130 j 3 h 7 j 2 
20 g 0 a 25 g 15 a 71 g 3 a 114 c 2 g 56 c 4 a 6 c 28 g 20 d 120 g 8 d 4 g 91 a 41 h 33 f 4 h 135 
23 g 0 d 11 g 12 d 2 g 6 d 18 g 9 d 92 g 178 d 96 g 32 c 41 g 24 a 83 f 30 a 6 c 2 g 22 d 9 g 120 a 13 f 30 c 26 
19 g 0 d 139 g 158 d 39 g 10 d 6 g 44 a 96 f 45 a 5 g 19 a 73 g 87 a 57 f 24 a 29 c 38 a 3 f 27 
16 h 0 a 69 h 2 a 1 h 12 a 50 h 63 a 143 g 70 d 49 g 84 a 8 h 20 j 16 e 24 i 66 
5 a 0 f 6 h 6 j 12 e 48 
22 g 0 a 98 g 18 a 3 g 25 d 31 g 109 a 159 c 4 g 3 c 4 g 9 a 52 g 63 a 60 f 164 c 31 g 45 c 1 a 32 f 13 h 27 
17 a 0 g 8 d 174 g 127 a 34 g 79 a 37 h 151 f 43 a 2 g 11 d 26 g 101 a 7 h 12 j 10 e 19 
10 g 0 a 42 h 26 j 24 e 46 j 108 h 12 a 15 g 44 a 80 
10 g 0 a 9 h 35 f 11 a 19 f 10 a 15 f 19 h 16 f 33 
21 a 0 g 11 d 19 g 36 d 72 g 92 a 16 h 29 j 51 e 81 j 53 h 18 a 14 g 13 d 18 g 162 a 61 h 17 j 12 e 14 i 46 
4 f 0 h 43 j 38 e 53 
16 c 0 g 3 d 36 g 26 d 38 g 206 a 182 c 1 a 11 c 1 g 21 c 92 g 36 d 17 g 135 c 26 
22 g 0 d 4 g 60 d 47 g 188 d 192 g 22 c 33 g 11 a 79 c 1 g 4 a 7 c 41 g 18 c 1 g 2 c 46 g 3 c 29 a 115 f 23 
19 g 0 a 195 c 5 g 5 a 1 c 9 a 53 c 39 g 8 d 113 g 146 a 42 f 118 c 12 a 3 f 1 c 16 a 17 f 7 
10 h 0 j 26 e 112 j 97 h 28 a 47 h 40 j 67 h 92 j 31 
19 g 0 a 20 g 102 a 79 g 108 d 63 g 176 a 63 c 1 a 16 c 5 a 9 f 39 a 7 f 7 a 4 f 12 c 57 f 9 
20 a 0 g 1 d 24 g 25 d 49 g 133 a 73 g 178 d 38 g 34 d 6 g 103 d 6 g 3 a 114 f 23 h 61 f 10 h 19 j 100 
20 g 0 d 21 g 43 d 57 g 200 a 86 c 53 g 5 a 70 g 22 a 76 h 40 a 33 h 86 f 45 a 28 c 32 a 4 f 20 h 32 
18 a 0 g 21 a 27 g 50 d 118 g 81 a 15 h 172 a 21 h 97 a 29 g 22 d 13 g 100 a 14 h 39 j 36 h 145 
13 d 0 g 223 c 133 g 3 c 4 g 4 c 4 g 28 c 6 g 29 d 40 g 198 c 124 
17 g 0 d 19 g 45 d 50 g 157 a 147 g 67 a 144 f 48 a 1 c 12 g 86 c 3 g 87 c 5 a 52 f 9 
21 a 0 g 17 a 50 g 7 a 3 g 4 c 1 g 6 a 137 c 74 g 17 d 38 g 36 d 50 g 101 a 38 h 36 j 36 h 50 f 128 h 20 
3 d 0 g 41 c 52 
16 g 0 d 26 g 18 d 82 g 179 a 44 c 173 g 7 a 64 g 52 d 31 g 90 a 25 h 65 j 64 h 59 
20 g 0 d 12 g 35 d 53 g 173 a 30 g 14 d 245 g 19 a 57 h 42 f 24 a 43 c 4 a 22 f 20 c 46 g 46 c 9 f 58 
4 j 0 h 59 f 25 c 28 
6 c 0 a 93 f 12 a 59 f 2 h 11 
13 g 0 d 74 g 108 a 40 h 104 a 103 g 20 d 21 g 144 a 44 h 108 f 56 h 25 
14 g 0 d 100 g 164 a 23 g 115 a 39 g 103 a 34 g 46 d 20 g 100 a 29 f 79 h 28 
23 d 0 g 32 d 59 g 176 a 33 g 28 a 44 c 63 g 2 a 37 g 19 a 18 g 8 a 118 f 48 a 62 c 7 a 15 f 23 h 7 f 21 a 37 c 7 
10 g 0 a 30 g 283 d 28 g 164 a 104 f 28 h 34 j 80 e 32 
12 h 0 j 20 e 32 i 104 e 60 j 25 h 14 a 12 h 68 j 17 e 17 i 33 
2 j 0 e 13 
4 e 0 i 56 e 9 i 58 
9 h 0 j 5 h 20 j 31 h 30 f 22 a 11 c 2 g 7 
5 c 0 g 53 c 18 a 36 f 7 
17 g 0 a 43 g 33 d 35 g 45 d 5 g 94 a 17 h 210 a 6 g 131 d 20 g 85 a 15 f 80 h 12 j 62 
16 d 0 g 23 d 57 g 168 a 6 h 19 j 10 h 54 a 81 c 67 g 8 d 54 g 25 a 46 f 42 a 22 
7 g 0 c 11 a 27 f 58 h 21 f 41 h 12 
16 d 0 g 191 a 61 c 2 g 2 c 102 g 72 d 24 g 179 c 97 a 31 c 8 a 105 f 10 h 49 f 39 
16 d 0 g 18 c 43 g 17 c 4 g 33 c 3 g 126 d 38 g 105 a 45 c 34 g 61 c 2 g 12 c 5 
14 g 0 a 28 g 98 a 41 g 128 d 75 g 1 d 24 g 106 a 8 h 65 j 61 h 118 j 31 
23 d 0 g 27 c 33 g 18 c 2 g 35 c 3 a 4 f 31 a 7 f 2 c 4 g 66 d 28 g 128 a 38 h 40 f 46 a 20 f 2 a 16 f 12 c 53 
13 d 0 g 187 d 77 g 5 d 8 g 1 c 63 g 17 d 65 g 208 c 101 g 163 c 3 
14 g 0 d 49 g 194 a 5 h 32 a 197 g 32 d 39 g 32 a 22 h 21 f 75 a 27 c 4 
1 j 0 
19 a 0 g 73 d 77 g 58 a 17 h 31 j 46 h 37 j 86 h 20 a 47 g 82 d 16 g 94 a 10 h 51 j 55 e 70 i 72 
13 a 0 h 58 f 25 a 6 h 108 a 28 g 44 d 45 g 173 a 17 h 85 j 67 h 67 
11 a 0 g 12 d 25 g 191 a 21 h 86 a 156 g 55 a 16 h 49 j 25 
1 e 0 
13 a 0 h 44 a 1 h 4 a 172 g 30 d 20 g 102 a 19 h 48 j 34 e 112 j 76 
2 b 0 i 72 
14 h 0 f 10 a 17 f 1 a 5 f 9 a 7 f 45 a 39 f 30 c 7 f 45 c 22 f 8 
13 g 0 a 217 h 48 j 121 h 38 a 88 g 44 d 68 g 8 a 32 h 36 j 65 e 66 
16 a 0 g 16 d 18 g 120 a 16 g 228 d 20 g 179 a 18 h 74 j 37 h 77 j 9 h 5 f 64 h 28 
15 g 0 a 29 c 65 g 13 c 89 g 40 d 108 g 146 a 89 f 49 c 24 f 15 c 73 f 20 c 14 
10 g 0 d 16 g 190 a 39 g 241 a 100 f 61 h 19 f 7 h 118 
3 c 0 a 37 f 3 
13 d 0 g 201 c 191 g 4 c 7 g 6 c 3 g 13 a 165 f 47 c 38 g 168 c 1 
24 g 0 d 13 g 26 a 22 h 69 j 21 e 25 j 58 h 24 f 21 a 12 g 26 a 37 h 126 a 39 g 26 d 19 g 45 a 16 h 20 j 15 h 72 j 60 h 106 
10 g 0 d 14 g 11 d 42 g 102 c 58 f 117 c 6 a 8 f 10 
7 d 0 g 26 c 69 g 23 c 2 g 51 d 53 
9 e 0 j 1 h 21 f 2 h 3 a 1 h 3 f 9 c 73 
26 g 0 d 7 g 162 a 8 h 21 j 33 h 93 j 4 h 10 j 31 h 11 a 39 h 2 a 1 g 106 d 23 g 87 a 7 f 38 a 53 c 17 a 7 c 4 a 2 h 31 j 27 
14 d 0 g 12 a 12 h 41 a 55 h 49 a 142 g 30 a 28 h 52 j 47 h 181 f 15 h 35 
14 a 0 g 1 a 19 g 228 d 95 g 124 a 67 c 53 a 23 f 20 a 10 f 8 a 2 f 2 
15 a 0 h 16 j 131 h 69 a 48 g 56 d 42 g 89 a 17 h 19 f 79 a 17 h 25 j 47 e 34 
15 d 0 g 10 c 89 g 13 c 66 g 2 c 21 g 6 a 197 f 48 h 21 j 146 h 21 f 15 c 25 
8 a 0 f 74 a 5 h 1 f 3 h 10 f 100 a 1 
11 c 0 g 5 d 14 g 126 a 71 h 61 j 37 h 132 j 2 h 32 j 22 
12 g 0 a 175 g 69 a 163 f 51 c 7 f 5 c 18 f 57 c 16 f 62 c 26 
17 g 0 d 19 g 112 a 8 h 24 j 26 h 6 f 138 a 16 g 37 d 16 g 57 d 22 g 97 a 24 h 91 j 35 
16 a 0 f 60 a 5 g 46 a 18 f 69 a 2 c 52 a 2 g 12 d 67 g 93 a 13 f 68 h 3 f 37 
1 c 0 
7 g 0 d 22 g 140 a 19 h 72 j 220 h 15 
7 g 0 a 401 h 43 f 41 c 28 f 134 c 12 
14 a 0 f 40 a 7 h 127 f 12 a 3 f 26 a 8 g 57 d 42 g 97 a 19 h 23 f 33 
5 c 0 a 43 f 4 h 18 j 25 
5 c 0 f 32 c 15 f 2 h 74 
15 c 0 g 12 c 76 g 68 d 22 g 213 a 12 g 36 c 16 g 2 c 4 g 5 c 8 g 1 c 27 
12 h 0 f 64 a 5 f 115 a 1 f 1 a 5 g 83 d 37 g 97 a 29 h 19 
4 b 0 i 8 e 65 j 46 
13 a 0 c 49 g 16 c 86 g 29 a 168 g 7 a 29 f 52 h 9 j 20 h 79 f 47 
4 d 0 g 113 a 9 h 23 
18 a 0 c 47 g 16 c 12 g 3 a 4 c 1 a 3 c 4 a 5 c 20 a 17 g 56 d 13 g 201 a 37 f 115 c 139 
18 j 0 h 24 f 26 a 2 c 84 g 30 d 52 g 195 c 2 g 2 a 77 c 56 a 6 f 16 c 8 f 6 a 160 f 4 
3 h 0 j 10 e 38 
12 e 0 j 8 h 27 a 19 g 22 d 19 g 93 a 16 h 38 j 29 e 80 i 54 
20 j 0 h 20 f 20 a 19 c 1 g 15 d 22 g 3 c 35 g 12 d 28 g 33 d 35 g 28 c 109 a 36 h 21 j 16 h 117 f 23 
14 a 0 h 6 a 86 h 34 a 125 g 28 d 20 g 109 a 26 h 30 j 33 e 24 i 44 e 56 
11 c 0 g 76 c 39 g 41 c 5 g 10 d 20 g 1 d 6 g 245 c 77 
4 a 0 h 85 f 85 a 8 
7 a 0 g 23 d 23 g 76 a 30 f 172 h 27 
10 c 0 f 81 a 4 f 12 c 52 a 1 c 3 a 5 f 26 h 7 
14 a 0 h 22 j 21 h 156 a 18 g 13 d 17 g 179 a 11 h 45 j 133 h 81 j 8 h 12 
6 h 0 a 76 h 292 f 25 h 52 j 83 
14 c 0 g 85 c 66 g 20 a 7 g 99 d 19 g 97 a 55 f 39 a 9 f 13 h 16 j 83 
12 h 0 j 16 h 167 a 24 g 53 d 38 g 132 a 34 g 19 a 15 h 55 j 51 
12 c 0 f 22 c 3 a 32 f 6 a 8 f 13 a 26 f 5 a 3 f 5 a 52 
15 a 0 f 143 a 15 f 4 a 2 g 41 d 27 g 98 a 76 g 4 a 7 c 66 a 31 f 19 c 8 
2 e 0 j 44 
10 g 0 c 50 g 145 d 73 g 159 a 39 h 34 j 106 h 54 f 27 
9 c 0 g 58 c 3 g 21 a 265 f 42 a 40 f 24 h 9 
3 c 0 f 53 c 52 
9 j 0 h 157 a 22 g 23 d 36 g 154 a 14 h 31 j 42 
5 f 0 a 43 f 7 a 11 f 4 
15 a 0 f 86 a 13 h 53 a 25 g 23 d 24 g 45 d 10 g 118 a 28 h 69 f 57 h 17 j 57 
7 h 0 f 39 a 9 g 125 a 99 h 88 j 32 
3 f 0 a 20 h 27 
3 i 0 b 19 i 77 
13 g 0 a 22 c 3 a 4 c 3 a 16 g 244 d 13 g 85 a 60 f 63 h 26 j 28 
3 f 0 h 33 f 9 
13 g 0 a 41 h 106 a 31 g 44 d 17 g 80 a 10 h 31 j 44 e 46 j 41 e 52 
17 j 0 h 57 j 1 h 4 a 97 g 25 d 50 g 96 a 70 f 76 h 3 f 26 a 36 f 6 a 19 f 1 c 50 
1 c 0 
9 a 0 h 65 a 128 g 36 d 40 g 115 a 19 h 80 j 104 
5 h 0 j 90 h 4 j 14 h 3 
3 h 0 f 3 a 24 
5 h 0 a 21 h 147 f 117 h 89 
4 c 0 f 10 h 25 j 31 
9 d 0 g 7 d 182 g 212 a 87 f 27 c 50 f 44 c 5 
1 c 0 
9 c 0 a 82 f 8 h 19 j 25 h 56 j 4 h 5 j 2 
1 c 0 
11 a 0 c 7 g 34 a 129 g 46 a 5 g 51 a 56 c 7 g 2 c 10 
1 c 0 
9 h 0 a 160 g 21 d 30 g 153 a 41 h 41 j 30 h 155 
3 e 0 j 21 h 40 
8 h 0 a 204 g 25 d 17 g 59 a 10 h 40 j 55 
5 a 0 h 2 j 15 e 22 i 118 
11 h 0 a 177 g 30 d 21 g 120 a 81 h 35 j 92 h 61 j 59 h 44 
16 g 0 a 22 c 33 g 18 c 3 g 4 c 8 g 4 c 4 g 2 d 107 g 190 a 19 h 49 j 39 e 20 
2 e 0 j 49 
2 c 0 g 41 
4 g 0 d 52 g 6 a 13 
7 g 0 d 19 g 52 c 60 g 33 c 18 f 50 
9 j 0 h 36 j 148 h 103 j 4 e 62 j 40 h 41 j 19 
1 e 0 
17 g 0 c 47 g 20 a 84 c 7 g 12 c 4 g 2 d 20 g 27 d 1 g 6 d 28 g 160 d 8 g 36 c 67 
7 a 0 g 168 d 60 g 75 a 11 h 162 j 209 
15 a 0 h 121 a 32 g 51 d 25 g 123 a 89 f 50 h 64 f 80 h 23 f 2 h 17 f 43 h 22 
1 h 0 
3 a 0 g 62 d 16 
9 d 0 g 72 a 7 h 29 j 38 h 29 j 54 e 40 i 71 
19 g 0 a 31 c 8 a 3 c 10 g 18 c 4 g 1 a 68 g 38 d 17 g 38 d 24 g 125 a 27 g 10 a 40 h 74 f 136 
8 a 0 g 167 d 38 g 5 d 9 g 98 a 17 h 144 
8 g 0 d 109 g 42 c 183 a 17 f 27 h 9 f 23 
15 c 0 g 43 c 4 g 12 c 27 g 1 d 112 g 160 a 85 f 47 c 18 a 8 f 34 h 51 f 14 
11 g 0 d 128 g 10 d 58 g 195 d 59 g 18 c 31 g 5 c 23 f 58 
7 c 0 g 13 c 5 g 8 d 161 g 99 c 165 
8 c 0 g 13 c 3 g 5 a 305 f 49 h 3 f 165 
6 g 0 c 6 g 10 d 190 g 152 c 100 
3 h 0 a 15 g 240 
8 g 0 d 9 g 91 a 12 h 47 j 29 e 192 j 8 
8 g 0 c 338 f 74 c 10 f 67 c 33 f 70 c 44 
5 c 0 g 16 d 159 g 190 c 80 
13 h 0 a 45 g 124 d 18 g 184 a 19 g 29 a 73 c 1 a 12 f 23 h 54 j 67 
10 a 0 g 83 d 102 g 173 a 38 g 12 a 48 h 61 j 100 h 49 
7 a 0 g 20 a 139 g 15 a 5 h 164 j 148 
8 c 0 g 20 d 248 g 105 a 18 c 78 a 42 f 19 
15 j 0 h 25 f 28 a 3 g 100 d 26 g 83 a 14 h 42 j 31 e 82 j 207 e 14 j 3 e 2 
22 a 0 f 10 a 2 c 24 g 11 a 65 g 65 d 26 g 87 d 11 g 4 d 3 g 19 a 44 h 69 j 41 h 44 j 64 h 25 j 9 h 3 f 112 
10 c 0 g 13 a 147 g 10 a 53 g 11 a 41 f 80 h 218 f 57 
2 c 0 f 84 
5 c 0 f 104 c 1 f 1 c 15 
14 h 0 f 21 a 8 h 101 a 45 h 35 a 8 g 35 d 19 g 83 a 7 h 23 j 132 e 29 
10 f 0 a 38 f 1 a 6 g 23 d 94 g 109 a 12 h 155 j 43 
1 f 0 
4 j 0 h 56 j 9 h 8 
13 a 0 c 44 g 8 a 86 g 34 d 34 g 76 d 23 g 15 a 92 f 57 h 14 j 136 
1 f 0 
1 c 0 
9 a 0 f 14 a 2 g 78 d 86 g 157 a 20 h 31 j 134 
18 j 0 h 17 f 23 a 11 c 13 g 3 d 78 g 122 a 65 c 48 g 12 c 46 a 18 f 19 h 14 f 68 h 46 f 94 
10 c 0 g 16 c 16 g 9 d 167 g 119 d 1 g 1 a 114 c 2 
3 c 0 f 83 c 15 
7 a 0 g 158 d 37 g 165 a 37 h 102 j 70 
3 f 0 h 4 j 81 
1 f 0 
8 a 0 c 13 g 2 a 138 h 151 j 29 e 40 j 47 
13 a 0 g 104 a 10 g 126 d 20 g 102 a 22 h 27 f 76 h 84 j 29 h 85 f 14 
9 g 0 d 38 g 113 d 108 g 17 c 49 g 11 c 4 f 63 
4 g 0 a 55 f 61 h 1 
4 c 0 f 52 h 118 j 28 
13 j 0 h 35 f 18 a 1 g 30 a 85 g 24 d 50 g 64 a 110 f 25 h 9 f 39 
3 j 0 h 23 f 40 
2 j 0 h 43 
7 c 0 g 7 d 121 g 236 c 107 f 247 c 5 
13 c 0 g 13 a 13 c 28 g 3 a 80 g 12 d 96 g 115 a 22 f 32 c 63 f 130 
2 e 0 i 54 
3 j 0 h 59 f 17 
13 c 0 g 15 d 161 g 181 a 95 c 27 a 22 f 21 a 56 f 5 a 7 f 3 h 52 
1 c 0 
13 h 0 f 15 c 25 g 6 d 56 g 26 d 7 g 5 a 167 g 36 a 38 f 48 h 23 
4 c 0 f 49 h 80 f 25 
11 a 0 g 77 a 44 g 108 d 17 g 109 a 24 h 27 f 101 h 61 j 56 
9 e 0 j 37 h 29 a 36 g 32 d 23 g 91 a 23 h 66 
3 a 0 g 35 a 10 
7 g 0 a 3 h 45 j 17 e 30 i 30 b 71 
8 d 0 g 12 a 2 h 8 j 3 e 5 i 10 b 13 
6 d 0 g 15 c 16 a 19 f 11 h 11 
11 j 0 h 6 a 25 g 72 a 6 h 179 j 20 e 29 i 216 e 35 i 8 
12 a 0 g 47 a 39 g 38 d 65 g 104 a 83 f 95 c 12 a 10 f 27 c 218 
15 h 0 a 57 g 53 a 83 g 12 a 179 f 36 a 25 f 4 h 7 j 57 e 63 j 32 h 39 f 29 
3 g 0 c 35 a 63 
2 g 0 c 8 
3 c 0 f 23 h 49 
11 a 0 g 60 a 54 g 102 d 19 g 106 a 16 h 32 f 131 h 130 j 38 
5 g 0 c 312 f 66 c 33 f 29 
8 g 0 d 151 g 157 d 33 g 9 c 46 g 21 c 33 
2 c 0 f 72 
16 j 0 h 17 a 34 g 25 d 45 g 3 d 2 g 51 a 27 g 29 a 48 h 101 j 20 h 121 j 54 e 31 
5 j 0 h 55 a 44 h 110 j 38 
4 g 0 c 17 g 41 d 4 
13 c 0 g 25 a 103 g 40 a 18 g 33 d 10 g 119 a 17 f 32 h 12 f 66 h 155 
6 g 0 d 70 g 34 a 194 f 46 h 26 
3 c 0 f 60 h 80 
10 c 0 g 11 d 145 g 9 d 2 g 133 d 43 g 5 a 25 f 92 
4 j 0 h 21 f 86 c 70 
8 h 0 a 69 g 44 d 26 g 81 a 28 h 68 a 38 
5 g 0 a 36 h 21 f 77 c 23 
2 c 0 f 2 
4 g 0 d 60 g 39 c 190 
6 c 0 f 68 h 24 j 26 h 50 f 12 
15 c 0 g 25 d 58 g 5 a 94 g 139 a 66 c 12 a 30 f 30 h 60 f 7 h 40 f 1 h 19 
1 c 0 
16 c 0 g 16 d 39 g 19 a 85 g 23 a 24 g 17 d 12 g 119 a 22 f 32 h 14 j 42 h 109 j 83 
11 g 0 d 64 g 4 d 7 g 6 d 88 g 130 d 27 g 26 a 38 h 78 
3 c 0 f 170 c 17 
5 h 0 j 58 h 24 j 56 e 30 
1 i 0 
7 g 0 d 23 g 1 d 65 g 6 a 183 c 13 
4 h 0 f 18 c 18 f 146 
4 g 0 d 59 g 148 c 188 
3 c 0 f 212 c 4 
10 g 0 d 35 g 70 d 6 g 3 d 2 g 171 a 101 f 86 h 9 
3 c 0 f 31 h 112 
4 f 0 c 18 f 30 c 40 
14 g 0 a 47 g 50 a 9 g 58 a 59 g 3 a 58 c 1 a 2 f 28 h 55 j 52 h 44 
4 g 0 a 121 f 25 a 10 
6 c 0 f 41 c 30 f 98 c 33 f 25 
10 g 0 d 48 g 57 d 5 g 21 a 63 c 123 g 6 a 42 h 25 
3 j 0 e 1 j 111 
1 i 0 
16 a 0 g 4 a 105 g 69 d 21 g 68 c 131 a 66 c 16 a 13 f 5 c 20 f 42 c 8 f 67 c 135 
9 g 0 a 68 h 47 a 58 h 17 j 128 e 48 j 75 h 48 
14 j 0 h 21 j 79 h 58 a 42 g 12 d 13 g 87 a 12 h 22 j 15 e 19 i 43 b 226 
4 a 0 g 37 d 44 g 130 
7 d 0 g 6 a 96 c 31 g 11 c 41 a 3 
4 g 0 c 10 a 23 f 17 
4 f 0 h 10 f 56 c 66 
5 a 0 g 40 d 36 g 111 a 50 
4 c 0 g 2 a 37 f 106 
3 j 0 h 28 f 24 
1 c 0 
1 h 0 
4 g 0 d 60 g 53 a 70 
6 d 0 g 10 a 114 c 22 g 15 a 32 
2 j 0 h 35 
3 f 0 c 8 f 40 
1 c 0 
3 j 0 e 23 j 6 
7 j 0 h 24 a 16 g 23 d 25 g 128 a 85 
3 c 0 g 2 c 16 
5 j 0 h 13 f 23 h 34 f 79 
6 g 0 d 20 g 28 a 66 g 65 d 35 
9 a 0 h 5 f 44 c 32 a 20 f 4 h 37 j 22 e 20 
4 c 0 f 3 h 115 j 36 
10 g 0 d 69 g 20 c 64 g 1 d 59 g 110 c 68 f 81 c 83 
4 a 0 g 50 d 22 g 125 
5 h 0 a 207 h 63 j 23 h 76 
2 j 0 e 17 
15 g 0 a 116 g 88 d 17 g 97 a 10 f 87 h 22 f 6 h 6 j 31 h 126 f 16 c 35 f 21 
7 a 0 g 38 d 19 g 126 c 105 g 8 c 5 
1 b 0 
1 c 0 
1 c 0 
15 h 0 a 60 g 30 d 14 g 76 a 16 g 25 a 69 f 34 a 4 f 75 h 39 j 52 h 14 j 2 
2 f 0 h 64 
10 a 0 g 4 d 41 g 83 a 77 h 136 a 6 h 54 j 45 h 32 
1 e 0 
2 e 0 i 13 
9 h 0 a 10 g 42 d 16 g 123 a 89 f 191 h 4 f 90 
2 h 0 j 36 
6 g 0 d 12 g 38 a 84 g 16 d 64 
13 g 0 a 2 h 40 f 3 a 9 f 5 a 3 f 30 a 4 f 3 h 10 f 96 c 146 
6 g 0 d 96 g 77 a 5 h 124 f 239 
10 g 0 d 41 g 87 a 79 g 3 a 117 f 96 h 19 j 88 e 139 
7 g 0 d 26 g 77 d 10 g 29 a 121 c 20 
1 i 0 
4 a 0 h 74 j 25 e 59 
5 h 0 j 24 e 19 i 39 b 121 
5 f 0 h 4 j 15 e 27 i 31 
10 a 0 g 40 d 48 g 87 a 7 h 92 f 175 c 86 f 93 c 50 
18 a 0 g 12 d 18 g 94 a 31 h 39 a 31 h 51 a 10 h 13 a 4 h 5 a 32 f 72 h 20 f 45 h 62 j 109 
4 g 0 d 50 g 136 a 82 
13 h 0 a 21 c 25 g 6 c 2 g 10 c 15 a 52 f 17 c 10 a 4 f 10 c 61 
1 c 0 
14 g 0 d 21 g 15 d 6 g 3 a 49 g 86 d 25 g 81 a 8 h 22 j 76 e 48 j 88 
1 j 0 
19 a 0 g 12 d 28 g 64 a 146 c 68 a 2 c 5 g 19 a 12 c 29 a 2 c 3 a 14 f 17 h 71 f 7 a 24 f 15 
3 f 0 h 17 j 41 
5 g 0 a 123 h 98 f 261 c 109 
14 g 0 d 29 g 77 d 34 g 6 a 110 c 111 a 40 c 4 a 7 f 4 c 122 f 24 h 81 
9 g 0 a 2 g 60 d 17 g 84 a 8 h 93 j 152 e 209 
10 g 0 a 104 g 57 d 41 g 61 a 20 h 25 j 84 e 49 i 53 
2 b 0 i 102 
3 g 0 a 233 c 3 
1 c 0 
10 g 0 d 11 g 76 d 30 g 24 a 29 g 36 a 11 h 37 j 20 
3 e 0 j 38 e 115 
5 c 0 a 27 f 2 h 57 j 28 
3 c 0 f 39 c 35 
15 d 0 g 126 d 2 g 6 a 128 c 1 a 18 f 57 a 4 f 1 a 24 f 18 a 11 f 19 h 154 
11 g 0 a 56 g 21 d 70 g 93 a 50 f 53 a 1 f 3 h 97 j 45 
2 f 0 h 73 
12 a 0 g 51 d 12 g 83 a 10 h 39 a 10 h 3 j 120 h 195 f 21 c 30 
2 j 0 h 30 
7 d 0 g 55 a 163 c 22 a 22 f 52 h 75 
12 d 0 g 72 d 42 g 7 c 135 a 36 f 38 a 26 f 4 a 12 f 11 c 72 
1 f 0 
1 e 0 
4 a 0 h 198 j 54 e 99 
2 i 0 e 37 
2 f 0 h 38 
11 a 0 g 25 d 13 g 99 a 76 f 50 h 74 j 51 h 52 f 31 c 43 
3 h 0 f 12 c 28 
13 g 0 a 45 f 153 a 6 c 1 a 58 f 4 c 30 f 90 c 8 f 8 c 11 f 4 
3 c 0 f 8 c 113 
8 g 0 a 55 h 115 f 17 a 15 f 77 h 9 f 7 
2 j 0 h 52 
2 e 0 j 52 
4 c 0 a 63 h 21 j 24 
7 c 0 a 58 f 14 h 18 j 42 e 26 i 51 
2 j 0 h 21 
1 c 0 
6 a 0 g 7 a 101 h 69 f 37 c 32 
1 e 0 
8 h 0 a 6 g 15 d 14 g 70 a 14 h 121 f 66 
2 h 0 f 40 
2 h 0 f 7 
4 g 0 a 66 h 115 j 50 
5 a 0 f 50 a 23 f 2 a 6 
1 i 0 
7 i 0 e 11 j 12 h 8 f 5 c 6 d 13 
11 a 0 h 6 j 29 h 66 a 19 g 27 a 52 h 28 j 16 e 22 i 42 
4 f 0 h 6 j 18 e 30 
4 h 0 j 15 e 54 i 73 
7 a 0 f 192 a 5 f 4 a 51 f 23 h 130 
2 h 0 f 82 
5 g 0 a 29 h 114 j 25 e 104 
2 j 0 e 197 
5 a 0 g 28 a 47 h 89 j 40 
4 h 0 j 17 h 3 j 28 
1 i 0 
1 c 0 
1 c 0 
4 c 0 f 84 h 37 j 28 
10 g 0 a 34 g 40 d 48 g 61 a 70 h 66 j 93 h 81 f 97 
8 a 0 g 6 d 21 g 56 a 16 h 56 j 82 e 40 
2 i 0 b 42 
2 b 0 i 20 
2 i 0 e 15 
4 h 0 f 9 a 52 f 50 
3 h 0 f 27 h 18 
10 g 0 a 60 g 21 d 38 g 56 a 103 c 5 a 40 c 4 f 16 
7 g 0 a 18 h 155 f 56 a 12 f 13 h 8 
4 c 0 a 13 f 15 h 61 
3 j 0 h 63 j 183 
6 d 0 g 82 a 83 c 13 a 107 f 6 
4 c 0 f 33 c 35 f 40 
6 a 0 h 91 j 93 e 36 j 203 h 37 
5 a 0 h 42 a 21 h 38 j 43 
1 h 0 
11 c 0 a 28 f 17 a 2 f 11 a 16 f 6 a 25 f 2 a 22 f 7 
3 c 0 a 48 f 16 
4 h 0 j 35 h 17 j 1 
7 g 0 d 73 g 87 c 101 f 92 c 113 f 154 
14 d 0 g 54 a 79 c 19 a 1 f 103 a 2 f 44 h 122 f 9 c 76 a 33 c 2 f 1 
8 c 0 g 44 c 8 a 24 c 5 g 140 c 6 a 40 
2 f 0 h 30 
6 g 0 a 49 f 104 a 12 f 31 c 285 
5 g 0 a 36 f 118 h 51 j 67 
1 c 0 
4 c 0 f 77 c 6 f 3 
13 g 0 d 80 g 78 a 22 g 13 a 4 g 7 c 58 f 61 h 47 f 106 c 43 f 35 
5 d 0 g 1 a 128 f 73 a 11 
6 g 0 c 14 g 51 c 22 g 158 c 12 
1 c 0 
9 g 0 c 85 g 8 a 2 f 55 a 26 f 6 h 52 j 94 
8 g 0 a 113 h 58 f 99 a 227 f 13 h 49 f 21 
9 g 0 a 9 f 128 h 10 f 8 h 38 j 104 h 20 j 117 
14 g 0 d 82 g 66 a 24 h 92 j 118 e 58 j 20 h 65 f 55 h 3 f 20 h 2 f 3 
12 g 0 a 138 c 74 a 43 f 22 a 8 c 2 a 50 f 6 c 8 g 118 c 7 
3 c 0 a 10 f 10 
15 g 0 a 65 f 149 a 219 f 4 a 2 f 11 c 29 a 5 f 9 c 3 a 18 f 6 h 32 j 28 
6 g 0 c 105 g 3 c 34 g 57 c 2 
3 h 0 f 67 c 39 
6 g 0 d 67 g 59 a 12 f 135 h 260 
6 g 0 a 35 h 92 j 79 e 66 j 172 
3 a 0 h 65 j 81 
2 c 0 f 33 
2 c 0 f 34 
11 g 0 c 142 a 20 f 114 a 6 f 3 a 2 f 4 a 30 f 6 h 4 
3 j 0 h 33 j 173 
2 e 0 i 15 
4 c 0 a 70 f 67 h 13 
7 h 0 f 4 a 6 f 26 a 10 f 3 c 11 
6 g 0 c 94 g 24 c 8 g 4 c 3 
6 d 0 g 141 c 65 f 98 c 43 f 12 
7 g 0 a 75 f 85 a 12 c 23 a 9 f 17 
3 j 0 h 3 f 44 
4 f 0 h 4 f 15 h 95 
14 g 0 d 25 g 6 d 52 g 9 c 69 g 11 c 6 g 14 c 43 g 16 c 37 a 7 c 13 
4 a 0 c 61 a 9 c 33 
2 c 0 f 148 
1 f 0 
10 f 0 c 40 g 40 c 21 a 15 f 50 a 4 f 5 a 12 f 3 
1 c 0 
4 g 0 a 38 f 101 h 131 
1 c 0 
2 j 0 h 52 
7 a 0 g 8 d 35 g 42 a 13 h 60 j 105 
2 c 0 f 62 
10 g 0 c 54 g 21 c 11 g 1 c 4 f 130 c 11 f 47 c 189 
11 c 0 g 16 c 24 a 26 f 24 a 55 f 6 h 71 f 99 h 100 j 45 
11 g 0 a 92 c 15 a 24 c 4 a 3 f 55 a 11 f 15 h 26 j 47 
6 f 0 c 5 a 161 f 4 c 29 f 44 
8 g 0 c 116 a 8 c 53 a 55 c 19 a 29 f 31 
8 h 0 f 66 a 21 c 6 g 27 c 14 g 37 a 20 
2 e 0 j 74 
12 g 0 d 22 g 58 c 36 g 52 c 8 g 3 c 9 f 145 c 31 f 13 c 5 
2 g 0 c 63 
4 a 0 f 5 a 13 c 3 
3 c 0 f 95 c 80 
10 c 0 g 5 d 12 g 5 c 52 g 115 c 54 g 31 c 15 f 57 
5 d 0 g 96 c 55 g 1 c 47 
8 g 0 a 15 f 84 h 10 j 75 e 139 j 8 e 44 
5 g 0 a 106 h 26 f 69 a 15 
3 a 0 f 2 c 85 
3 g 0 a 6 h 73 
7 c 0 a 6 f 45 h 1 j 73 e 172 j 34 
9 a 0 c 57 a 10 f 42 c 49 f 3 h 285 f 14 h 7 
10 g 0 d 8 g 68 a 14 h 18 j 20 h 44 j 113 h 159 j 31 
8 g 0 a 12 g 46 a 93 f 22 a 9 f 2 a 28 
5 h 0 f 140 a 14 f 129 h 35 
13 a 0 c 55 a 50 f 16 h 81 f 83 h 20 f 5 c 55 f 3 h 55 f 25 c 35 
10 a 0 c 55 g 3 a 14 f 50 a 66 f 51 h 12 j 61 h 12 
2 j 0 e 32 
3 e 0 i 42 e 196 
2 e 0 j 69 
10 j 0 h 78 j 36 h 144 f 28 c 28 a 54 f 1 c 60 f 41 
10 g 0 c 25 g 13 c 45 f 298 c 52 a 8 f 10 c 66 f 32 
9 j 0 h 58 j 19 h 88 j 70 e 63 j 13 h 27 j 148 
8 a 0 f 57 c 11 a 104 f 14 c 174 f 34 c 72 
9 h 0 j 22 h 31 f 26 h 43 f 108 c 69 f 71 c 56 
11 g 0 c 79 a 65 f 1 a 5 f 4 a 8 f 77 c 119 f 124 c 47 
12 a 0 h 65 a 13 h 1 f 27 a 3 f 12 a 11 h 6 f 73 a 42 f 15 
5 j 0 h 33 f 74 h 49 f 37 
8 a 0 f 117 a 10 c 19 a 10 c 1 f 7 c 10 
8 a 0 f 40 h 84 f 19 h 49 f 160 h 2 f 107 
10 c 0 a 10 f 12 h 21 f 21 h 100 f 18 h 3 j 215 h 14 
8 g 0 a 67 f 41 a 4 f 6 c 42 a 49 f 23 
5 j 0 e 22 j 3 e 2 i 96 
3 h 0 j 30 e 164 
8 h 0 j 22 h 63 f 34 c 179 a 17 h 31 j 23 
9 a 0 f 31 c 115 a 23 f 14 h 26 f 10 h 6 f 24 
3 f 0 h 43 j 40 
9 j 0 h 21 f 14 a 20 f 74 h 53 f 1 h 13 f 38 
14 g 0 c 108 g 6 c 2 a 90 f 5 c 99 f 30 a 48 f 4 c 77 a 21 f 10 c 54 
12 a 0 f 20 c 81 a 71 f 9 h 33 j 23 h 21 f 101 h 24 f 56 c 28 
15 a 0 f 9 h 28 j 112 h 21 f 47 h 36 f 4 h 15 f 10 a 23 f 47 h 24 f 38 h 30 
9 j 0 h 3 f 44 c 17 g 32 c 7 g 1 c 32 f 77 
5 h 0 j 68 e 166 i 250 e 37 
6 a 0 h 114 f 36 a 30 f 4 h 6 
7 c 0 a 97 f 20 a 4 f 21 a 10 f 3 
6 f 0 c 11 f 35 h 97 f 35 h 49 
9 h 0 j 33 h 113 f 55 h 11 f 76 h 44 j 50 e 38 
3 h 0 j 65 e 52 
1 i 0 
5 h 0 j 9 h 47 j 36 e 68 
5 c 0 g 20 c 71 g 19 c 4 
12 g 0 c 88 a 21 c 52 a 12 c 5 f 65 c 111 f 88 a 9 f 3 c 102 
4 a 0 c 43 a 16 f 4 
3 e 0 j 107 h 46 
11 c 0 g 3 c 64 g 7 c 2 a 151 f 4 c 74 a 172 f 3 c 47 
10 g 0 c 25 g 6 c 45 g 7 c 13 g 1 c 7 g 8 c 4 
4 c 0 f 17 h 14 j 10 
2 c 0 f 54 
7 h 0 f 1 c 14 g 29 c 28 f 86 c 14 
7 a 0 f 12 a 4 f 4 h 36 f 4 h 48 
3 e 0 j 132 h 35 
7 a 0 f 80 a 70 h 28 j 101 h 25 j 144 
20 a 0 g 28 a 5 f 48 a 13 f 65 a 29 f 1 h 81 f 2 a 43 f 27 c 9 a 42 c 28 a 2 f 14 c 8 f 17 c 3 
18 g 0 c 30 g 17 a 1 c 3 g 8 a 4 c 32 a 2 c 5 a 8 f 23 a 1 f 19 a 5 f 1 a 13 f 5 
8 j 0 h 3 f 34 h 56 f 5 a 73 f 86 c 78 
3 e 0 i 24 b 60 
3 e 0 j 126 e 110 
6 g 0 c 67 g 6 c 2 g 296 c 24 
3 h 0 f 45 c 31 
12 a 0 f 73 a 60 c 13 a 7 f 17 a 6 f 19 a 176 f 29 h 22 j 36 
4 c 0 f 8 h 24 f 46 
13 c 0 a 13 c 4 a 10 c 14 a 3 f 5 c 223 a 46 f 24 h 76 f 2 h 14 
7 c 0 a 54 f 8 h 46 j 46 h 262 f 16 
13 g 0 a 1 f 145 a 9 f 4 h 30 f 128 c 60 a 92 f 4 a 4 f 9 h 33 
8 h 0 a 15 h 7 f 55 a 15 f 25 a 2 f 9 
1 i 0 
17 f 0 a 7 f 52 a 2 f 5 a 32 f 1 a 39 f 27 a 8 f 10 h 23 f 19 h 32 f 119 h 6 j 102 
6 a 0 h 60 j 135 h 150 j 99 e 42 
7 h 0 f 61 h 26 j 64 h 153 j 27 e 52 
1 f 0 
21 f 0 a 5 c 2 g 25 c 24 a 5 f 23 a 1 f 3 a 13 f 6 a 9 f 2 c 9 a 83 f 8 c 65 a 170 f 2 h 32 f 56 
4 f 0 a 7 h 46 j 39 
2 h 0 j 86 
18 c 0 g 37 c 5 g 17 c 4 g 7 c 1 g 71 c 12 a 57 f 10 c 40 g 107 c 2 g 13 c 5 g 28 c 2 
10 c 0 a 48 f 19 c 30 f 11 h 47 f 7 h 201 f 56 c 19 
6 h 0 j 15 e 49 i 59 e 172 i 104 
9 c 0 g 9 c 67 g 330 c 2 a 19 f 33 a 5 f 1 
12 h 0 f 36 a 12 f 6 h 1 f 74 a 216 f 8 a 20 f 52 h 2 j 32 
7 f 0 h 168 f 18 h 171 j 49 h 18 f 13 
16 a 0 c 5 a 10 c 3 g 22 c 2 g 6 c 25 a 31 c 4 a 7 f 11 a 11 f 2 h 8 j 23 
5 i 0 e 86 j 51 h 28 f 57 
12 c 0 g 58 c 8 g 79 c 4 f 70 c 30 g 94 c 11 a 91 f 4 c 61 
24 c 0 g 19 d 16 g 4 c 37 g 122 c 10 g 7 c 12 a 7 c 3 f 10 c 38 f 2 c 4 a 40 f 4 c 2 g 90 c 7 a 25 f 8 a 2 f 4 
1 c 0 
2 h 0 f 11 
18 c 0 g 15 a 53 h 24 f 1 h 7 f 15 h 33 f 5 c 33 a 46 f 14 c 59 g 114 c 3 g 6 c 3 f 46 
4 a 0 h 9 j 72 e 62 
3 c 0 f 10 h 175 
19 f 0 c 19 g 36 a 3 f 23 a 11 f 5 a 34 f 7 a 21 f 11 h 67 f 27 a 47 c 2 g 25 a 8 f 34 h 61 
12 h 0 f 7 a 8 f 88 a 34 f 3 h 37 j 62 h 6 j 21 h 10 f 39 
5 c 0 f 157 c 42 g 126 c 8 
2 h 0 j 128 
5 e 0 j 50 h 83 j 49 h 101 
6 c 0 a 40 c 5 a 18 f 42 c 52 
1 b 0 
15 c 0 a 1 f 10 a 2 f 1 c 21 g 37 c 3 a 7 f 31 c 10 f 79 c 6 f 9 c 8 
3 c 0 f 205 c 42 
24 c 0 g 22 d 35 g 10 a 27 f 14 h 41 f 54 a 25 f 32 h 6 f 99 a 46 c 9 a 5 c 10 a 23 c 11 a 4 c 2 f 2 a 1 f 7 h 26 
1 j 0 
1 c 0 
7 e 0 j 38 h 45 f 68 h 59 j 21 h 82 
12 a 0 c 1 a 12 c 7 a 9 c 29 a 1 c 5 g 21 a 2 c 9 a 3 
2 h 0 j 39 
8 h 0 f 29 h 17 f 26 h 68 j 74 h 51 f 20 
9 c 0 g 56 c 5 g 16 c 3 a 6 f 18 c 27 f 50 
4 j 0 h 85 f 26 a 14 
2 c 0 f 136 
2 h 0 j 126 
2 e 0 j 165 
3 c 0 a 62 c 9 
9 j 0 h 58 f 27 h 7 f 4 h 3 f 65 a 36 c 6 
1 j 0 
4 h 0 j 2 e 82 i 53 
9 f 0 h 11 j 21 e 46 j 21 h 54 f 32 h 68 j 25 
3 c 0 f 87 h 23 
5 j 0 h 71 f 34 h 151 f 54 
5 e 0 j 6 e 50 i 55 e 55 
5 j 0 h 76 j 29 e 40 i 39 
14 h 0 f 1 a 14 h 18 f 4 a 1 h 3 f 257 c 57 f 33 h 35 f 3 h 5 f 8 
6 c 0 f 199 c 4 f 246 c 11 f 3 
8 c 0 g 18 c 3 g 6 a 32 h 24 f 85 c 37 
12 j 0 h 38 f 15 c 23 a 23 f 19 h 27 f 14 h 10 f 7 h 15 j 23 
10 f 0 a 17 f 2 a 7 c 5 a 3 c 10 a 15 h 32 j 28 
5 f 0 h 18 f 10 h 204 j 23 
9 c 0 a 37 f 25 h 91 f 32 h 87 f 18 c 85 f 14 
4 a 0 c 14 g 11 c 43 
1 c 0 
3 c 0 f 180 h 86 
2 c 0 f 124 
1 c 0 
3 c 0 g 15 a 42 
4 h 0 j 3 e 61 j 30 
9 e 0 j 27 h 48 f 26 a 44 c 27 a 37 f 22 h 75 
8 a 0 h 10 a 6 h 5 j 33 e 214 j 67 e 116 
4 h 0 j 66 h 6 j 24 
4 f 0 h 7 j 80 e 145 
3 c 0 f 16 h 43 
1 j 0 
7 h 0 j 41 e 33 j 79 h 64 j 33 h 10 
5 c 0 f 300 a 64 f 5 h 39 
1 e 0 
1 c 0 
13 f 0 a 11 c 8 g 8 a 29 f 25 h 2 j 44 h 72 f 40 h 68 f 35 c 41 
6 j 0 h 102 j 11 h 48 f 24 c 38 
3 i 0 e 14 j 31 
10 c 0 a 49 f 16 a 12 f 2 a 15 f 7 c 179 f 116 h 47 
3 a 0 h 19 j 38 
1 b 0 
2 i 0 b 26 
3 h 0 j 2 h 53 
3 j 0 e 10 j 27 
4 h 0 j 156 h 25 j 5 
7 e 0 j 20 h 72 j 29 h 14 j 5 h 4 
4 e 0 i 59 b 86 i 221 
7 h 0 f 17 a 14 f 41 h 12 j 85 e 24 
3 h 0 j 137 e 134 
9 f 0 a 2 f 5 a 5 f 51 h 65 j 46 h 157 j 72 
4 h 0 f 46 a 2 h 14 
4 e 0 j 48 h 37 f 30 
7 c 0 g 60 c 3 a 3 c 3 f 35 c 56 
1 c 0 
4 g 0 c 44 g 16 c 4 
1 c 0 
8 c 0 g 50 c 18 f 134 h 69 j 33 h 8 j 28 
7 f 0 c 12 f 5 c 2 f 4 c 3 f 14 
11 f 0 h 135 f 43 c 55 a 21 f 4 a 21 f 5 h 33 j 36 h 22 
9 c 0 a 34 f 24 a 4 f 3 a 18 f 6 a 5 f 1 
9 j 0 h 18 j 29 h 6 j 138 h 10 j 24 h 69 j 39 
10 c 0 f 40 h 64 f 4 h 18 f 3 h 3 f 143 h 97 f 64 
9 c 0 g 15 c 4 g 13 c 5 g 3 c 3 a 7 f 25 
3 e 0 j 18 h 29 
6 c 0 f 23 h 31 j 64 h 4 f 20 
4 f 0 a 11 h 20 j 54 
5 j 0 h 29 j 11 e 44 j 21 
2 e 0 j 38 
7 h 0 j 200 e 72 i 101 e 29 i 5 e 18 
3 c 0 f 169 c 14 
11 c 0 g 7 c 45 g 15 c 3 a 29 f 7 c 117 f 65 c 4 f 56 
10 h 0 j 58 h 29 j 94 h 17 f 102 h 4 f 12 h 8 j 30 
2 a 0 c 3 
4 c 0 f 17 c 36 f 114 
16 c 0 f 79 c 6 f 3 c 4 f 77 c 101 f 6 c 20 a 38 c 6 a 8 f 8 h 58 f 28 h 36 
7 c 0 g 8 c 58 f 65 c 88 f 150 c 53 
13 f 0 c 2 a 12 c 6 a 12 f 27 h 38 f 1 h 102 f 98 c 26 a 20 f 11 
2 e 0 i 110 
5 e 0 j 79 h 58 j 59 e 38 
3 j 0 h 26 j 99 
1 i 0 
13 h 0 f 7 a 15 c 2 a 31 f 21 a 2 f 5 h 29 j 43 h 82 j 113 e 45 
12 f 0 a 14 f 17 a 30 f 2 c 134 f 10 c 58 a 93 f 5 h 33 f 55 
15 e 0 j 68 h 58 f 43 h 22 f 21 h 31 f 41 c 32 f 37 c 17 f 14 c 23 f 6 c 6 
12 f 0 c 22 a 31 c 1 a 7 c 5 a 18 c 24 a 20 f 16 h 169 j 80 
10 f 0 c 23 a 48 f 17 a 2 f 5 h 28 j 63 h 66 f 36 
3 e 0 j 48 h 67 
14 c 0 g 42 c 2 g 3 c 8 a 37 f 5 h 32 f 24 h 86 f 111 h 20 j 51 h 66 
4 c 0 f 238 c 76 f 50 
1 b 0 
4 c 0 f 15 h 39 j 18 
2 e 0 i 19 
5 c 0 g 54 c 1 f 54 h 71 
4 c 0 a 7 f 11 c 53 
2 c 0 f 153 
9 c 0 a 21 f 7 h 12 j 25 h 102 j 97 h 34 f 115 
6 c 0 f 143 c 2 f 90 c 102 f 128 
5 f 0 h 15 f 10 h 10 f 88 
1 b 0 
3 j 0 e 43 j 86 
1 c 0 
1 c 0 
12 f 0 a 24 f 51 h 50 f 36 h 3 f 45 c 133 a 33 f 3 h 25 j 43 
14 f 0 c 13 a 4 c 2 a 4 f 10 a 1 f 6 a 6 f 21 a 8 c 24 a 11 f 25 
5 c 0 f 63 h 51 f 56 c 268 
7 h 0 f 3 a 46 f 32 h 7 j 53 h 37 
5 c 0 g 31 c 7 g 61 c 4 
1 c 0 
1 c 0 
1 c 0 
3 c 0 f 20 c 28 
2 c 0 f 141 
8 f 0 a 11 c 37 a 7 f 29 c 4 a 1 f 4 
2 j 0 h 4 
8 f 0 c 60 f 6 c 13 a 29 f 15 h 11 j 25 
5 c 0 a 32 f 5 h 21 f 49 
1 j 0 
2 e 0 j 98 
10 f 0 c 63 f 11 h 50 f 30 c 76 f 17 h 46 j 24 h 19 
3 h 0 f 5 c 22 
3 h 0 f 3 c 45 
5 e 0 j 3 h 23 f 19 c 93 
6 f 0 c 20 a 2 f 34 h 9 j 52 
6 c 0 f 3 c 109 a 67 f 12 c 28 
4 h 0 j 18 h 25 f 20 
6 j 0 h 28 j 114 h 84 j 26 h 5 
3 e 0 j 10 e 34 
2 c 0 f 6 
2 f 0 c 3 
1 c 0 
4 j 0 h 24 j 73 e 48 
3 f 0 h 3 j 43 
3 j 0 h 10 j 51 
4 f 0 h 25 j 34 e 83 
4 f 0 h 17 j 23 e 60 
1 c 0 
4 j 0 h 52 f 20 c 36 
2 f 0 c 22 
2 h 0 f 6 
1 c 0 
1 c 0 
1 c 0 
3 h 0 f 11 h 42 
2 j 0 h 55 
4 f 0 h 39 j 113 h 42 
1 c 0 
4 e 0 j 10 h 24 f 13 
1 c 0 
7 c 0 a 1 f 6 a 2 f 2 h 5 j 22 
4 c 0 f 17 h 16 j 18 
4 c 0 f 29 h 15 j 13 
5 c 0 f 13 h 15 j 18 e 43 
4 c 0 f 8 h 24 j 35 
1 c 0 
9 f 0 a 147 f 9 c 15 a 33 f 13 c 41 f 2 c 103 
2 h 0 j 210 
1 h 0 
2 f 0 h 30 
1 f 0 
4 j 0 h 76 f 34 c 25 
3 h 0 j 4 h 17 
2 c 0 f 80 
9 f 0 c 34 f 42 c 10 a 105 f 13 c 64 f 30 h 77 
9 a 0 f 18 a 18 f 2 h 23 j 42 h 109 f 72 h 104 
9 f 0 h 167 f 13 c 64 a 52 f 15 h 33 f 27 h 22 
9 c 0 f 53 a 2 f 1 h 62 f 24 h 79 f 150 h 27 
8 j 0 h 9 j 3 e 123 j 53 e 38 j 30 e 26 
1 c 0 
2 e 0 i 341 
1 i 0 
6 c 0 a 53 f 5 c 196 a 24 f 31 
6 f 0 a 33 f 12 h 36 j 242 h 156 
3 f 0 c 366 f 11 
4 j 0 e 98 i 231 e 40 
3 c 0 f 145 c 27 
11 f 0 c 8 a 45 f 5 h 34 j 79 h 34 f 63 a 9 h 13 j 48 
6 f 0 h 56 f 12 h 19 f 9 h 13 
12 f 0 a 13 f 5 a 19 f 2 a 16 h 2 f 130 a 86 f 10 h 11 j 98 
4 h 0 f 36 h 16 f 12 
4 h 0 f 16 h 48 j 54 
5 c 0 g 39 c 2 f 408 c 12 
8 h 0 f 225 c 30 a 49 c 12 a 4 c 1 f 36 
3 e 0 j 82 e 27 
7 f 0 h 41 f 2 h 2 f 21 h 2 j 59 
5 c 0 f 46 a 7 f 2 h 104 
2 c 0 f 21 
2 e 0 j 79 
11 c 0 a 79 f 5 c 38 f 10 c 36 g 117 c 4 a 13 f 8 c 81 
5 c 0 f 97 c 61 g 130 c 18 
12 c 0 g 27 c 16 f 104 c 52 a 105 f 12 h 22 f 4 c 42 f 47 c 43 
9 f 0 a 44 f 1 h 249 f 3 a 120 f 2 h 6 f 27 
3 c 0 f 142 h 87 
11 c 0 a 56 f 10 h 103 f 16 h 16 f 21 a 62 c 16 a 2 f 20 
17 c 0 g 27 c 5 g 6 c 3 f 54 c 6 f 71 c 20 g 67 c 29 a 26 f 6 c 74 f 54 h 37 f 7 
12 f 0 a 55 f 2 h 36 f 101 a 71 c 7 a 20 f 13 h 87 f 3 h 1 
9 c 0 a 260 f 9 h 57 f 29 c 54 a 9 f 11 c 66 
5 f 0 h 51 f 4 h 61 f 14 
5 c 0 a 26 f 8 h 13 j 90 
3 c 0 f 365 c 24 
7 c 0 a 59 f 12 h 20 j 59 h 101 j 161 
12 f 0 c 19 a 5 c 5 a 5 c 2 a 24 f 3 c 6 f 10 a 193 f 24 
13 h 0 f 19 h 52 f 68 h 12 f 72 a 23 h 60 j 28 h 99 j 4 h 23 j 27 
12 h 0 f 3 h 41 f 21 h 24 f 5 h 18 f 18 a 100 f 1 h 84 j 31 
15 f 0 c 3 a 34 c 3 a 4 c 8 a 3 f 4 a 1 f 8 c 120 g 74 c 17 f 94 c 121 
17 c 0 a 41 c 5 a 17 f 13 a 2 f 3 a 1 f 5 c 168 a 36 f 10 c 85 f 10 c 11 f 6 c 55 
10 c 0 a 9 f 11 h 33 j 90 h 14 j 38 h 68 j 28 h 168 
4 c 0 a 63 f 18 h 20 
8 c 0 a 21 f 12 a 9 f 3 h 15 j 33 e 77 
1 c 0 
6 f 0 c 57 f 10 c 10 g 71 c 43 
5 j 0 h 1 j 110 h 56 j 151 
3 c 0 f 55 h 108 
4 j 0 h 20 j 30 h 15 
10 f 0 a 5 f 38 a 70 f 24 h 7 f 3 h 4 f 13 h 23 
12 c 0 g 14 c 4 g 41 c 4 f 36 c 96 a 99 f 14 c 101 f 16 c 62 
8 f 0 c 11 a 55 f 29 h 16 f 84 h 135 f 74 
2 h 0 j 70 
5 f 0 h 12 j 68 h 33 j 112 
5 c 0 f 10 c 153 a 141 f 12 
2 h 0 j 68 
2 e 0 j 131 
4 c 0 g 54 c 16 f 316 
11 c 0 g 275 c 13 a 32 f 10 a 10 f 1 h 53 j 52 h 27 f 29 
10 c 0 g 16 c 8 f 99 c 85 a 115 f 4 c 110 f 2 c 4 
2 e 0 i 102 
3 c 0 g 19 c 32 
4 c 0 a 100 f 6 h 158 
10 f 0 a 56 f 1 c 151 f 2 c 29 a 39 f 11 h 36 j 86 
13 c 0 g 81 c 4 f 40 c 94 f 29 c 13 a 32 f 25 h 40 f 23 h 44 f 22 
6 c 0 g 22 c 30 f 122 h 53 f 24 
9 c 0 g 23 c 9 f 103 c 82 a 109 f 8 h 28 f 98 
4 h 0 j 87 h 2 f 68 
3 c 0 g 43 c 11 
5 c 0 g 28 c 37 f 139 h 50 
10 a 0 f 49 h 3 f 26 c 48 a 45 f 14 h 28 f 10 h 4 
14 c 0 a 1 f 21 a 45 f 2 c 36 a 22 f 2 c 72 a 61 f 11 a 7 f 2 a 16 
6 f 0 h 176 f 13 c 75 a 19 f 13 
13 h 0 f 34 a 23 f 14 h 18 j 39 h 72 f 40 c 23 a 21 h 28 j 33 h 32 
9 f 0 a 15 f 51 h 92 f 33 a 34 f 93 h 42 j 100 
2 g 0 c 12 
14 c 0 g 17 c 22 g 3 c 5 g 188 c 8 g 8 c 1 g 39 c 5 g 221 c 2 g 12 
11 c 0 g 28 c 12 g 43 a 23 c 5 a 13 f 16 h 67 f 19 c 104 
11 c 0 f 173 c 6 f 12 c 28 f 17 c 23 f 103 c 59 f 46 c 10 
10 c 0 g 21 c 25 f 130 c 33 a 101 c 11 a 1 f 14 c 92 
6 a 0 f 20 c 69 g 100 c 23 a 73 
2 c 0 f 23 
3 j 0 h 1 j 68 
6 c 0 f 75 h 36 f 13 a 134 f 8 
13 g 0 c 53 a 13 c 1 a 5 c 7 f 122 c 4 a 271 f 1 c 34 f 3 c 1 
4 h 0 f 26 a 45 c 14 
4 h 0 f 31 c 67 g 82 
10 c 0 a 37 f 18 a 5 f 1 h 13 f 60 a 74 c 7 a 4 
7 c 0 a 25 f 14 h 7 f 144 a 19 c 6 
8 h 0 j 97 h 93 f 58 a 25 h 15 j 43 h 56 
8 h 0 f 25 c 69 a 44 c 2 f 2 a 4 f 4 
3 c 0 g 6 c 31 
2 h 0 f 83 
12 a 0 c 1 g 11 a 14 f 38 h 60 f 29 h 27 f 31 a 22 f 36 h 213 
10 c 0 f 73 c 100 g 48 c 47 a 58 f 11 h 16 f 46 c 88 
12 g 0 c 14 g 6 c 7 g 35 c 2 f 48 c 86 a 113 f 4 h 53 f 13 
16 f 0 a 127 f 2 a 7 f 18 a 2 c 5 a 36 f 23 a 47 f 40 h 15 f 58 h 6 f 9 h 95 
1 j 0 
7 c 0 g 105 a 28 f 68 h 6 f 11 h 2 
3 j 0 h 70 f 82 
5 a 0 f 43 a 13 f 5 h 33 
3 c 0 g 83 c 90 
1 e 0 
3 h 0 f 21 c 37 
3 h 0 f 75 h 16 
1 i 0 
4 e 0 j 9 e 21 j 44 
13 a 0 f 42 a 3 f 1 a 33 f 1 h 48 j 60 h 4 f 59 a 21 h 27 j 40 
4 e 0 j 162 e 118 i 53 
6 c 0 a 18 f 6 h 3 j 12 e 20 
7 c 0 a 10 f 7 h 4 j 16 e 15 i 30 
3 g 0 a 38 h 31 
2 g 0 c 67 
2 c 0 f 24 
3 h 0 f 8 c 81 
7 f 0 h 16 f 15 h 12 f 60 c 151 f 30 
1 c 0 
8 g 0 c 20 g 12 c 1 f 80 c 60 g 56 c 41 
4 j 0 h 2 f 9 c 23 
11 c 0 g 20 c 7 a 69 f 10 h 45 j 31 h 67 f 28 h 62 j 26 
6 c 0 a 12 f 43 a 5 f 1 h 42 
4 c 0 g 10 a 70 f 41 
4 j 0 e 28 j 102 h 26 
3 j 0 e 18 j 111 
3 h 0 f 7 a 12 
2 e 0 i 105 
3 f 0 h 16 j 31 
9 f 0 c 1 a 8 f 21 c 30 f 25 c 23 f 8 c 122 
5 e 0 j 26 h 21 f 46 h 13 
7 c 0 a 17 f 9 a 181 c 11 a 1 f 56 
9 h 0 f 3 a 35 f 11 c 28 a 26 c 6 a 24 c 16 
12 a 0 c 5 a 1 f 31 a 25 f 15 a 11 f 12 h 146 j 79 e 66 j 42 
6 c 0 a 58 f 25 a 15 f 4 c 75 
3 f 0 h 47 f 91 
3 e 0 j 36 h 60 
6 g 0 c 27 g 163 a 36 c 10 g 4 
4 c 0 a 13 f 10 h 17 
4 c 0 f 44 h 35 f 76 
6 g 0 c 33 g 242 c 56 f 74 c 45 
16 a 0 h 10 j 34 h 17 f 97 a 43 f 69 h 33 f 38 a 56 f 11 h 27 f 15 a 48 f 5 a 10 
12 a 0 f 10 c 1 a 3 f 13 h 57 a 90 f 6 a 6 h 58 f 116 h 67 
4 c 0 a 42 f 7 a 8 
2 j 0 e 66 
1 h 0 
7 c 0 a 92 f 3 c 7 f 34 h 54 j 28 
2 h 0 j 135 
4 e 0 j 5 h 24 f 28 
8 j 0 h 3 j 90 h 101 j 7 h 4 j 1 h 8 
1 c 0 
3 c 0 g 155 c 73 
7 a 0 h 30 j 83 h 172 j 57 e 55 j 98 
18 g 0 a 17 f 18 h 6 j 69 h 81 f 22 a 7 f 26 h 37 j 33 h 46 f 25 c 29 a 31 f 12 c 9 a 65 
7 f 0 a 11 f 7 a 187 f 32 h 212 f 55 
22 f 0 a 15 f 2 a 104 f 2 a 3 f 3 a 4 c 2 g 28 c 22 g 3 c 32 f 46 a 12 f 5 c 12 f 2 c 19 f 10 c 66 f 62 
2 h 0 f 113 
9 c 0 g 239 c 6 g 8 c 6 g 1 c 9 f 27 c 146 
