0,4,11
0,1,18,24,18,24,18
0,2,3,14,20,14,20,30,19,30,13,5,13,5,16,15
0,12,2,3,5,16,15,16,8,20,27,6,9
0,2,12,2,3,14,20,27,6,4,11,21
0,2,12,2,3,28,31
0,1,18
0,12,2,12,2,10,7,10,18
0,2,12,2,3,14,20,27,33
0,12,2,10,7,12,2,10,7,10,18,16,15,16,15
0,2,12,2,10,7,3,5,1,15,1,15,1
0,2,3,5,13,5,16
0,4,6,9,6
0,9,25,29
0,12,2,10,7,10,7,3,17,13,5,1
0,2,3,5,13,5,1,13,17,19,30,13,5,16,25,29
0,2,12,2,10,13,17,19,20,28
0,2,12,2,12,2,3,5,1,7,3,4,8,16,8
0,3,4,11,32
0,3,28,16,8,13,5,16,6,9,6
0,2,3,28,31
0,2,3,5,1,18,16,6,4
0,3,4,6,4,6
0,3,14,20,27,6,4,11,32
0,2,3,14,20,27,6,4,6,9,25
0,2,3,14,20,28,31,28,31,28,31,30,19,20,27,8,16,6,4
0,12,2,3,17,18,24,18,24
0,12,2,10,7,10,7,10,18,16,15,1
0,2,10,7,10,7,10,7,10,7,10,13,5,13,4,6,9,6
0,2,10,7,10,7,10,7,10,18,1,15,1,15
0,2,3,5,13,4,8,13,5,13,5,16,15,16,15,16,25
0,2,12,2,3,4,8,20,30,13,14,20,27,25
0,2,3,5,1,13,14,20,27,6,4,6,4
0,5,16,6,9
0,2,3,28,31,28,31
0,1,15,1,15
0,2,3,5,13,5,13,5,1,15,16
0,2,3,28,31
0,3,4,6,4,6,4,6
0,4,6,9,6,4,11
0,12,2,10,7,10,13,17,19,30,13,5
0,1,18,1
0,3,28,31,28,31,28,31,30,13,17,13,5,16
0,6,4,8
0,2,3,17,13,17,19,20,28,16,15,16
0,1
0,12,2,10,13,17,18,24
0,2,10,7,10,7,3,17,13,17,13,17,19,13,5
0,3,4,8,20,30,19,20,28,16,15,16,8,1
0,2,10,13,5
0,1,18
0,1
0,1,15
0,2,10,7
0,1,15,1,7,10
0,3,17,13,5,16,6
0,5,16,15
0,25,29
0,2,3
0,12,2,10,7,10
0,5,16,15,16,15,16,8
0,3,14
0,12,2,10,7,10,18,16,15
0,2,10,13,5,16,15,16,6
0,5
0,2,10,13,5,16,8,16
0,1,15,1,15
0,2,10,7,3,14,20,27,6
0,5,1
0,6,4
0,1
0,2,3,4,6
0,4,11
0,9,25
0,3,28,31,30,13,17,13,5,16,6,4
0,3,4,11,32
0,3,4,8,20,14,20,27,8,20,27,8,16,6,4,8
0,2,10,7,3,5,16,15,1,15
0,12,2
0,3,5,13,17,13,17,19,12,2,10,7,10,18,24
0,2,3,14,20,30,13
0,9,6,9,6
0,25,29
0,12,2,3,4,8,20,14
0,3,17,19,13,5,13,5,16,8,1
0,3,28,31
0,2,10,7,10,7,3,17,13,17,13,14
0,2,10,7,3,5,16,8,16
0,2,10,7,10,7,10
0,4,8,20,30,19
0,1,13,5,16,6,9,6
0,2,10,7,10,7,10,7,10,18,1
0,2,3,28,31,28,31,30,19,13,17,19,30,19,13,5,16,6,4,8
0,2,3,5,13,5,13,5,13,5,13,5,16,6
0,3,28,16
0,12,2,10
0,1,18,1
0,3,28,31,30,19,30,19,30
0,1,7,10,13,17,19
0,4,8,16,25,29,33
0,3,4,11,32
0,1,15,16,6,4,8,1,13,17,13
0,2,10,13,17,13,17,19,30,19,30,13,5
0,4,6
0,5,13,5,13,4
0,3,4
0,9,6,4,8,1,13
0,2,10,7,10,7,10,7,10,7,10,7,10,7,10,7,10,18,1,7
0,2,10,7,3,4,8,16,6,4,6,4
0,3,4,6,4,11
0,3,17,13,17,13,17,13,4,8,16,6
0,2,3,4
0,3,14,20,28
0,5,16,6,9
0,2,10,13,17,19,30,13,17,13,17,13,5,1,15,16
0,5,13,17,13,17,19,30
0,3,5,16,15,31
0,5,16,15,16,6
0,1,7,10,7,10,7,3,28,16,6,4,8,16
0,25
0,4,6,9,6,9,25
0,3,28,16
0,2,10,7,10,18,24,18,24,18
0,2,3,4,6
0,25,29
0,4,8,13
0,3,17,19,30,19,30,19,30,13,17,13,17,13,5,16,6,9
0,2,10,7,10,7,10,7,10
0,1,15
0,2,10,13,17,13,5,13,5
0,1
0,5,1
0,12,2,10,7,12,2,10,18,24
0,3
0,4,8,1
0,6
0,1,15,16,6,4,8,1,13
0,5,13,5,1,7,10
0,6,4,8,1,15,1,15,1,15,1,15
0,2,3,14,20,28,16,6
0,5,1,15,16,8,1
0,4,6,4,6
0,3,5,16
0,12
0,5,16,6,9
0,2,3,17,13,17,13
0,6,4
0,4,8,16,6
0,5,1
0,5,1
0,4,8,13,5,16,15,16,6,4
0,9,6
0,6,9,25
0,4,6,9
0,25
0,6,9
0,9,6
0,3,28,31
0,6,9,6,4,6,9,6,9
0,3,14,20,27,8,20,27,6,4,6,4
0,3,4,6,9
0,1,18
0,2,12,2,10,7,10,7,10,18,1,7,10
0,3,5,13,5,13,5,13,5,13,5,13,5,16,15,16,6,9,6
0,25
0,4,6,4,6,4,6,9
0,2,10,7,10,7,3,5,1
0,25,29,33,4,8
0,2,10,7,10,7,10,18,24,18,24,18,24
0,3
0,12,2,3
0,3,4,6
0,4,8
0,1,15,1,15,31
0,2,10,7,10,7,10,7,10,18,24,18,24
0,3,17,13,14,20,30,13,5,16,15,16
0,3,28,31,28,31,28,16,6,9
0,1,7,10
0,2,3,17,13,17,18
0,6,4,8,16,8
0,2,3,17,13,5,16,6
0,5,1,15,1,15,1,13,5,1,13,17
0,3,17,19,13,5,16,6,4,8
0,3,4,8,16,15,16,8,16,15,16,15,16
0,1,13,17,13,17,13,5,16,8,16,6
0,2,10,7,3,5,13,5,16,6,4,8,1
0,3,4,11,32
0,1,7,10,7,10,18
0,2,10,7,10,13,17,13,5,13,5,1
0,3,5,13,5,13,17,19,13,5,16,15,16,15,16,15
0,12,2,10,18,1
0,1,13,17,19,20,28,16,15,16,8,1,13,5,16,15
0,1,7,10,7,10,13,5,1,15
0,1,7,10,7,10,7,3,28,16,8,16,15,16,8
0,4,11,32
0,2,10,13,5,1,18,24
0,2,3,4,8,16,15,1,7
0,1,7,10,18,24,18,1,15,1,15,1
0,2,10,7,10,13,17,18,1,15,1
0,3,14,20,30,13,17,13,5,16,8,16,15,31
0,3,4,11
0,3,5,1,13,14,20,27,8,16,15,16,15
0,2,10,18,24,18,24,18,24,18,24
0,6,4,8,13,5,13,5,13,4,6,9,25
0,2,3,28,16,6,4,8,1,13
0,4,6,9
0,1,13
0,1,15,16,8
0,1,15,16
0,2
0,2,12,2,10
0,25,29,33,4,8,1,15,1
0,2
0,3,17,13,5
0,1
0,6,4,8,1
0,1
0,9,6,4,8,16,6,9
0,3,5,13,14,20,27,25,29,33
0,2,3,5,16,25,29
0,2,3,17,13,17,18,16,8,1
0,4,8,13
0,1,7,3,4,6
0,4,6
0,9,6,4
0,5,16,8,1,15,1,15,16
0,5,1,15
0,4,11
0,1,15,16,25
0,5,16,15
0,3,4,8,20,27,6,9,6,4
0,3,14,20,30,19,30,19,30,13,5,16
0,3,5,16,25
0,3,17,19,20,27
0,1,15,31,28,16,8,1,15,1
0,3,17,13,17,13,17,13,4,8,16
0,9,6,4,6,4,6,4,8,20,28,31
0,2,10,7,10,18,16,8,1
0,12,2,10,13,5
0,1,7,10
0,2,10,13,17,13,5,16,8,16,8,16,15,31
0,12,2,10,7,3,5,16,8,1
0,1
0,2,10,7,10,18
0,9,6,4,8,1
0,2,10,7,10,13,5,16,6,4
0,1,18
0,5,13,5,16,6
0,2,3,4,8
0,6
0,4,11
0,2
0,2,10,18,1
0,3,17,13,4,6,9,6,9,6,4,8,16
0,2,12,2,3,5,16,8,1,15,1,15,31
0,3,28,31
0,4
0,2,10,18,1
0,1,7,10,7,10,7,10,18,24,18,24,18,1
0,2,12,2,10,18,16,8,1
0,4,6,4,6,9,6
0,3
0,4,11,32
0,3,5,16,6
0,1,15,16,6
0,1,7,10,7,3,17,13,17,13,17,19,30,13,5,1,15,1,15,1
0,2,12,2,10,13,5,16,6,9,6
0,1,13,17,13,17
0,2,3,4,6,9,6,4
0,9,6,9,25,29,33
0,2,3,17,18,24
0,3,5,13,17,13,17,18
0,6,4,8,1,15,1
0,2,3,5,1,18,1,7,10,7,10,7,10
0,9,6
0,5
0,4,11
0,5
0,2,3,14,20,27,6,4,6,4,8
0,2,3,5,1,15
0,5
0,9,6
0,3,5,13,5,13,4,6,4,6
0,2,3,5,16,15,16,6,9
0,4,11
0,6,4
0,3,5,13,5,13,5,16,15,16,6
0,9,6,4,8,1
0,3,5,13,5,1,18,1
0,5,1
0,1,7,3,17
0,6,4,8,16
0,12
0,2,10,7,10
0,4,8,1,18,24,18,24
0,1,7,10,7,10,18
0,4,6,4,8,1
0,2,3,4,6
0,1,15,16,6
0,5,16
0,9,6
0
0,1,15,1
0,1,15,31,28,31,28
0,6,4,6,9,25
0,5,1,15
0,1,15
0,4,6,4,6
0,1,13,5,13,5,1,13,5,13,5,1
0,2,3,5,13,4,8
0,3,17,19,20,30,19,30,13,5,16,8,16
0,6,4
0,3,4
0,6,4,8
0,6,4,8,1
0,3,28,31
0,6,4
0,6,9
0,3,5,16,25,29
0,1,15,16,6
0,4,6,4
0,25,29,33,4
0,5,1
0,1,7
0,9,6,4,8,1
0,3,5,13,4,6
0,25,29
0,5,16,15,16,15
0,6,4,8,16,15
0,1
0,2,10,13,5,16,6,4,8,1
0,3,14,20,27,25,29
0,5,16,25
0,25,29,33,4,8,16,15,16
0,4,11
0,1,15,16,25,29
0,25
0,1,15,16,15
0,2,10
0,5,1
0,9,6,4,8,1
0,3,5,13,5,13,5,16,15,16,6,4,6,4
0,5,1,13,17
0,1,15,16,6,4,6
0,6,4
0,5,13,17,19,20,30,13,17,13
0,3,5,16,15,16,8,1
0,3,5,13,5,13,5,16,8,16,8
0,6,4,8
0,4,6,9,25,29
0,6,9,6
0,2,3,5,16,15,16,6
0,5,16,8
0,25,29
0,4,6
0,6,9
0,4,6,4
0,3,4,6,4
0,3,4
0,1
0,6
0,6
0,1,15,16,6
0,3,4,6,9,6,9,6,9
0,25,29,33,4
0,2,10
0,9,6,4,8,1
0,3,5,13,5,13,5,16
0,1,18,24
0,1,13,17,13,5
0,25,29,33,4,8
0,2,10
0,3,5,13,5,16,15,16,8,13,5,16,15,16,15
0,12,2,10
0,2,10
0,4,6
0,1,15,16,15
0,6,9,25
0,1,18
0,2,10,18
0,1,18,1,7,10,7
0,2,10,7,10,18,16,8
0,3,4,6,9,6,4
0,3,4,8
0,6
0,3,28,16,6,4,8,13,5,1
0,2,10,18,1
0,6,9
0,6,9,6,4,8,16,8,16,6
0,3,4,6,9,25,29,33,4,8
0,2,3,17,13,5,16,8
0,2,10,18
0,5,16,15,16,15,16
0,2,10,13,5,16,8,1,7
0,1,15
0,25,29,33
0,3,5,16,8,16,15,16,8,16,15,16,6
0,4,11,32
0,5
0,5,16,15,16,6,9
0,2,3,4,6,9,6,4,8
0,1,7,3,17,13,17,18
0,1,15,1,18,24,18
0,6,4,8,13,17
0,3,4,6,4,6,4,6,4,8,1
0,5,1
0,3,4,6
0
0,1,15,16,8,16
0,3,4,6,4,6,9,25
0,1,15,16
0,2,10,7,10,18,1,15
0,6,4,8
0,2,3,5
0,3,4,8,16,8,16,8,16,6,4
0,12,2,10
0,3,4,6,9,25
0,9,6,4,8,1,13,5,1
0,3,4,6,9,25,29
0,4,6,9,6,9
0,25
0,9
0,2,10,18,24,18,24
0,1,18,1,7
0,2,10,13,5,16,6,4,8,13,5,1
0,3,17,13,5,16,6
0,2,3,17,13,5,16,6,4,6,4,6,9,6,4
0,2,3,17,18,24,18,1,15,1,7
0,3,5,13,5,1
0,2,10,13,5,1,15,16,8,16,25
0,2,10,7,10,13,17,18
0,1,13,5,13,5,16,15,16,6,4,8,1,13,5,1
0,3,4,6,9,6,4,8,13
0,2,10,18,24,18,24,18,24
0,2,10,18,1,7
0,6,4,8,1,15
0,5,13,5,13,4,6,4,6,4,6
0,5,16,8,16
0,1,18,24,18,24,18,16,8,1,7,10
0,1,18,24,18
0,3,5,16,15,16,6,9,25,29,33
0,3,4,6,9,6,4,8,16,6,9,6
0,6,9
0,4,6,4,6,4
0,1,13,5,16,6,4,8,16
0,5,13
0,4,6,4,8,13,5
0,3,5,16,15,16,6,4,11,32
0,12,2,10,18,24,18,24
0,1,13,5,16,6,9,6
0,25,29,33
0,4,6,4,6,4
0,1,13,17,18,24,18,1
0,3,4,6,9,6,4,6,9,6,4
0,3,5,13,4,6,4,8,16,6,4,8,20,28
0,1,18,1,7
0,1,15,1,13,5,13,5,1
0,1,18,1
0,1,18,24,18,24,18,1,13,17,13,17,19,12,2,12
0,1,18,1,15,1,15,1,13
0,1,18,16,8,16,8,13,14
0,2,10,18
0,3,14
0,1,7,10,7
0,2,12
0,1,18,16,8,16,15,1
0,6,4,8,16,6,4,8,13,5,13
0,2,10,7,3,5,1,7,12
0,5,16,8,13,17,19,20,14,20,14
0,5,16,8,13,5,1
0,5,16,15,16,8,1,13,5,16,6,4,6,4
0,1,7,10,7,12
0,1,13,5,1,15,1
0,1,13,5,16,8,1,15,1,18,24
0,3,14
0,1,18,1,15,1,15,1
0,3,5,16,6,4,8,20,30,19,13,4,6,4,11,21
0,1,13,5,16,15,31,30,13,5,13,14
0,9,25
0,6,9
0,5,16,15,16,15,16
0,1,7,10,7,12,2
0,5,16,6,4,8,16,8
0,6,4,8,20,14,20
0,6,9,6,4,8,20,14,20,27,25,29,33,4,8,20,14
0,1,15,1,15,1,13,5,1,13,5,13,17,13,17,19,12,2
0,5,1,18
0,1,15,16,8,16,15,1,7,10,7,10,7
0,5,1,18,1,15,1,13,17,19,12,2
0,1,18,1,15,1,7,3,4,6,4,11,21
0,1,18,24,18,24,18,24,18,24
0,1,18,24
0,1,18,24,18,16,6,4,8,1,7,3,5,16,8,13,5,1,13,17,19,12,2,3
0,4,8
0,9,6,4,8,1,15,31,28,16,8,20,14
0,5
0,1,15,16,8,16,8,20
0,4,6,9,6,9,6,4
0,5,1,15,1,7,12,2,3,4,6,4,8,20,14
0,5,1,15,31
0,1,13
0,4,6,4,8,20,14
0,5,16,8,16,8,20,14
0,5,16,15,1,15,1,13,14,20,27,8,13,17,19,12,2,12,2,3,4
0,5,16,8
0,1,15,1,7
0,4,6
0,5,13,5,13,5,16,15,16,6,9
0,6,4,8,16,15,31,30,13
0,5,16,8,1,7,12,2,3,14,20,27,8,20,14
0,5,16,6
0,6,4,8,13,4,6,4,8,13,14,20,14
0,5,16
0,1,7,12,2,3,14,20,27,6,4,8,20,14
0,5,1,15
0,6,4,6,4,8,13,5,1,7,12,2,12,2
0,5,16,6,4,6,4,8,13
0,5,1,13,17,18,24,18,24
0,5,16,6,9
0,1,13,5,13,5,1,13,4
0,5,16,8,1,7,12,2
0,6,9
0,4,6,4,11,32
0,2,10,13,5,16
0,4,8,16,6
0,5,13,5,13,5,13,17,19,13,5,13
0,5,16,6,4,11,21
0,1,18,1,7,3,4
0,25,29,33,4,8,20,14
0,5,16,6
0,1,15,1,13,5,13,5,16
0,4,8,1,7,12,2,12,2,3
0,1,15,16,6,4,6,4,8,1,7,12,2,3,4
0,5,13,14
0,1,18,24
0,1,7,12,2,12,2,12,2,10
0,5,1,7,12,2,3,4,6,4,8,20,14
0,1,15,16,6,4,8,20,14,20,27,6,9,25,29,33,4,11,21
0,9,6
0,6,4,11,32
0,4,6,4,6,4,6,4,8,1
0,9,6
0
0,1
0,5,1,7,12,2,12,2,3,5,16,15,31,30,19,12,2,3,14,20,30
0,4,8,20,14,20,27,25
0,1,7,12,2,12,2,3,4,6,9
0,6,9
0,5,1,13,17,13,5,1,13,5,1,7,12,2,12,2,3
0,5,16,8,16,15,16,8,13,4
0,3,5,13,5,16,15
0,6,4,6,4,8,13
0,1
0,25,29
0,1,18,1
0,1,18,24,18,1,13,17,19,12,2,12,2,3
0,5,16,15,16,8,13,14,20,30,19,20,27,8,20,14
0,1,7,3,4,6
0,25,29,33,4,8,20,14
0,1,15,31,28,31,28,31,28
0,1,18,24,18,1,7,12,2,12,2,3,17,13,17,13
0,1,15,31,28
0,1,18
0,6,9,6,4,8,20,30,19,20,28,16,6
0,5,16,8,20,14
0,5,13,4,8,16,15,31,30,13,17,19,20,14
0,6,4
0,1,15,16,15,16,6,4
0,1
0,5,1,7,10,7,10
0,5,1,7
0,9,6,4,8,20
0,1,18,24,18
0,1,7,10,7,12,2,12,2,3,17,13,5
0,4,8,16,8,13,14
0,1,15
0,9,6,4
0,5,13,14,20,27,25
0,1
0,1,15,1,13,17,19,12,2,3,4,8
0,1,13,5,16
0,1,13,5,16,8,16,8,20
0,1,7,12,2,10,7,12,2,3,14,20,30,19,12,2,3,17,19,30,19
0,5,1,15,16,25
0,9,6,4,8,1
0,1,13,5,16,6,4,8,13,5,13
0,9
0,4,6,4,6,4,8,20,28,31
0,6,4,6,4,6,4,8,20,14,20,28,16
0,1,7,12,2,12,2,3,4,8,13
0,1,13,5,13,14
0,9
0,9,6,4,11,21
0,1,7,10,7,10
0,5,1,15,31,28,31
0,5,16,8,16,8,1
0,6,4,8,16,8,1
0,1,7,12,2,3,14
0,4,8,20,14,20,27,25,29,33,4,11,21
0,5,1,13,17,19,12,2,3,4,8,20,14
0,5,16,15,16,8,16,15,16,8,20,30,13,17,19,30
0,4,8,16,6,9,6,9,6,9,6
0,1,15,1,13,5,1,15,1,15,1
0,6,4,11,21
0,5,1,15,1,13,5,1,15,1,7,3,4,11,32
0,6,4,6,4
0,1,13,5,1,7,12,2,3,5,13,5,1,7,12,2,12,2,12,2,3,4,6,9,25
0,5,1,7,3,5,1,7,12,2,12,2,3,5,13,4,8,20
0,6,4,8,1,15,16
0,1,13,5,16,15,1,7,12,2,12,2,10,13,5,1
0,4,8,13,5,1,7,3,4,8
0,4,6,4,8,1,7,3,4,6,4,8,20,14
0,5,1,13,5,13,5,13,17,13,14
0,4,8,16,6,9
0,1,7,10,7,10
0,1,7,10,7,10,7,10,7,10
0,4,8,13,4,6,4,8,20,14,20,14
0,4,8,13,5,1
0,6,4,8,16,15,16
0,6,4,8,13,14,20,28,31
0,5,13,5,16,8,13,5,13,5,13,17,19,12,2,3,17,19,12,2,3,14
0,1,7,10,18
0,1
0,5,1,15,1,7,12,2,12,2,10,7,3,5,13,5,13,17,13,17,13
0,4,8,16,15,1,7,3,5
0,6
0,1,15,1,7,10,13,17,19,12,2,3
0,2
0,6,4,6,4,6
0,1,15,16,8,20,14
0,9,6
0,4,6
0,9
0,1,7,12,2,12,2,3,4
0,2,10,7,3
0,5,1,13,5,13,5,13,5
0,1,7,12,2,12,2,10,7
0,6
0,5,1,7,12,2,10,13,5,13,17,19,12,2,12,2,10,7,10,7
0,1,7,12,2,3,4,8,20,14
0,4,8,20,27,25,29
0,1,13,5,13,5,1
0,25,29,33,4,8
0,25,29,33,4,8,1
0,6,4,8,20,14,20,27,8,20,27,33
0,5,13,4,8,13,14
0,3,17,13,5,13
0,9,6,4
0,4,8,13,17,19,12,2,3,4,8,20,14
0,3,4,11,21
0,1,7,12
0,2,10,7,10,7,12,2,12
0,2,12,2,10,7
0,1,7,12,2,10,7,12
0,2,12,2,12,2,10,7,10,7,10,7
0,5,1,13,5,16,8,16
0,1,13,5,13,5,13,5,13
0,6,4,8,20,27,25
0,6,9,25
0,1,15,31,30,19
0,4,8,16
0,5,1,15,1,13,17,19,12
0,3,5,13,17,19,12,2,10,7,3,14
0,4,8,13,14,20
0,12,2,3,14
0,3,14
0,1,7,3,14,20,28,16,8,20,14
0,4,6,4,6,4,11
0,1,13,17,13,17,13,17,13,17,19,30
0,5,16,15,1,7,3,4
0,9,25,29
0,5,13,17,19,12,2,3,5,13,14,20,14
0,5,13,17,19,12,2,10,7,10,7,10,7,10,7,12,2,12,2,3
0,5,13,5,13,17,13,17,19,20,28,16,15,31
0,1,13,4,6,4,8,1
0,25,29,33,4,8
0,1,7,12,2,10,7,3,17,19,12,2,3,17,19,30,19
0,9
0,4,8,20,27,33,4,11
0,1,7,10,7,12,2
0,5,13,17,19,12,2,10,7,12,2,12,2,10,7,12,2,10
0,6,4,8,13,5,13,4,6,4,6,4,8,20,14
0,5,13,17,13,14
0,2,10,7,10,7,10,7,10,7,10,13,5,1,7
0,9,6
0,9
0,6
0,9,25
0,1,7,12,2,10,7,10,7
0,5,16,15,31,30,19,20
0,6,4,8,1,7,3,17,19,12,2,12,2,3,17,19,13
0,2,3
0,1,13,17,19,30
0,4,6,4,8,20,14
0,4
0,5,13,17,13,5,16,15,16
0,1,7,10
0,1,15,16
0,5,13,5,13,17,13,5,16
0,6,9,25,29
0,5,1,7,12,2,10,13,5,1,7,10,7,10,7,12,2,12,2,3,28,31,30
0,6,4,8,20
0,1,7,10,7,10,7,10,7,12,2,12,2,3,17,19,30,19
0,1,15,16,25
0,5,1,13,17,13,5,1,13,5,16,15,1,7,10,7
0,4,8,13,17,13,17,13,5,13,5,1,13,17,19
0,4,11,21
0,4,6,9,6,9
0,4,11,21
0,1,7,12,2,10,7,12,2,10,7,10
0,3,17,19,12,2,12,2,3,4,11,21
0,1,15,16,15
0,1,7
0,1,15,1
0,4,8,13,5,13,17,13,4,6,4,11,21
0,2
0,1
0,1,7
0,1,18,24
0,1,7,12,2,3,4,8,16,15,31
0,6,4,11,21
0,5,1,7,3,14,20,30,19
0,12,2,10,7,12,2,12,2,3,5,13,5,13,17,13,17,19
0,1,7,3,17,19,30,13,5,16
0,5,13,5,13,5,1
0,4,6,9
0,6,4,11
0,9
0,4
0,9,6,9
0,1,13,4,6,4
0,9,25
0,1,15,16,25
0,4,8
0,5,13,17,19,13,5,13,17,19,12,2,3,17,19,30,19,13,17,19,30,19,20,14
0,6,4,11
0,5,1,7,3,4,11,21
0,4,6,4,8,20,14
0,4,8,20,14
0,6,4,8,20,27,33,4,6,4
0,5,13,17,19,30
0,6,4
0,6,4,8,16,8
0,4,11
0,5,1,7,12,2,3,5,13,4,8,20,14,20,14
0,25,29,33
0,5,13,5,16,6,9,25,29
0,9,6,4,11,21
0,2,10,7,12
0,1,7,12,2,10,7,10,7,10,7,12,2,10,13,5,13,5,13,5,1,13,14
0,5,13,5,16,8,13,5,16,8,13,5,13,5,13,4,8,13,17,19,12,2,12
0,6,9,6,4,11,21
0,3,14,20,14
0,1,7,10,7,12,2,3,17,19,12,2,10,13,17,19,12,2
0,5,1,7,12,2,3,17,19,20,30,19,12,2,3,14
0,4,8,20,14
0,1,7,12,2,12,2,12,2,12,2,10,7,12,2,12,2,10,7,10,7,12,2,12,2
0,1,13,5,16,8,20,28,31
0,5,13,5,13,5,13,5,13,4,6,4,6,4,8,20,27,8,16,8,13,4,11,21
0,25
0,6,9
0,4,6,9,25
0,6,4
0
0,3,14,20,27,8
0,1,7,12,2,3,17,19,12,2,3,14
0,5,13,17,19,12,2,3,17,19,30,19,12,2,12,2,12,2,12,2,10,7,12,2
0,6,9,6,4
0,1,13,4,11,32
0,1,7,12,2,3,14,20,27,8,20,30,19,12,2,3,14,20,14
0,5,13,5,13,4,6,9,6,4,11,21
0,25
0,4,8,1
0,1,13,5,1,13,17,13,14
0,1,15,1,7,12,2,3,17,19,30,19,12,2,12,2,12,2,3,17,19,30,13,17,19,12,2
0,1,7,12,2
0,25,29,33,4,11,21
0,5,13,5,13,5,13,5,16,6,4,8,13,5,13,14
0,3,4,6,9
0,1,13,5,13,4,6,4,8,20,28,31
0,6,4,11
0,2,10,13,4,11,21
0,1,7,10,7,10,13,17,13,4
0,1,13,5,13,14
0,5,13,4,8,13,5,13,4,11,21
0,4,11,21
0,6,9,6,4,11,21
0,9,6,4,11
0,2,3
0,2,10,7,12,2,3,4,6,9,6,4,11,21
0,2,10,13,17,13,5,1,7,3,17,13,4,6,4,8,20,30,13,14
0,4,8,13,5,13,5,13,5,13,5,1,7,10,7,3,28,31,30,19,30,19,12,2,12,2,3,14
0,3,5,13,5,13,5,1
0,6,4
0
0,3,17,19,20,14
0,2,3,4,8,16,6,9
0,2,12
0,4,8,13,5,13,5,1,13,5,13,17,19,30,19,20,14
0,2,12,2,12,2,10,7,12,2,10,7,10,7,12,2,12,2,3,5,13,5,1,13,17,19,12,2,12,2
0,5,13,5,13,5,1,13
0,1,13,5,13,5,13
0,1,7,3,14,20,28,31,30,19
0,6,4,11,21
0,9
0,1,7,10,7,12,2
0,2,12,2,3,4,6,4,11,21
0,5,13,5,16,6
0,1,15,1,7,3,28,16,15,31,30,13,5,13,5,13,17,19,30
0,5,13,14
0,2,12,2,10,7,12,2,12,2,3,28
0,2,3
0,1,7,3,14
0,6,9,6,4,11,21
0,4,11
0,2,3,4,6
0,2,3,4
0,1,7,10,13,4
0,1,13,4,8,1,13,5
0,6,4,8,20,14
0,2,3,17,19,13,17,13,5,13,17,19,12,2,12,2,3,17,13,5,13,5,13,17,19,12
0,12,2,3
0,2,3,4,8,13,5,13
0,9,6,4,11
0,1,7,10,7
0,1,7,12,2,12,2,3,5,13,5,13,5,13,14
0,12,2,3
0,3,17,19,12,2,3,4,8,20,14,20,14
0,12,2,3
0,4,6,9
0,4,8,13,14,20,27,25
0,4,11,21
0,2,12,2,12,2,3,17,13,17,13,17,19,12,2,12,2,3,5,16,15,31
0,2,3,4
0,1,13,14
0,2,12,2,3
0,3,14,20,28,31,28,31
0,1,13,17,13,17,13,5,13,5,16,8,20,14,20,27,6,4,8,13,5,13,4,11,21
0,2,10,7,10,7,10,7,10,13,17,19,30,13,17,19,13,17,19,12,2
0,2,10,7,12,2
0,3,14
0,2,10,13,5,1,7,10,7,12,2,12,2,3,5,13,17,13,17
0,6,4,8,20,14
0,2,12,2,3,4,6,4,8,20,14
0,1,7,10,13,5,13,17,19,13,14
0,2,10,7,10,13,17,19,30,19,30,19,30,13,17,19,13,5,13,17,13,17,19,12,2
0,3,28,31
0,4,8,16,15,16,6,4,11,32
0,2,10,7,3,17,13,17,13,17,19,13,5,1,13,17,13,17,13,14
0,2,12,2,10,13,17,18,24
0,1,7,12,2,10
0,2,3,5,13,5,16
0,4,11,21
0,2,3,17,13,5,13,17,13,17,19,30,19,12,2,3,4,8,13,5,13,5,1,7,3,17,19,12,2,12,2,3,14,20
0,3,4,8,16
0,2,3,5,13,5,1,7,10,7,10,7,3,5,16
0,1,7,12,2,12,2,12,2,3,17,19,30,19
0,2,3,5,13,5,13,14
0,6,4,11,21
0,1,7,10,7,10,7,10,7,10,7,10,7,3,14
0,3,5,13,5,1,7,10,7,3,17,19,13,17,13,5,16,15,31,30,13,5,13,5,1,7,12,2,12,2,3
0,2,12,2,12,2,12,2,3,4
0,2,10
0,6,4,11
0,12,2,10
0,1,13,17,13,5,13,5,13,5,1,7
0,2,10,13,5,13,5,13,17,13,14,20,27,6,4,8,20
0,1,7,12,2,12,2,12,2,12,2
0,3,4,6,4
0,3,14,20
0,9,6,4,11,21
0,3,4,11,21
0,6,9,6,4,11,21
0,5,1
0,1,7,12,2,3,4,11,21
0,1,7,10,7,10,7,3,4
0,1,13,5,1,7,12
0,3,14
0,2,3,4,6,4,8,20,14
0,2,10,13,5
0,5,16,25,29,33
0,3,5,13,5,13,5,16,8,20,14,20,14
0,2,12,2,3,5,16,15,1,7,12,2,12,2,3
0,3,4,8,13,17,19,12,2,3,4
0,3,4,8,20
0,2,12,2,10,7,12,2,12,2,3,17,19
0,1,7,10,7,10,7,10
0,6,4,8
0,1,15,16
0,9,6,4,11
0,3,4,11
0,3,5,13,5,1,13,17,19,20,14,20,28,16,15,16,8,20,14,20,14
0,2
0,2,12,2,12,2
0,2,3,17,13,5,13,17,13,17,19,12,2,12,2,10,13,17
0,1,7,10,7,10,7,10,13,5,13,5,13,14
0,1,13,17,13,17,13,17,19,12,2,12,2,3,4
0,1,7,3,4
0,4,8,16
0,1,7,12,2,12,2,3,17,13,5,13,17
0,4,11,32
0,6,4,11,21
0,9,25
0,1,13,14
0,1,7,10,7,10,7,10,7,10,13,5
0,9,6,4,11,32
0,1
0,3,5,1,13,17,19,12,2,12,2,12,2,3,14
0,2,12,2,12,2,10,18
0,4,8,13,4,8,1,7,12,2,3,4,11
0,4,8,20,27
0,6
0,1,13,14
0,1,7,10,7,10,7,3,5,13,5,13,4,6
0,9,6,4,11,21
0,1,13,5,13,5,13,17,19,12,2,3,5,1,7,12,2,12,2,3,17,19,30,19,30
0,12,2,12,2,12,2,10,13,5,1,13,14
0,2,12,2,3,5,13,17,19,13,5,16,15,31,30,19,12,2,3,14
0,25,29,33,4,8,1,7
0,5,13,17,13,17,13,17,19,13,4,8,13,17,19,30,19,30,19,30,19,30,13,17,13,5,13,17,13,14
0,5,13,17,19,13,5,13,5,13,17,19,13,17,19,30,19,30,19,12,2,10
0,6,4,11,21
0,2,3,5,13
0,2,12
0,12,2,12,2,3,5,16,15,16,8,20,14
0,4,11,32
0,3,4,11,32
0,12,2,10,7,10,7,10,13,5
0,3,5,13,5,13,14,20,27,8,20,14,20,27,6
0,1,13,17,13,5
0,12,2,12,2,10
0
0,2,10,7,12,2,12,2,12,2,3,4,8,20,14
0,2,12,2,3,4,8,20,28,31,28,31,28,31
0,3,14,20,27,25
0,2,12,2,3,5,13,4,8,20,14
0,1,13,17,13,17,13,17,13,14,20,14
0,3,14,20,28,31,28,31,30,19,12,2,10,7,10
0,3,17,19,30,19,30,19,20,30,19,30,13,5,16,15,31
0,3,5,13,5,13,17,19,30,13
0,3,5,13,5,13,5,1,13,14,20,14
0,12,2,3,4,6,4,11,21
0,5,13,5,13,17,19,30,19,13,14,20,27,6,4,8,20,14
0,12,2,3,4,8,13,14
0,9,6,9
0,1,7,10,7,10,7,3,14
0,3,14
0
0,1,7,10,7,3,14,20,27
0,6,9,6,4,8,20,14
0,2,10,7,3,17
0,3,17,13
0,3,5,13,5,13,5,13,5,13,17,19,12,2,12
0,12,2,3,5,13,4,11,21
0,3,4,8,16,15,16,15,31
0,12,2,3,4,8,16
0,2,12,2,10,7,10,7,12,2,10,7,10
0,4,8,1
0,4,8,20,30,19,20,14,20,27,8,20,30,19,12,2,3,28,31,28,16
0,1,7,12,2,12,2,10,7,10,7,12,2,3,17,19
0,3,5
0,3,17,19,20,30,13,17,13,5,13,5,1,18,24
0,12,2,10,7,10,13,5
0,2,10,7,10,7,12
0,12,2,12,2,10,7,10,7,12,2,10
0,4,11,21
0,3,4,8,20,14
0,3,4
0,1,7,10,7,3,17,13,17,13,17,13,5,1,7,12,2,3,17,13,17,13,5
0,2,12,2
0,25
0,6,4,11,21
0,4
0,4,8,1,7,12,2,10,7,12
0,12,2,12,2,3,4,8,20,30,19,20,27
0,4,11,21
0,1,7,10,7,12,2,12,2,12,2,10,7,10,7,12,2,3,17
0,3,4
0,5,16,25
0,5,13,14
0,12,2,3,5,13,4,11,32
0,3,14,20,28,31,28,31
0,1,7,12,2,12,2,12,2,3,14,20,14
0,6
0,2,10,13,4
0,6,4,11,21
0,3,4,11,21
0,4,8,20,14
0,5,1,13,17,19,20,14
0,3,4,11,21
0,3,4,6,9
0,12,2,12,2,3,14,20
0,2
0,2,3,4
0,4
0,3,14,20,27,25,29
0
0
0,2,3
0,1,7,10,7,10
0,9,6,4,11,21
0,5,13
0,2,12,2,12,2,12
0,4,11
0,4,11,21
0,2
0,4,8,20,14
0,2,12,2,3,17,19,30
0,5,1,7,12,2,12,2,3,17,19,12,2,12,2,3,17,19,13,5,1
0,3,14
0,4,11,32
0,4,8,1,7
0,9,6,4,6,9
0,3,17,19,12,2,12,2,10,13,17,13,4
0,3,5,13,5,1,7,12,2,12,2,3,4,6,4,8
0,1,7,10,7,3,14
0,5,13,17,13,17,19,12,2,12,2,3,4
0,2,10,7,12,2,3,5,16,6,4
0,2,12,2,10,7,10,18,24,18,1,7,12,2,12,2,12,2,10,7,10,7,10,7,10
0,5,1,7,12,2,10,7,10
0,1,7,12,2,12,2,12
0,2,10,7,12,2,12,2,12,2,12,2,10,7,10,7,10
0,1,7,10,7,10,7,12,2,3,14,20,28,16,8,20,14
0,4,11,21
0,9
0,5,13,17,19,12,2,3,14
0,3,14,20,27
0,9,6,4,11,21
0,2,12,2,12,2,10,7,10,13,17
0,4,6,9,25
0,4,11,21
0,1,13,5,16,6,4,11,21
0,5
0,5,1,7,10
0,4,11,21
0,3,14
0,3,14
0,3,4,11
0,4,8,20,14
0,2,12,2,10,7,10
0,4,8,1,7,12,2,3,17,18
0,2,12,2,12,2,10,7,10,7,10,7,12,2,3,17,18,1
0,4,11
0,3,4,6,9,6,4,11,21
0,4
0,2,12,2,12,2,12,2,10,7,12,2,12,2,10
0,3,17,13,17,19,12,2,12,2,3,28,31
0,2,3,14
0,3,14,20,27,25,29,33,4,8,20,14
0,2,12,2,3,17,19,12,2,10
0,3,4,11,21
0,1,7,3,14
0,2,12,2,12,2,3,14,20,27,33,4,8,20,14
0,2,12,2,10,7,3,17,19,30,19,12,2,10,13,5,13,5,16
0,1,7,12
0,2,12,2,3,4,8,1
0,2,12,2,12,2,10,7,12,2,12,2,10,7,10
0,2,12,2,3,5,16
0,1,7,12
0,2,12,2,10,7,10,7,10,13,17,13,5,1
0,12,2,12,2,3,17,13,5,1,7,12,2,3
0,1,7,10,18
0,3,14
0,3,14,20,27,33,4,11
0,2,12,2,3,4,6,9
0,4,6,4,6,4
0,3,14
0,2,3,17,19,30,19,30
0,3,14,20,14
0,2,12,2,3,17,19,30,19,13,17,13,17,19,12,2,3,5,13,5
0,2,12,2,3,14
0,9,6,4,6,4,6
0,2,3,14,20,14,20,30,19,30,13,17,19,12,2,12,2,3,4,8,16
0,2,12,2,12,2,12,2,12,2,12,2,10,7,3,5,13,17,19,12,2,3,5,1
0,2,12,2,12,2,12,2,3,5,13,14,20,14,20,28,31,30,13,5
0,4,11,32
0,3,5,16,25,29
0,2,3,14,20,14
0,3,14
0,2,3,4,6,9,6,4,11,21
0,2,3,4,8,13,5,13,5,16,8
0,3,14
0,5,16,6,9
0,1,7,12,2,12,2,3,17,13,17,19,30,19,12,2,10
0,2,12,2,12,2,12,2,10,7,3,17,19,13,17,19,30,19,30,19,30,13,5
0,2,3,17,19,13,17,13,17,19,12,2,3,28
0,4,6,9,6,4,11,32
0,2,3,14,20,14
0,3,14
0,2,12,2,12,2,3,17,19,20,14,20,27,33,4,8,13,17,13,5,16
0,3,14,20,14
0,12,2,10,7,10,7,10,7,10,7,12,2,10
0,2,12,2,12,2,3,14,20,28,31,30,19,30,19,30,13,5
0,3,14,20,14,20,14
0,12,2,10
0,2,12,2,12,2,3,17,19,20,14
0,2,12,2,12,2,3,14
0,6,4,8,1
0,1,13,5,13,5,16
0,2,12,2,3,4,11,21
0,2,12,2,3,14,20,14,20,14
0,12,2,12,2,3,14,20,30,19,20,14,20,14,20,28,31,30,13,5,16,15,31,30
0,2,3,14
0,4,6,9,25,29,33,4,11
0,6,9
0,9,25,29
0,4,6,4,6,4,8,20,30,19
0,1,7,10,13,5
0,2,3,14
0,12,2,12,2,3,4,6,4,11
0,2,10,13,5,16,8,16
0,12,2,3,17,19,30,19,12,2,10,13,17,13,5,16,8
0,12,2,10,7,10,7,10,7,12,2,3,17,19,30,19,30
0,2,3,14,20,14
0,12,2,10,7,10,7,10,13,5,13,5,1,7,12,2,3,4,8,13,5,13,5,1
0,12,2,12,2,12,2,10,7,12,2,10,7,10
0,2,12,2,3,4,11,21
0,6
0,3,14
0,3,4,8,20,27,33
0,3,14
0,9
0,3,4,11,32
0
0,4,8,13,5,13,5,13,5,13,5,1,15,1,15
0,2,3,4,6,4,11,21
0,3,14
0,2,3,17,19,30,19,12,2,3,5,1,15,1,15,1
0,2,12,2,3,14,20,28,16,15,16
0,1,13,5
0,12,2,10,7,10,7,10,7,3,5,1,7,10
0,2,12,2,3,4,6,9,6,4,8,20,14,20,27,33
0,2,12,2,12,2,10,18,24
0,12,2,10,7,10,7,12
0,9,6,4,8,16
0,2,12,2,3,4,6,4,6,4,6,4,11,32
0,12,2,3,4,11,32
0,3,14,20,14
0,3,4,6,4,11,21
0,12,2,10,7,10,7,10,7,3,5,16,6,4,8,1
0,3,28,31
0,1,7,12,2,3,4,6,4,6,4,6
0,2,3,14,20,28
0,2,12,2,3,4,6,4,8,20,14
0,3,5,13,14,20,28,31,30,13,14
0,1
0,2,12,2,3,4,6,4
0,2,3,4,8,1,18,24
0,3,5,13,4,8,20,28,31
0,1,13,5,16,6
0,1,15,1,15,16
0,1,7,10,7,12,2,3,14
0,4,8,20,28,31,28,31
0
0,3,17,19,30,19,20,14,20,28,16,25
0,12,2,3,4
0,3,17,19,30,19,13,17,13,17,13,17,13,14
0,6,4,8,20,30,19,12,2,10,7,3,17,13,5,1,15,31,28
0,4,6,9
0,9,6,4,11,21
0,6,4,8,13,17,19,12,2,10,7,12,2,12,2,10,13,4,6,4,8
0,3,4,11,32
0,1,7,10,7,10,7,12,2,12,2,10
0,3,4,8,20
0,3,14
0,1,18
0,3,4,6,4,11,21
0,4,11
0,1,7,10,7,3,14
0,4,6,4,11,21
0,1,15,1,13,5,13,5,13,5,13,5,13
0,3,28,31,28,31
0,9,6
0,2,10,7,12,2,3,4,6,4,8
0,1,7,10,7,3,5,13,5,16
0,1,15,1
0,6,4,11,21
0,5,13,5,13,5
0,3,28,31
0,4,8,20,14,20,27,25
0,5,13,4
0,25
0,2,3,17,13,17,13,14
0,5,16,15
0,2,3,4,11,21
0,6,4,6,4,11,21
0,1
0,3,4,11,21
0,4,6,4,6,4
0,4,8,13
0,4,11
0,1,15,16,6
0,12,2,12,2,3,5,1,15,1
0,1
0,1,13,5,16,6,4,6,4,6
0,1
0,3,17,19,20,14,20,14,20,30,19,30
0,1
0,4,11,21
0,9,6,4
0,4,11,21
0,3,4,6,9,25
0,4,11,21
0,2,3,17,19,30,19,30,19,30,19,12,2,3,4,6,9
0,9,6
0,1,7
0,2,12,2,3
0,2,12,2,10,7,10,18
0,6,4,6,4,6,9,6,4,6
0,9
0,2,10,7,3,17,19,30,19,12,2,12,2,12,2,12,2,10
0,3,14
0,3,4,11,21
0,4
0,3,14
0,12,2,3,4,6,4,6,9,25
0,2,3,17,13,17,19,30,19,20,14
0,3,14
0,2,12,2,10,13,5,16,15
0,1,7,10,7,10,7,12,2,3,5,1,13,5,16,15
0,2,12,2,12,2,12,2,10,7,10,18
0,1,7,10,7,12,2,10
0,1,7,10,7,3,5,16,8
0,2,10,7,12,2,10
0,4,11,21
0,2,12,2,3,4,6,9,6
0,2,10,18,24,18,24,18,24
0,1,7,12,2,10
0,4,11,21
0,3,14
0,3,14,20,14,20,27,6
0,1,7,12,2,3,17,13,5
0,6,4,8,20,14
0,3,5,13,17,19,20,14
0,1,7,3,14,20,14,20,28,16,8
0,1,18
0,1,18,24,18,24
0,4,8,20,27,33,4,11,21
0,5,13,5,13,14
0,5
0,6,4,6,4
0,3,17,19,20,14
0,5
0,1
0,3,5,13,14
0,6,4,8,20,30,19,12,2,3,17,19,30,13,5,16,8,16,8
0,1,7,10,7,12,2,12,2,3,17
0,1,18,24
0,3,14
0,5,16,6
0,5
0,3,17,19,20,27,25,29,33
0,3,14,20,14
0,2,12,2,12,2,10,7,10,18
0,2,3,5,16
0,1,15,16,6
0,6,4,8,20,14,20,14
0,6,4,8
0,6,4
0,1,7,12,2,10,18,24
0,1,7,3,17,19,20,14
0,9,25
0,6,4,8
0,1,7,12,2,3,17,13,5,13,5,13,5,16
0,1
0,4,8,1,7,12,2,12,2,3,14,20,28,16
0,1,15,16,15
0,3,14,20,14
0,9,6,4,11,21
0,3,14,20
0,2,3,4,6,9,25
0,12,2,3,4,6,9,25
0,12,2,10,13,5,16
0,6,4,11,21
0,3,14,20,14
0,4,11,21
0,2,10,13
0,2,10
0,1,15,16
0,3,14,20,14
0,2,10,18,24,18
0,2,12,2,12,2,10,7,10
0,1,18
0,6,4,11,21
0,6,4,11
0,2,10,7,12
0,1,7,3,14,20,14
0,2,12,2,3,5,16
0,1,15,16
0,1,7,12,2,12,2,12,2,3,28
0,6,4,8,1
0,4,11,21
0,2,3,4,8,1
0,1,15
0,2,12,2,10
0,1,18,16,6,4,8
0,1,7,12,2,3,14,20,30,13,5,16,15,16,15,16
0,1
0,1,7,12,2,3,14,20,14
0,2,12,2,12,2,12,2,12,2,3,4
0,1,18,24
0,4,6,4,6,9
0,25
0,2,12,2,12,2,3,17
0,4,8,1,18
0,2,12,2,10
0,1,18,24
0,2,12,2,12,2,12,2,3,28,16
0,1,15,16
0,5,1,15,1
0,2,3,14,20,14,20,14,20,30,13,5,16,6,4
0,2,3,5,13
0,1,15,1,18,24,18
0,2,12,2,12,2,3,17,19,20,27
0,6,9,6
0,25
0,3,14,20,14
0,2,3,4,11,32
0,6,4,6,4,11,21
0,3,14
0,12,2,3,17,19,30,13
0,2,10,13,5
0,5,16,8,1
0,3,14
0,1,7,3,28
0,6,4,8
0,1
0,4
0,2,12,2,3
0,12,2,3,17,19,13
0,6,4
0,5,1,15
0,1
0,6,9,6
0,6,4,11,21
0,1,7,10
0,6,4,8,16,8
0,2,12,2,3,14
0,3,4,8,1,13,5,16,25,29
0,1,15,16,6
0,2,12,2,10,7,12,2,10,18,1
0,3,14
0,4,11
0,6,9
0,2,3,14
0,3,14
0
0,1
0,1
0,4,11,21
0,5,16
0,3,14
0,9
0,9,25
0,4,11,21
0,4,6
0,2,12,2,3,14
0,2,3,4,8,20,28,31,28,31,28,16,8,1
0,2,12,2,3,4,8
0,2,12,2,3,14,20,28,16,6,9
0,2,12,2,12,2,3,17
0,25
0,3,4,6,9
0,4,6,9,25
0,5,16,25,29
0,3,14
0,3,14
0,2,12,2,3
0,4,11
0,1
0,2,12,2,12,2,3,14
0,6
0,3,14
0,5,16,6
0,2,3,4,8,1
0,2,12,2,12,2,3,17,13,17,13,5,1,15,16
0,2,3,14
0,2,3,14
0
0,2,3,17
0,1
0,2,12,2,12,2,3,14,20,27,25
0,9,6,9
0,1,13,5,16,6
0,1,15,1
0,12,2,12,2,3,17,13,5,13,5,13,5,13,5,16
0,2,3,14
0,5,16
0,3,14
0,6,4
0,12,2,3,17,13,5,16
0,12,2,12,2,10,13,5,13,5,13,5,1
0,5
0,9
0,3,4,6,9
0,25,29
0,5,16
0,3,14
0,4,8,1
0,2,3,28,31,30,13,5,1,18,24,18,24,18
0,1,15,1
0,2,3,4,8,20,28,16,15
0,6,4
0,9,6
0,1,13,4,6
0,1,13,5,16,6,9,25
0,6,4
0,1
0,3,14,20,27,8,1
0,9
0,4,11,21
0,4,8
0,4,8
0,2,3,4,6
0,3,5,13,5,13
0,25
0,25,29,33,4,8,1
0,3,4,6,4,11,21
0,5,16,25,29
0,4,6,9,25
0,3,28,31,28,31,28,16
0,4,8
0,2,3,4,6,9
0,6,9
0,3,14,20,27,6
0,4,6,4,6
0,25
0,1
0,1
0,1,18,16,6
0,2,3,14
0,3,14
0,25
0
0,25,29
0,4,8,13,5
0,4,8,16
0,2,3,14
0,2,3,4,8,20,28,16
0,1,13,5,16
0,6,4,6
0,12,2,3,17,13,5
0,1,15,1,15
0,3,4,6,9,6,4
0,3,4,11,32
0,4
0,1,13,5,13,5,13,5,13,5,13,5
0,1,13,5
0,4,6,4,6
0,2,12,2,10,18,1,18
0,12,2,3,17,13,5,13,5,16,15,1,13,17,18
0,1,7,10,13,17,19,30,13
0,5,16
0,2,3,28,31,28
0,2,3,28,16,6
0,1
0,1,18,24,18
0,2,12,2,3,14,20,14
0,12,2,3,5,13
0,2,10,7,10,7,10
0,1
0,2,10,7,3,5,13,5,16,6
0,2,3,4,8,13,5,16,15
0,2,3,28,16,15,16,6,4,6
0,2,12,2,3,4,6,9,6,4,8,16,15,16,15
0,2,3,17,13,5,13,17,13,5,1,7,10
0,1,13,5
0,2,3,28,31,28,31,28
0,2,10,7,10,7,10
0,4,8,1
0,2,12,2,3,28,16
0,2,3,4,6,9,6
0,3,4,6
0,1,15
0,1,15
0,2,10,13,5,13,5,13,5,13,5,16
0,6,4,6
0,9,25
0,1,13,5,16
0,4,8,20,28,31,28
0,2,10,7,10,7,10
0,12,2,10,18,24,18
0,2,3,28,31,30,13,5
0,6,4,8
0,5,16,15,16
0,2,12,2,12,2,10,7,10,7,10,7,10,13,17
0,3,17,13,17
0,1,18
0,5
0,5,1,7,10,13,5,13,5,13,5
0,1
0,2,3,28,16
0,1
0,6,4
0,3,14
0,1,15
0,2,10,7,10,7,10,18,24,18,1
0,1,7,10,13,5,13,5,16,8,16,6
0,2,3,17,13,17,13,5,13,5,16,6
0,5,1,13,5,1,15
0,2,10,13,17,13,17,13,5
0,4,8,13,17,19,30,19,13
0,9,6
0,2,12,2,10,7,10,7,10,18,24,18,24
0,2,10
0,3,5,13,17
0,1,18,1
0,1,7,12,2,10,7,10,7,10,18
0,12,2,10,7,10
0,2,3,28,16,6,9,6,9
0,2,3,4,8,20
0,3,5,1
0,2,3,4
0,1,13,5,16,6,9,6
0,3,17,13,5,1,15,16,15,16
0,2,12,2,3,4,6,4,6,4,6
0,2,3,14,20,28,31,28,31
0,4,8,20,28,16
0,3,17,13,5,16,8,16,15,1,15,16,15,1
0,3,17,19,13,5,13,5,16,6,4
0,6,9
0,9,25,29
0,9,6
0,6,4,6,4,8,1,13,5,1,15
0,2,10,7,10,18,1,13,5,1,15
0,6,4,6,4,6,9,6,4,6
0,3,5,1,13,5,1,15,1
0,4,6,4,8,16,8,1,18,1
0,2,10,13,5,13,5,13,5,1,18,24
0,3,4,11,32
0,6,4,8,16,8
0,3,28,31,30,13,17,18,24
0,3,5,16,15,16,8,16,8
0,1,13,5,16,15,16,15,16,6,4
0,2,3,5,13,5,1,13,5
0,6,9,6,9,25
0,4,6,9
0,4,6,4,8,1,13,4,6
0,3,5,1,13,5,16,15,16,15
0,5,16,6
0,6,4,8,13,5,16,15,16,8
0,2,10,7,10,13,5,1,15,31,28
0,3,5,1,13,5,16,25
0,3,5,16,6,4,8,16,15,16,15,31,28,16,8,16
0,6,4,8,1,7,10,7,10,18
0,4,6,9,25,29
0,3,4,8,13,5,16
0,1,13,5,13,5,13,5
0,5,1,15,16,8,16
0,4,6,4,8,16,8,16,6,9
0,4,6,9
0,25
0,4,6,4,6,9
0,1,7,10,7,10
0,2,10,13,17,13,17,18,1,18
0,3,17,13,5
0,9,6,4
0,1,7,10,7,10,13,5,1,13,5,1
0,2,10,7,10,7,10,7,10,7,10
0,1,15,16,25
0,1,15
0,4,8,1,7,10,18,24
0,3,5,13,5,16,15,16
0,9,6,4
0,3,28,31
0,3,14,20,28,31,28,31,28,16,15,31,28
0,2,10,7,3,17,19,13,17,13,17,13,5,13,5,13,5,13,5
0,6,4,8,16,15,31,28
0,9,25
0,9,6,9
0,2,10,7,10,7,10
0,4,8,1
0,3,5,13,17,13,5,13,5,13,5,16,6
0,1,15,16,8
0,1,13,17,13,17,13,5,1,13,5,16,15,16
0,1,13,5,16,6,4,8
0,2,3,28,31,28,16,8,1,13,5,13,5,16
0,4,11,32
0,25
0,5,13,5,13,5,13,5,13,5,13,5,16,15,16,8,16,6
0,3,4,6,4,6,9
0,4,8,16,6,4,6,9
0,5
0,5,13,17,19,30,13,5,13,5,13,5,13,5,1,13,5,1,13,5,16,8
0,5,13,4,6
0,4,6
0,1,7,10,7,10,7,10,7,10,13,5,1,7,10,7,10,7,10
0,1,13,5,1,15,16,15,16,8,1
0,4,6,9,25,29
0,1,7,10,7,10,13,5,13,5
0,4,8,20,28,16,8,13,5,13,5,16,6
0,5,16,15,16,6,4,8
0,3,17,13,17,19,30,19,30,13,17,13,5,13,5,16,25
0,25,29,33,4,8
0,1,7,10,7,10,18,24
0,1,7,12,2,10,7,10,7,10,13,17,18,24,18,24
0,1
0,4,8
0,1,7,3,4,8,16,15,16,15,1,13,5,1,7,10,7,10,18
0,3,4,6,9
0,1,15,16
0,5,1,7,3,5,13,5,13,5,13,5,16,15,31,30,19,13,5,16
0,4,8,20,28,31,28,16,6,4,6,4,8
0,1,18,24
0,4,6
0,9,6,4,6,4
0,1,13,17,13,5,1
0
0,1,13,5,13,5,1,7,10,13,5,1,18,24,18,24
0,1,18,24
0,1,7,12,2,3,5,16,8,13,5,16,8,13,17,13,17,13,17,13,17,18
0,6
0,1
0,9,6,4,8,16,25
0,3,17,13,17,13,17,13,17,19,13,17,13
0,4,6
0,4,8,16,15,16,6,4,8
0,1,7,10,7,10,13,5,1,15
0,6,4,8,20
0,1,18
0,4,6
0,9,6
0,1,13,17
0,6,4,8,16,15,16,8,13,17
0,6
0,4,6,9,25
0,5,16,25,29,33,4,8,16,6
0,1,18,16
0,6,4,8,16,8
0,9,6,9,25,29
0,6,4,6,9,25
0,4,8,20,27,8,20,27,8,1,15,16,15,16,15
0,1,18,24,18,24,18
0,1,7,10,7,3,4,8,1
0,6,4,8,1,13,5,16,15,16,15,16,25
0,5,13,5,13,17,13,17,13,4,6
0,5,16,15,16,25
0,1,13,5,16,15,16,15,1,15
0,3,17,19,30
0,1
0,1,18,16
0,1,18
0,1
0,1,7,3
0,4,6,9,6
0,9,6,4,8,13,17,13,5,16
0,3,4,11,32
0,4,6,4,6
0,5,16,6,9
0,1,15,16
0,6
0,4,6,9,6,4,6,4
0,1,18
0,9
0,1
0,5,13,17,19,13,5,16,6,4,8,16,8,1
0,6,4,6,4,8,1
0,25,29,33
0,1,13,5,13,5,13,5,1,18,16
0,3,4,6
0
0,25
0,4,6,4
0,6,9,6
0,4,6,4,6
0,9,6,4,6,4,6,4
0,9,25
0,4,8,20,28,16,6,9
0,4,6,9
0,5,13,5,13,5,16,6,4,6
0,4,8,20,27
0,9,6,4,8
0,1,7,10,13,17,18,1
0,1
0,2,10,7,10
0,1
0,1,7,10,18,16,6,4,6
0,5,1,15,1,15,1,15
0,5,16,8,1,13,5,13,5,16,6,4
0,1,13,5,13,5,13,5,13,5
0,6,4,6,4,6,4,6,4,6
0,1,15,16,15,16,15,16,8,16,8
0,1,7,10,7,10,7,10,13,5
0,9,6,4
0,1,15,16,6,4,8
0,5,13,4,6
0,6,4,6,9,6
0,9,6
0,4,6,9,25,29
0,1,18,24
0,1,7,10,7,10,13,5,1,18,24,18
0,4,6,4,6,4,8,16,15,16,6
0,3,17
0,1,15,1,18
0,1,18,24,18,24,18,1,15,1,13,17,13,5,16,15,16
0,1,7,10,18,1,18,1
0,5,1,13,17,13,5,16,15,16,8,1,13,5
0,9,25
0,9,6,4,6,9
0,6,4,6
0,25
0,4,8,20,30,13,5,13,5,16,6,4,6,9
0,5,13,5,13,5,1,15,1,13,5,16,8
0,9,6,4,8,16,15,16,8,1,15,1,15,1,15,1
0,5,1,13,17,13,17,13,17,13,5,16,6
0,5,1,13,5,13,5,16,6,4,8
0,9,6,4
0,1,7,10,7,10,13,5,16,15,16,8,16,6,4
0,1,18,1,15
0
0,1,15,16,25
0,9,25
0,1,7,10,18,16
0,1,13,5,1
0,1,18
0,1,13,5,16,6,4,6,4,8
0,1,18,24,18,1,18
0,5,16,15,16,8
0
0,6,9,6
0,1
0,1
0,5,13,5,16,8,16,8,1,13,5,16,6
0,5,1,13,17,13,5,13,5,13,5,13,17,13,5
0,1,15,16,8,1
0,4,8,13,5,16,6,4
0,1,7,10,7,10
0,1
0,1
0,1
0,1,15,1
0,1,18
0,5,13,17,13,5,1,13,5
0,6,4
0,5,1,15,1,13,5,16,6
0,1,13,5,16,8
0,6
0,9,6
0,5,1,15,16,15,1,15,16,25
0,4,8,1
0,4,8,1
0,9,6,4,8,1
0,5,1,13,5,16,6
0,1,15,1,13,5,1
0,4,6,4,8
0,6,4,6,4,6,4
0,9,6,9
0,1,15
0,5,1
0,1
0,6,4,6,9
0,5,16,6
0,6,4,6
0,5,16,6,9
0,5,16,25,29
0,1
0,6,4,8,1
0,5,1
0,4,8
0,1
0,1
0,1
0,4,8,16
0,6,4
0,5,16,6,4
0,1
0,9,6,4,8
0,1
0,1,13,5,13,5,16,25
0,1,15,16,25
0,1,15,16,25
0,1,15,16,25,29
0,1,15,16,6
0,1
0,5,13,5,1,13,5,1,15,1
0,4,6
0,4
0,5,16
0,5
0,6,4,8,1
0,4,6,4
0,1,18
0,5,1,15,1,13,5,1,15,16
0,3,5,13,5,16,6,4,8,16
0,5,16,15,1,13,5,16,15,16
0,1,15,31,28,16,15,16,8,16
0,6,4,6,9,6,9,6,9
0,1
0,9,25
0,25
0,1,13,5,1,13,5
0,5,13,5,16,6,4
0,5,1,15
0,6,9,25,29
0,1,18,24
0,5,1,13,5,16,6,4,8,20,27,6
0,5,16,15,16,15,16
0,5,13,5,13,5,13,4,8,13,5,16,6
0,4,8,16,15
0,4,8,16,6
0,1,7,10,18,24
0,4,8,1,13,17,13,17,18
0,9,6,9
0,5,16,15,16,15,16,6
0,1,15,31,28,16
0,1,15
0,9,6
0,1,13,5,1,15,1,7,10,13,5,1
0,1,18,1,7,10
0,1,7,10,18,1,13,5,16,15,1,15,1
0,5,13,5,16,15,31,28,16,15
0,1,18,16
0,1,13,5,16,15,16,15,31,30,13,5
0,1,7,10,7,10,18,24,18,24
0,5,13,5,16,8,13,17,13,5,16,15,16
0,1,13,5,16,15,1,13,5,1
0,5,16,15,16,15
0,1,13,5,16,6
0,1,18,24
0,1,13,5,16,6,4,6
0,5,1,13,17,13,17,13,5,1,15,31,28
0,4,8,16,8,16,8,13,4,6,4,6,4,6
0,4,8,16,15,16,15,16,15,31,28,16,6
0,5,1,13,17,13,17,13,5,13,5,1,7,10,18,1
0,1,13,17,13,5,13,5,13,5,1,13,5,1,15,1,15,1
0,1,13,5,16,6,4,6,4,6,4
0,1,13,5,16
0,1,13,5,13,5,16,6,9
0,1
0,5,1,15,1,7,10
0,6,4,6,4,6
0,1,15,16
0,6,4,6,4
0,5,13,5,13,5,16,15,16,15,16
0,1,7,10,7,10,18,1,13,5,1,15,1
0,5,1,13,5,16,8,16,8
0,4,6
0,5,16,6,4,6
0,1,15,1,13,5
0,4,6
0,9,6
0,1,7,10,18
0,1,7,10,13,5,13,5,16,6,4,8
0,1,7,10,18,1,13,5,1,15,1
0,9,25
0,1,7,10
0,1,13,5,16
0,5,13,5,1,15,1,13,5,16,6
0,1,7,10,18,1,15,1,13,5,16,15,16,15
0,1,7,10,18,16,15
0,1,7,10,18,1,13,5,16,8
0,4,6,4,8
0,1,7,10
0,1,7,10,18,16
0,3,5,16,15,1,13,5,16,15,16
0,1,13,5,13,5,1,13,5,1,13,5,13,5,13
0,5,16,15,1,13,5
0,4,8,13,5,16,6,4,8,1,13,4,6,4
0,5,13,5,16,8,13,5,16,6
0,2,10
0,1,7,10,7,10,7,10,7,10,7,10,7,10,7
0,1,7,10,7,3,17,13,5,16,15,1
0,1,18,24,18,24,18,24,18,1,15,1
0,1,7,10,18,24
0,3,5,1,7,10,13
0,1,15
0,6,4,6
0,1,18,16,15,31,28
0,2,10,13,17,13,17,18,24
0,4,8,13,17
0,4,8,1,7
0,1,13,5,13,5,16,8,13,17,13
0,1,13,5,16,8,13,17
0,4,6,4,8,13,4,6,4
0,4,8,1,13,17,18
0,1,7,10
0,4,8
0,3,17,19,13,5,16,15,16,15,31,28,16
0,1,18,1,7,10,13,5,16,8,1
0,2,10,7,10,7,10,18,1,13,5,16,15
0,5,13,5,13,5,13,17,13,5,13,5,16,8,16,15,16
0,6
0,1,7,3,5,16,15,16
0,6,4,8
0,3,5,13,5,16
0,1,7,10
0,9
0,4,8,1
0,4,8,16
0,25
0,9,6,9,6
0,3,5,13,5,13,5,16,6,4,8,13,4,6
0,9,6,9,25
0,1,13,5,16,25,29
0,1,13,5,16,25,29
0,2,3,4
0,2,10
0,1,15
0,4,8,1
0,5,16,15,16,8,1,15
0,1
0,2,10,7,10,18,1,7,10
0,6,4,8,1
0,1,7,10,13,5,16,6,4,8,16,6
0,1,13,5,13,5,16
0,1,7,3,5
0,6,9,6,4
0,6,9,6
0,4,8,20
0,9,25
0,5,16,6
0,5,1,13,5,1,15,1,15,1
0,9,6,4,8,16
0,1,13,5,13,17,13,5
0,4,8,13,5,1,13,17,13,17
0,3,17,13,5,13,5,13,5,16,6,9,6
0,1,13,5,13,5,1
0,5,16,8
0,9,6,4
0,2,10,7,3,17,19
0,1,13,5,16
0,1,15,16,8
0,2,10,7,10,18,24
0,3,4,6,4,8,13,5,16,8,13,5,16,15,31,28,31
0,3,5,1,13,5,16
0,1,13,5,13
0,6,9
0,4
0,1,13,5,1,15,16,6
0,4,6
0,9,6,4,8
0,6,4,6,4,6,4,6,4
0,1
0,1,7,10
0,3,4,6,4,6,9,6
0,2,3,5,16,6,4,8,20,28,16,6,4,8,1,13,5,1,13
0,5,13,5,13,5,16,8
0,5,13,5,13,5,13,5,13,17,19,30,19,30
0,4,8
0,1,7,10,7,10,7,10,18,1
0,2,10,7,10,7,10,7,10
0,3,4,8,13,5,16,6,4,11
0,3,5,13,5,16,6
0,5,13,5,13,5,13,5,13,5,13,5,13,5,16,6,4,8,1
0,1,7
0,3,5
0,5,1,13,5,13,5,13,5,13,5,13,17,19,30,13,5,16,6,4,8,16,15,16,6
0,5,1,13,17,13,5,13,5,16,8,20,27,6,9,6,4
0,6,9,6
0,3,4,6,9,25
0,4
0,3,4,6,9,6
0,9,6,4
0,1,15,1,18,24
0,4,8,16,8,16,8,16,6,9,6
0,9,25
0
0,6,4,6,4,6,4
0,5,16,15,16,8,1,13,5,1,13,5,13
0,1,18,24,18
0,4,6,9,6,4,6,9,6
0,3,5,13,5,13,5,13,5,13,5,13,5,1
0,3,5,16,8,13,5,13,5,13,5,13,5,13,5,13
0,1,13,5,13,5,16,8,1,13,17,13,17,13,17,18
0,5,1,15,1,15,1,7,3,5,13
0,3,5,13,4,6,4,6
0,1,13,5,1,13,17,13,17,13,17,13,17,13,17,13,5,16,15,1
0,2,10,7,10,18,24,18
0,1,13,5,16,6,4,8,13,5,13,5,13
0,1,13,17,13,5,16,8,13,5,13
0,3,17,13,17,13,5,13,17,13,4,6,4,6
0,1,7,10,7,10,13,17,13,5,1,13,5,13
0,3,4,6,9,6,4,6,4,11
0,1,7,10,13,5,1,13,5,16,15,1,13,17,13,17,19
0,1,7,10,13,5,1
0,3,5,1,13
0,2,10,7,10,13,5,16,25
0,6,9,6,4,6
0,3,5,13,5,1,7,10,7,3,4,8,1,13
0,1,13,5,13,5,16
0,4,6,9
0,1,18,24,18,1,13,14
0,1,13,17,18,1,13,17,13,17
0,6,4,8,13
0,5,13,5,16,6,4
0,5,13,17,13,5,16,25
0,3,5,16
0,3,4,6,4,8,16,6,4,8,20,14
0,1,13,5,16,15,1,7,10,13,5,16,8,16,6,9,6,9,6,4
0,1,18
0,25,29,33
0
0,6,4,8,20,27,6,4,8,20
0,1,13,5,13,5,1,7,10,7,10,7,10,13,5,1,13,5,1
0,1,18,24
0,3,17,18
0,1
0,5,1,15,31,28,31
0,2,10,7,10,7,12
0,1,7,10,7
0,5,1
0,1,13,5,16,6,9,25
0,2,10,7
0,9,6,4,11,32
0,2,3,4,6,9,6,9,6,4,11
0,6
0
0,4,6,4,8,20,27,6
0,1,13,4,6,4,8
0,5
0,4,6
0,3,4
0,9,6,4,8,13,17,13,17,19,20,27,6,4,8,20,14
0,1,13,5,13,5,16,15
0,6,4
0,1,15
0,5,16,6,4,6,4,8,1
0,6,4,8,13,14,20,14
0,4,8,20,28,31,28,31,28
0,4,6,9
0,5,16,6
0,25
0,6,4,11,21
0,5,16,6,4
0,3,4,6,4,11
0,5,1,13,5,1,7,10,13,5,1,13,17,19,12,2,12
0,1,13,5,13,5,13,17,13,5,13,5,16,6
0,9,6,4
0,1,7,12,2
0,5,16,6
0,1,15,16,6,4,6,4
0,1,18,24,18,1,15,1
0,1,18,24
0,5,13,5,13,5,1,13,17,13,17,13,17,19,30,13,17,18
0,4,6,4,8,1,13,4,6,4,8,20,14
0,3,5,13,14,20,27,6,4,11
0,2,12
0,4,8,20,27,6,9,6,4,11
0,1,13,5,13,5,1,13,5,1,7,10,7
0,1,7,10,7,10,7,10,7,10,7,10,7,10,13,5,16,8,13,14
0,1,13,5,16,8,16,15,31,28,31,30,19,12,2
0,5,13,5,13,5,13,5,1,15,31,28,31,28,16,15,16,6,4,6,4,6,4
0,2,3,5,16,15,31,28,16,8,13,17,19,20,28
0,1,18,24,18,24,18,24
0,3,17,13,17,13,5,1,13,5,1,7,3,17,19
0,1
0,1,7,10,13,17,19,20,28,16,8,20,14
0,5,13,5,13,5,1,15,1,15,1,15,1,15,1,15
0,5,13,5,13,5,13,5,16,8,13,5,13,5,13,17,13,5,16,8,13,5,13,14
0,1,7,10,13,17,13,5,1
0,5,1,13,4,8,13,4,6,4,8,13,14
0,2,3,5,16
0,1,13,5,13,17,19,20,27,8,16,15,1,7,12,2,3,14
0,1,7
0,2,10,7
0,2,10,18,1,7,12
0,12,2
0,1,7,10,18,24
0,1,18,16,8,16,6
0,3,5,16
0,5,13,17,13
0,1,7,3,4,6,4,11,21
0,3,14,20,27,33
0,5,16,6,9,25,29
0,1,7,10,7,10,13,5,13,5,13,17,19,20,27,25,29,33,4,11,21
0,1,7,10,7,10,18,24
0,6,9,6
0,6,4
0,9,6,4,6,9,6,4,8,13,4
0,3,5,13,5,13,5,16,8
0,5,16
0,4,6,9
0,6,4,6
0,9,25,29,33,4,8,20,14
0,3,5,16,8,13,17,13,17,13,14,20,27,25,29,33,4,11,21
0,4,6,4,8,13,4,8,13,17,19,12,2,3,4,8,13,17,19,12,2,3,14
0,1,7,10,13,5,13,14
0,5,13,5,13,5,16
0,1,13,17,13,5,16
0,4,6
0,3,5,16,8,1,13,5,13,17,19,12,2,3,4,6,4,8,20,14
0,3,5,13,17,13,17,13,14,20,14,20,28,31
0,5,13,5,13,5,13,5,13,5,13,5,13,5,16
0,5,13,5,13,5,13,5,13,5,13,5,13,5,16
0,2,10,18,24
0,1,15,1,13,17,19,20,27,25
0,1,7,10,7,10,7,10,18,1,13,17,19,13,17,19,12,2,12
0,2,10,7,3,5,13,17,13,17,19,12,2,3,4,8,20,14
0,1,13,17,19,30,19,30,19,30
0,1
0,9,6,4,8,1,13,5,1,7,3,14
0,1,7,10,7,10,7,3,5,13,5,1,7,10,7,12,2,12
0,5,13,4,6
0
0,1,7,10
0,5,13,5,1,13,17,18,24
0,3,5,1,7,10,7,10,7,10,7,10,13,17
0,25,29,33,4,11
0,3,5,1,15,31,28,31,30,19,12,2,10,13,5,13,14
0,1,13,17,13,5,13,5,16,8,16,15,16,15,16,15
0,4,8,13,14,20,28,16,6,4,8,20,14,20,14
0,2,10,13,5,1,7,3,17,19,20,28
0,6,4,8,13,14
0,1,7,10,7,10,7,10
0,2,10,7,10,7,10
0,1,13,4,6,9,6,9,25
0,1,13,5,16,25,29,33,4,11,21
0,1,7,10
0,1,15,1
0,3,4,6,4,8,20,14
0,2,12,2,3,14,20,14
0,1,7,10,7,10
0,1,7,3,4,6,4,11,21
0,4,8,16,15,31,28,31,30,13,17,19,20,30,13,5,16,6,4,8,13,17,19,12,2,3,14
0,3,4,8
0,1,7,10,7,3,14,20,27,6,4,8,13,17,19,12,2,3,14,20
0,5,13,5,13,4,6
0,5,16,6,4,8,16,6,4
0,3,5,1,7,10,13,14
0,12,2,3,14,20,14,20
0,5,1,13,5,1,7,12,2
0,4,6,4,8,16,6,4,8,13,17,19,12,2,3,14
0,9,6,9,6,4,6,9,6,4,11,21
0,1,13,5,13,17,19,12,2,3,5,16,8,20,14
0,2,10,13,5
0,1,13,14,20,28,16,6,4,11,21
0,5,13,17,13,17,13,5,16,25
0,9,6,4,8,13,5,13
0,6,4,8,20,14,20,27,25
0,3,5,13,5,13,5,13,4,6,4,11,32
0,1,13,17,19,30,19,20,28
0,2,12,2
0,1,7,10,7,10,7,10,7,10,7,10,7,10,7,12,2,12,2,12
0,6,4,11,21
0,3,5,1,13,17,13,17,13,5,1,7,3,14
0,6,9,25,29
0,3,5,13,17,19,13,14,20,28,16,6,4,11,21
0,1,7,12,2,3,5,16,8,1,7,12,2,12,2,12,2,12,2,12,2,12,2,12,2,12,2
0,2,10,7,12,2,10,7,12
0,1,7,10,7,10,7,12,2,12,2,12,2
0,25,29,33,4,11
0,1,13,5,16,15,16
0,3,5,16,15,31
0,3,5,13,17,19,20,28
0,4,8,13,5,13,4,8,13,5,16,15,31,30,19,20,14
0,5,13,5,13,17,13,14,20,27,6,9
0,1,15,31,28,31,28,31,28,31,28,31
0,4,6,9,6,4,11
0,1,13,17,13,5,13,5,13,14,20,28,31
0,6,4,8,13,5,13,17,19,20,28,16,15
0,25,29,33,4,8,20,14
0,5,1,7,3,5,13,4,6
0,5,13,4,8,13,5,13,14
0,3,4,6,4,6,4,11,21
0,2,10,7,12,2,10,7,12,2,12,2,12,2,12
0,6,4,11
0,1,7,10,7,10,7,10,18,1,7,10,13,5,1,7,12
0,4,8,13,14,20,27,6,4,8,20,30,13,14
0,2,10,13,5,13,17,19,20,14
0,5,13,5,13,17,19,30,19,30
0,1,7,10,13,5,13,5,16,15,1,7,3,5,13,17,19,12,2,12
0,1,7,12,2,12,2,10,7,12,2,12,2,12,2,12,2,12,2
0,25,29,33
0,1,7,10,7,10,18,24
0,5,1,15,1,7,3,4,6,4,11,21
0,3,4,8,13,14
0,1,7,10,7,12,2,3,5,1,15,1,7,12,2,12,2,12,2,12,2,12,2
0,3,5,13,14,20,28,16,15,31
0,1,7,3,5,13,5,13
0,12,2,12,2,3,14
0,6,4,8,20,27,6,9
0,5,16,6,9,6,4,8,20,27,25
0,5,1,13,5,1,7,10,7,3,5,16,6,4,8,20,14
0,5,1,7,10,7
0,4,11,21
0,1,7,12,2,3,14
0,3,17,13
0,2,3,17,13,5,1,13,5,1,13,17,13
0,2,12,2,12,2,12,2,3,14
0,3,4,8,20,14
0,1,7,10
0,6,4,8,1,7,12,2,12,2,3
0,5,13
0,1,7,3,14
0,1,13,5,1,7,12,2,3,5,1,7,12,2,12,2,12,2,3,14
0,3,4
0,1,7,12,2,3,4,8,20,14
0,4,8,13,4,6
0,3,5,16,15,31,30,13,17,19,13,14
0,6,4,6
0,4,8,16,8,20,30,19,20,27,33
0,1,7,10,7,10,13,5,1,13,5,1,7,12,2,3,14,20,14
0,3,4,8,20,14,20,14
0,1,7,12,2,3,5,1,7,3,14
0,6,4,11,32
0,1,7,12,2,3,14
0,1,7,10,7,10,7,10,7,10,18,1,7,12,2,10
0,3,4,6,4,8,20,28,31
0,1,7,3,5,1,7,12,2,12,2,10
0,1,7,10,7,10,7,10,13,5,16,8,20,14
0,2,12,2,10,13
0,4,8,20,27,8,20,27
0,3,5,16,8,20,14,20,14
0,3,4,8,20,14
0,1,13,17,13,5,1,7,3,14,20,27,25,29,33,4,8,13,17,19,12,2,3,14,20
0,1,7,10,7,12,2,3,14
0,9,6,4,11
0,2,12,2,3,4
0,1,7,10,13,17,19,20,14
0,1,13,17,13,17,19,12,2,12,2
0,6,4,8,13,17,19,13,4,6,9,6,4,11,21
0,6,4,11,21
0,2,3,5,16
0,3,14
0,1,7,3,14
0,1,7,10,7,10,7,10,7,10,13,5,13
0,4,8,13,14
0,2,3,17,13,17,19,20,14
0,12,2,3,17,19,12,2,12,2,3,14
0,9,6,4,11,32
0,4,8,16,15,31
0,5,1,13,17,19,30,19,20,28,16,15,16,15,16
0,1,7,12,2,3,4,11,21
0,1,7,10,7,10,13,5,13,5,1,7,12,2,12,2,12,2,12,2,12,2
0,1,7,10,7,10,7,10,7,3,5,13,5,13,5
0,3,14,20,30,19,12,2,3,5,1,7,12
0,2,3,4,11,21
0,2,10,7,12,2,10,7,12,2,12,2,3,17,13
0,1,7,10,7,10,7,3,17,13,17,13,5,1,13,5,1,13,17,19,12,2,12,2,3,5,13,5,16
0,5,13,17,13,5,13,5,16
0,3,5,13,5,13,4,6,4,8,20,14
0,1,7,10,7,12,2,12,2,12,2,3,4
0,2,10,13,17,13,17,19,12,2,3,5,16,8,1,7,12,2,3,14
0,1,13,17,19,30,19,20,28
0,5,13,17,19,30,13,17,19,13,4
0,1,7,10,7,10,13,17,19,12,2,3,14
0,25
0,1,7,10,13,17,19,12,2,3,14
0,3,5,13,17,19,30,13,5,1,7,12,2,12,2,12,2,10
0,3,17,13,17,13,17,19,30,13,5,13,5,13,5,13,17,13,14
0,5,1,13,17,19,30,19,20,28,31,28
0,1,7,10,7,12,2,12,2,12,2,3,5,16,15,16,15,16
0,2,3,17,19,12,2,3,5,16,6,4,8,1,7,12,2,3,14,20,14
0,4,8,13,17,19,13,14,20,28
0,6,4,6,9,25,29,33,4,11,21
0,1,7,10,7,10
0,5,1,7,12,2,12,2,10,7,10,7,10,7,10
0,3,5,13,5,13,5,13,5,13,17,19,20,27,6
0,1,13,5,1,13,17,19,20,27,33
0,1
0,3,4,11,21
0,1,7,10,7,10,7,3,4,8
0,4,8,13,17,19,13,17,19,12,2,12,2,3,5,13,5,16
0,3,4,11,32
0,3,4,11
0,2,10,7,12,2,12,2,10,18,24,18,24
0,3,28,31,28,31
0,5,13,5,13,17,13,17,19,13,17,19,30,19,30,13,5,16
0,1,7,10,7,3,17,19,13,5,16,15,31
0,1,13,17,13,14,20,14,20,30
0,3,14,20,27,6,4,11,21
0,5,13,17,19,20,28,31,30,19,20,14
0,2,10,7,3,14
0,3,14,20,30,19,13,17,13,17,13,5,1,7,12,2,12,2,3,14,20,14,20,28
0,3,14,20,27
0,5,16,6
0,2,10,7,10,7,10,7,3,5
0,6,4,8,13,17,19,12,2,12,2,3,14,20,28,31,28,31,28
0,2,3,17,19,30,19,30
0,9,6,4,11,21
0,1,7,12,2,3,5,1,7,12,2,3,17,19,12,2,12,2,12,2,3,5
0,1,7,3,17,13,14
0,4,11,21
0,2,12,2,3,14,20,30,13,5
0,1,7,12,2,12,2,3,4,11,21
0,1,7,10,13,14,20,14,20,28
0,6,9
0,1,7,10,7,10,7,10,7,3,5,1,7,3,17,19,20,14
0,2,12,2,3,4,8,20,27
0,9,6,4,11,21
0,2,12,2,3,5
0,6,4,6,4,11
0,6,4,8,20,14
0,9,6,9,6,4,11,21
0,3,5,16
0,1,7,3,17,13,5,1,7,12,2,3,14
0,3,4,8,20,27,8,13,17,13,14,20,14
0,2,12,2,3,28,31,30,13,14
0,2,12,2,10,13,5,1,7,12,2,12,2,12,2,3,17,19,30,19,12,2,3,4
0,3,4,6
0,9,6,4,11,21
0,2,12,2,3,17,13,17,13,5,13,17,13,14
0,2,3,17,19,12,2,3,5,16,8
0,3,14
0,2,3,5,16,8,20,14,20,14
0,4,11,21
0,1,7,10,13,5,1,7,12,2,12,2,10,13,5,1,15,1,15,31,28
0,2,10,7,3,17,19,20,30,13,17,19,30,19,30,13,5,13,14,20,14
0,2,12,2,12,2,3,5
0,12,2,12,2,12,2,10,7,10,7,12
0,12,2,12,2,12,2,10
0
0,5,1,7,12,2,12,2,3,5
0,5,13,5,1,13
0,2,12,2,12,2,3,4,6,4,8,20,14
0,4,11
0,6,4,11,21
0,25,29
0,4,11
0,1,7,12,2,3,14
0,9,25
0,12,2,3,4,6,4,11,21
0,2,3,4,11,21
0,2,10,7,12,2,12,2,3,5
0,2,12,2,12,2,3,5,1,7,12,2,3,17,19,13,14
0,4,11,21
0,3,17,19,30,19,30,19,30,13,5,13,5,13,5,13,14
0,2,12,2,12,2,3,5,16,8,16,15,1,7,12,2,3,14
0,12,2,3,4,8,20,27,33
0,2,10,13,17,19,12,2,12,2,3,5,1
0,6,9,25
0,3,14
0,4,6,9
0,1,7,12,2,3,14
0,12,2,12,2,10,13,5,16,8,20,14
0,2,10,7,10,7,10,7,12,2,12,2,12,2,3,5
0,3,14,20,28
0,2,12,2,12,2,3,4,6,4,11,21
0,3,14,20,14
0,2,12,2,10,7,10
0,4,6,4,6,9
0,4,11,21
0,2,3,4,8,16,15,31,28,31,30,19,20,14
0,3,4,11,32
0,4,11
0,2,12,2,3,17,13,17,13,17,19,12,2,12
0,2,12,2,12,2,3,17,19,12,2,3,4,6,9
0,2,12,2,12,2,10,7,10,7,10
0,4,8,13,17,19,12,2,12,2,10
0,2,3,17,13,17,13,17
0,1,7,10,7,12,2,12,2,12,2,3,14
0,2,12,2,10,13,5
0,4,8,20,30,19,12,2,3,14
0,3,4,6,9
0,4,8,13,17,19,13,14
0,3,14
0,3,14
0,3,14,20,27,33
0,12,2,3,14
0,2,3,5,13,5,16
0,2,3,17,13,14
0,3,14,20
0,12,2,12,2,3,4,8
0,2,10
0,1,7,12,2,3,14
0,2,12,2,3,17,19,30,19,12,2,12,2,3,17,19,30
0,3,28
0,6,4,11,21
0,12,2,12,2,10,7,10
0,2,12,2,3
0,1,7,10,13,17,13,17,19,20,14
0,2,3,4,6,4,8,13,14,20,14
0,2,12,2,12,2,10,13,5,13,5,1,13,5,16
0,3,14,20,27,25
0,2,3,4,6,4,8,13,14,20,14
0,2,12,2,10,7,10
0,5,1,7,12,2,12,2,12,2,3,17,19,30,19,12,2,3,17,19,30
0,5,1,15,1
0,3,14,20,14,20,28,31,28,31,28,31,30,19,12,2,3,14,20,14,20,14,20,27,8,16
0,3,5,13,17,13,17,13,5,13,14,20,14
0,12,2,12,2,3,4,6,4,8,20,14
0,3,14,20,27,33
0,12,2,12,2,3,5,16,8,20,14
0,2,12,2,3,4,6,4,11,21
0,4,11
0,2,3,5,1,13,17,13,17,19,20,14
0,2,3,4,6,9
0,4,8,13,14
0,9
0,3,5,13,5,13,5,1,13,17,19,13,14,20,14
0,2,3,17,13,5,13,5,13,5,13,14,20,14
0,2,12,2,3,4,6,9,6,4,11,21
0,5,16,25,29
0,3,5,16,15,1,13,14,20,14
0,2,10,7,12,2,12,2,3,14
0,2,10,13,17,13,17,13,17,19,12,2,12,2,3,14
0,1,13,5,1,7,10,7,12,2,3,14
0,12,2,10,13
0,4,8,20,14
0,2,10
0,2,3,4,11,21
0,2,10,7,10,7,10,7,12
0
0,3,14,20,30,19,30,19,13,17,13,17,19,20,14,20,14
0,12,2,3,4,8,13,5,13,17,19,12,2,12,2,12,2,3,14
0,3,14,20,14,20,28
0,2,10,7,12,2,12,2,12,2,3,14,20,14
0,2,3,4,6
0,9,6,4,11,21
0,3,5,1,7,10,7,10,7,3,14,20,14,20,14
0,4,6,4,11,21
0,12,2,3,4,6,4,11,21
0,2,3,5,16,8,20,14
0,3,4,6,4,11,21
0,4,8,1,7,10,7,10,7,3,14,20,14
0,4,6,4,11,32
0,2,10,13,17,19,30,19,12,2,12,2,3,14
0,3,5,13,5,13,5,13,14
0,1,7,10,7,10,7,10,7,12,2,12,2,10,7,12,2,10,18,24,18
0,3,14
0,2,10,7,10,7,12,2,12,2,12,2,3,14
0,3,5,13,5,1,7,12,2,12,2,12,2,3,5,16,15,16,8,16
0,9,6,4,11,21
0,3,4,8,13,4,8,20,28,31
0,2,3,4,6,4,11,21
0,3,5,16
0,4,8,13,14
0,6,4,11,32
0,6
0,3,5,13,17,13,17,19,30,19,13,14
0,3,4,11
0,4,11,21
0,9
0,3,4,11,21
0,2,12,2,12
