j,h,f;j,h,a


f,h,j,h;a,h,j,h;a,h,j,e;f,h,j;a,h,j;j,h,j,h;j,h,j;g,a,h,j,h


j,e,j


h,a,g;h,f,a;j,h,a,g;j,h,f,a;h,f,a,f;h,f,a,g


h,a,h;h,f,h;h,f,h,f;h,f,h,j;e,j,h;h,j,h;h,j,e;h,j,e,j;h,j,h,j;h,j,h,f


d,g,a,h,j;g,a,h,j;d,g,a,c;d,g,a,f;d,g,a,h;g,a,c;g,a,f;g,a,h;g,a,c,a


g,c,a;g,c,g;g,c,f;g,d,g,d;g,d,g,c;g,d,g,a;h,a,g,d;a,g,d,g,a;a,g,d,g;g,c,a,f;d,g,a,g;a,g,d,g,a,h,j;g,c,g,c,g;a,g,d,g,a,h;g,a,g,a;g,a,g,d;c,g,c,g;c,g,c,a;c,g,d,g,d,g;g,a,g;g,d,g,a,f;g,d,g,a,g;g,d,g,a,c;g,d,g,a,h;c,g,d,g,d;c,g,d,g,a;a,c,g;c,g,a;c,g,c;c,g,d;a,c,g,d;a,c,g,c;g,a,g,d,g;a,g,d;g,d,g,c,g;f,a,g,d,g;g,d,g,a,h,j;g,d,g;h,a,g,d,g,a;g,d,g,d,g;h,a,g,d,g;g,a,c,g;d,g,d,g;c,g,d,g;g,c,g,a;g,c,g,c;g,c,g,d;d,g,c,g;d,g,d;d,g,c;d,g,a;g,d,g,d,g,a;a,c,g,d,g;c,g,c,g,c;d,g,d,g,a


f,c,f,c;f,a,c,g;f,c,a,f;f,a,f;f,a,c;f,a,g;f,a,h;f,c,a;f,c,f;f,c,g;f,a,g,d;f,a,f,h;f,a,f,c;f,a,f,a;f,a,f,a,f


a,f,h;g,a,f,h;f,h,f,h;f,h,f,a;f,h,f;a,f,h,f;c,a,f,h;a,f,h,j;f,h,f,h,f;c,f,h;a,f,h,f,h


a,f,a;g,a,f,a;g,a,h,f;a,c,a,c;a,c,a,f;a,h,f;a,h,a;a,f,a,f,a;a,f,a,f,h;a,c,a;a,c,g,a;a,g,a;a,h,f,a;a,f,a,f;a,g,a,h


a,f,c;h,f,c;c,a,f,c;c,a,f,a;c,f,c;c,a,c;c,a,f,a,f;a,f,a,c;c,a,f;c,a,c,a;c,f,c,f


